codeId,codeType,txtName,codeLgt,codeMarking,txtDescrLgt,txtDescrMarking,geoLat,geoLong,valGeoAccuracy,uomGeoAccuracy,valElev,valElevAccuracy,valHgt,codeHgtAccuracy,uomDistVer,valRadius,uomRadius,codeGroupId,txtGroupName,codeLinkedToId,codeLinkType,datetimeValidWef,datetimeValidTil,txtRmk,source
1,ANTENNA,DROITWICH LW NORTH,Y,Y,Red lighting,Red/white horizontal stripes,52.29639600N,002.10675400W,5,M,56,0,214,Y,M,200,M,3d3b794b-590e-42dd-abad-3e943f75ab0d,Longwave antenna masts,,,2018-08-01T00:00:00Z,2020-07-31T24:00:00Z,Longwave antenna see https://en.wikipedia.org/wiki/Droitwich_Transmitting_Station,EG|ENR|5.4|2018-01-04|2947
2,ANTENNA,DROITWICH LW SOUTH,Y,Y,Red lighting,Red/white horizontal stripes,52.29457700N,002.10568600W,5,M,56,0,214,Y,M,200,M,3d3b794b-590e-42dd-abad-3e943f75ab0d,Longwave antenna masts,1,CABLE,2018-08-01T00:00:00Z,2020-07-31T24:00:00Z,Longwave antenna see https://en.wikipedia.org/wiki/Droitwich_Transmitting_Station,EG|ENR|5.4|2018-01-04|2947
3,TREE,LFNT 34L A,N,N,,,43.98977100N,004.75587900E,2,M,55,2,12,N,M,2,M,83d659d8-4d39-4628-be86-a2bcadafc09a,,,,,,Close to the beginning of runway 34L,LF|ENR|5.4|2018-01-04|838
4,TREE,LFNT 34L B,N,N,,,43.98970100N,004.75601200E,2,M,55,2,12,N,M,2,M,83d659d8-4d39-4628-be86-a2bcadafc09a,,,,,,Close to the beginning of runway 34L,LF|ENR|5.4|2018-01-04|838
5,WINDTURBINE,GIRONA,Y,Y,Red lighting,Orange reflective strips,42.44166667N,002.81972222E,5,M,697,,125,Y,M,60,M,,,,,2018-08-10T00:00:00Z,,Coordinates not verified,LE|ENR|5.4|2018-01-04|3847
