<?xml version="1.0" encoding="UTF-8"?>
<!DOCTYPE svg PUBLIC "-//W3C//DTD SVG 1.1//EN" "http://www.w3.org/Graphics/SVG/1.1/DTD/svg11.dtd">
<svg version="1.1" xmlns="http://www.w3.org/2000/svg" xmlns:xlink="http://www.w3.org/1999/xlink" x="0" y="0" width="30" height="16" viewBox="0, 0, 30, 16">
  <g id="Layer_1">
    <path d="M14.663,7.684 C14.663,11.179 17.496,14.012 20.991,14.012" fill-opacity="0" stroke="#000000" stroke-width="1.5"/>
    <path d="M20.991,14.012 L23.249,14.012" fill-opacity="0" stroke="#000000" stroke-width="1.5" stroke-linecap="round"/>
    <path d="M14.663,7.684 L14.642,1.991" fill-opacity="0" stroke="#000000" stroke-width="1.5" stroke-linecap="round"/>
    <path d="M14.642,1.991 L19.966,6.158" fill-opacity="0" stroke="#000000" stroke-width="1.5" stroke-linecap="round"/>
    <path d="M14.642,1.991 L9.317,6.158" fill-opacity="0" stroke="#000000" stroke-width="1.5" stroke-linecap="round"/>
  </g>
</svg>
