<?xml version="1.0" encoding="utf-8"?>
<svg onload="initSVG();" xml:space="preserve" width="842" height="595" viewBox="0 0 842 595" color-interpolation-filters="sRGB" id="root" xmlns:xlink="http://www.w3.org/1999/xlink">
 Converted with TEXTCAFE (tm) http://www.texterity.com 
  <title>012_FATO_DIRECTION_DECL_DIST (A -- Page 1</title>
<defs>
    <color-profile xlink:href="data:application/icc;base64, AAAMSExpbm8CEAAAbW50clJHQiBYWVogB84AAgAJAAYAMQAAYWNzcE1TRlQAAAAASUVDIHNSR0IA AAAAAAAAAAAAAAAAAPbWAAEAAAAA0y1IUCAgAAAAAAAAAAAAAAAAAAAAAAAAAAAAAAAAAAAAAAAA AAAAAAAAAAAAAAAAAAAAAAARY3BydAAAAVAAAAAzZGVzYwAAAYQAAABsd3RwdAAAAfAAAAAUYmtw dAAAAgQAAAAUclhZWgAAAhgAAAAUZ1hZWgAAAiwAAAAUYlhZWgAAAkAAAAAUZG1uZAAAAlQAAABw ZG1kZAAAAsQAAACIdnVlZAAAA0wAAACGdmlldwAAA9QAAAAkbHVtaQAAA/gAAAAUbWVhcwAABAwA AAAkdGVjaAAABDAAAAAMclRSQwAABDwAAAgMZ1RSQwAABDwAAAgMYlRSQwAABDwAAAgMdGV4dAAA AABDb3B5cmlnaHQgKGMpIDE5OTggSGV3bGV0dC1QYWNrYXJkIENvbXBhbnkAAGRlc2MAAAAAAAAA EnNSR0IgSUVDNjE5NjYtMi4xAAAAAAAAAAAAAAASc1JHQiBJRUM2MTk2Ni0yLjEAAAAAAAAAAAAA AAAAAAAAAAAAAAAAAAAAAAAAAAAAAAAAAAAAAAAAAAAAAAAAAAAAAFhZWiAAAAAAAADzUQABAAAA ARbMWFlaIAAAAAAAAAAAAAAAAAAAAABYWVogAAAAAAAAb6IAADj1AAADkFhZWiAAAAAAAABimQAA t4UAABjaWFlaIAAAAAAAACSgAAAPhAAAts9kZXNjAAAAAAAAABZJRUMgaHR0cDovL3d3dy5pZWMu Y2gAAAAAAAAAAAAAABZJRUMgaHR0cDovL3d3dy5pZWMuY2gAAAAAAAAAAAAAAAAAAAAAAAAAAAAA AAAAAAAAAAAAAAAAAAAAAAAAAAAAAAAAZGVzYwAAAAAAAAAuSUVDIDYxOTY2LTIuMSBEZWZhdWx0 IFJHQiBjb2xvdXIgc3BhY2UgLSBzUkdCAAAAAAAAAAAAAAAuSUVDIDYxOTY2LTIuMSBEZWZhdWx0 IFJHQiBjb2xvdXIgc3BhY2UgLSBzUkdCAAAAAAAAAAAAAAAAAAAAAAAAAAAAAGRlc2MAAAAAAAAA LFJlZmVyZW5jZSBWaWV3aW5nIENvbmRpdGlvbiBpbiBJRUM2MTk2Ni0yLjEAAAAAAAAAAAAAACxS ZWZlcmVuY2UgVmlld2luZyBDb25kaXRpb24gaW4gSUVDNjE5NjYtMi4xAAAAAAAAAAAAAAAAAAAA AAAAAAAAAAAAAAB2aWV3AAAAAAATpP4AFF8uABDPFAAD7cwABBMLAANcngAAAAFYWVogAAAAAABM CVYAUAAAAFcf521lYXMAAAAAAAAAAQAAAAAAAAAAAAAAAAAAAAAAAAKPAAAAAnNpZyAAAAAAQ1JU IGN1cnYAAAAAAAAEAAAAAAUACgAPABQAGQAeACMAKAAtADIANwA7AEAARQBKAE8AVABZAF4AYwBo AG0AcgB3AHwAgQCGAIsAkACVAJoAnwCkAKkArgCyALcAvADBAMYAywDQANUA2wDgAOUA6wDwAPYA +wEBAQcBDQETARkBHwElASsBMgE4AT4BRQFMAVIBWQFgAWcBbgF1AXwBgwGLAZIBmgGhAakBsQG5 AcEByQHRAdkB4QHpAfIB+gIDAgwCFAIdAiYCLwI4AkECSwJUAl0CZwJxAnoChAKOApgCogKsArYC wQLLAtUC4ALrAvUDAAMLAxYDIQMtAzgDQwNPA1oDZgNyA34DigOWA6IDrgO6A8cD0wPgA+wD+QQG BBMEIAQtBDsESARVBGMEcQR+BIwEmgSoBLYExATTBOEE8AT+BQ0FHAUrBToFSQVYBWcFdwWGBZYF pgW1BcUF1QXlBfYGBgYWBicGNwZIBlkGagZ7BowGnQavBsAG0QbjBvUHBwcZBysHPQdPB2EHdAeG B5kHrAe/B9IH5Qf4CAsIHwgyCEYIWghuCIIIlgiqCL4I0gjnCPsJEAklCToJTwlkCXkJjwmkCboJ zwnlCfsKEQonCj0KVApqCoEKmAquCsUK3ArzCwsLIgs5C1ELaQuAC5gLsAvIC+EL+QwSDCoMQwxc DHUMjgynDMAM2QzzDQ0NJg1ADVoNdA2ODakNww3eDfgOEw4uDkkOZA5/DpsOtg7SDu4PCQ8lD0EP Xg96D5YPsw/PD+wQCRAmEEMQYRB+EJsQuRDXEPURExExEU8RbRGMEaoRyRHoEgcSJhJFEmQShBKj EsMS4xMDEyMTQxNjE4MTpBPFE+UUBhQnFEkUahSLFK0UzhTwFRIVNBVWFXgVmxW9FeAWAxYmFkkW bBaPFrIW1hb6Fx0XQRdlF4kXrhfSF/cYGxhAGGUYihivGNUY+hkgGUUZaxmRGbcZ3RoEGioaURp3 Gp4axRrsGxQbOxtjG4obshvaHAIcKhxSHHscoxzMHPUdHh1HHXAdmR3DHeweFh5AHmoelB6+Hukf Ex8+H2kflB+/H+ogFSBBIGwgmCDEIPAhHCFIIXUhoSHOIfsiJyJVIoIiryLdIwojOCNmI5QjwiPw JB8kTSR8JKsk2iUJJTglaCWXJccl9yYnJlcmhya3JugnGCdJJ3onqyfcKA0oPyhxKKIo1CkGKTgp aymdKdAqAio1KmgqmyrPKwIrNitpK50r0SwFLDksbiyiLNctDC1BLXYtqy3hLhYuTC6CLrcu7i8k L1ovkS/HL/4wNTBsMKQw2zESMUoxgjG6MfIyKjJjMpsy1DMNM0YzfzO4M/E0KzRlNJ402DUTNU01 hzXCNf02NzZyNq426TckN2A3nDfXOBQ4UDiMOMg5BTlCOX85vDn5OjY6dDqyOu87LTtrO6o76Dwn PGU8pDzjPSI9YT2hPeA+ID5gPqA+4D8hP2E/oj/iQCNAZECmQOdBKUFqQaxB7kIwQnJCtUL3QzpD fUPARANER0SKRM5FEkVVRZpF3kYiRmdGq0bwRzVHe0fASAVIS0iRSNdJHUljSalJ8Eo3Sn1KxEsM S1NLmkviTCpMcky6TQJNSk2TTdxOJU5uTrdPAE9JT5NP3VAnUHFQu1EGUVBRm1HmUjFSfFLHUxNT X1OqU/ZUQlSPVNtVKFV1VcJWD1ZcVqlW91dEV5JX4FgvWH1Yy1kaWWlZuFoHWlZaplr1W0VblVvl XDVchlzWXSddeF3JXhpebF69Xw9fYV+zYAVgV2CqYPxhT2GiYfViSWKcYvBjQ2OXY+tkQGSUZOll PWWSZedmPWaSZuhnPWeTZ+loP2iWaOxpQ2maafFqSGqfavdrT2una/9sV2yvbQhtYG25bhJua27E bx5veG/RcCtwhnDgcTpxlXHwcktypnMBc11zuHQUdHB0zHUodYV14XY+dpt2+HdWd7N4EXhueMx5 KnmJeed6RnqlewR7Y3vCfCF8gXzhfUF9oX4BfmJ+wn8jf4R/5YBHgKiBCoFrgc2CMIKSgvSDV4O6 hB2EgITjhUeFq4YOhnKG14c7h5+IBIhpiM6JM4mZif6KZIrKizCLlov8jGOMyo0xjZiN/45mjs6P No+ekAaQbpDWkT+RqJIRknqS45NNk7aUIJSKlPSVX5XJljSWn5cKl3WX4JhMmLiZJJmQmfyaaJrV m0Kbr5wcnImc951kndKeQJ6unx2fi5/6oGmg2KFHobaiJqKWowajdqPmpFakx6U4pammGqaLpv2n bqfgqFKoxKk3qamqHKqPqwKrdavprFys0K1ErbiuLa6hrxavi7AAsHWw6rFgsdayS7LCszizrrQl tJy1E7WKtgG2ebbwt2i34LhZuNG5SrnCuju6tbsuu6e8IbybvRW9j74KvoS+/796v/XAcMDswWfB 48JfwtvDWMPUxFHEzsVLxcjGRsbDx0HHv8g9yLzJOsm5yjjKt8s2y7bMNcy1zTXNtc42zrbPN8+4 0DnQutE80b7SP9LB00TTxtRJ1MvVTtXR1lXW2Ndc1+DYZNjo2WzZ8dp22vvbgNwF3IrdEN2W3hze ot8p36/gNuC94UThzOJT4tvjY+Pr5HPk/OWE5g3mlucf56noMui86Ubp0Opb6uXrcOv77IbtEe2c 7ijutO9A78zwWPDl8XLx//KM8xnzp/Q09ML1UPXe9m32+/eK+Bn4qPk4+cf6V/rn+3f8B/yY/Sn9 uv5L/tz/bf//" rendering-intent="relative-colorimetric" name="p1"/>
<style type="text/css">

clipPath{shape-rendering:crispEdges}
image{shape-rendering:crispEdges}

    </style>
<clipPath id="id2">
      <rect width="595" height="842" y="0" x="0"/>
</clipPath>
</defs>
<defs/>
<g>
<g transform="scale(1 -1)">
<g transform="matrix(0 -1 1 0 0 0)" clip-path="url(#id2)" id="main">
<path stroke-width="1" d="M585.96 14.511L583.92 14.511M585.96 14.511L585.96 16.551M9.6 14.511L11.64 14.511M9.6 14.511L9.6 16.551M585.96 826.191L583.92 826.191M585.96 826.191L585.96 824.151M9.6 826.191L11.64 826.191M9.6 826.191L9.6 824.151" stroke-miterlimit="10" stroke="#000000 icc-color(p1,0,0,0)" stroke-linejoin="round" fill="none" stroke-linecap="round"/>
<path d="M10.38 15.291h566.58v801.9h-566.58Z" fill-rule="nonzero" stroke="none" fill="#ffffff icc-color(p1,1,1,1)"/>
<path stroke-width="1" d="M576.96 817.191h-566.64v-801.96h566.64Z" stroke-miterlimit="10" stroke="#000000 icc-color(p1,0,0,0)" stroke-linejoin="round" fill="none" stroke-linecap="round"/>
<a onclick="selectEntity('TWY');" onmousemove="(window.status ='TWY')">
<path id="TWY" stroke-width="1" d="M220.26 199.011C216.48 199.011 213.42 195.891 213.42 192.111L213.42 74.871C213.42 71.091 216.48 68.031 220.26 68.031L366.3 68.031C370.08 68.031 373.2 71.091 373.2 74.871L373.2 192.111C373.2 195.891 370.08 199.011 366.3 199.011Z" fill-rule="evenodd" stroke-miterlimit="10" stroke="#000000 icc-color(p1,0,0,0)" stroke-linejoin="round" fill="#ffffff icc-color(p1,1,1,1)" stroke-linecap="round"/>
<text transform="matrix(0 1 1 0 0 0)">
<tspan font-family="ArialMT,sans-serif" font-size="10.9781" letter-spacing="0" fill-rule="nonzero" stroke="none" y="230.1" fill="#000000 icc-color(p1,0,0,0)" x="74.8705">TWY</tspan>
<tspan font-family="ArialMT,sans-serif" font-size="8.2336" letter-spacing="0" fill-rule="nonzero" stroke="none" y="240" fill="#000000 icc-color(p1,0,0,0)" x="74.8705">*  TXT_DESIG</tspan>
<tspan font-family="ArialMT,sans-serif" font-size="8.2336" letter-spacing="0" fill-rule="nonzero" stroke="none" y="248.88" fill="#000000 icc-color(p1,0,0,0)" x="74.8705">*  CODE_TYPE</tspan>
<tspan font-family="ArialMT,sans-serif" font-size="8.2336" letter-spacing="0" fill-rule="nonzero" stroke="none" y="257.82" fill="#000000 icc-color(p1,0,0,0)" x="74.8705">o  VAL_WID</tspan>
<tspan font-family="ArialMT,sans-serif" font-size="8.2336" letter-spacing="0" fill-rule="nonzero" stroke="none" y="266.76" fill="#000000 icc-color(p1,0,0,0)" x="74.8705">o  UOM_WID</tspan>
<tspan font-family="ArialMT,sans-serif" font-size="8.2336" letter-spacing="0" fill-rule="nonzero" stroke="none" y="275.64" fill="#000000 icc-color(p1,0,0,0)" x="74.8705">o  [CODE_COMPOSITION]</tspan>
<tspan font-family="ArialMT,sans-serif" font-size="8.2336" letter-spacing="0" fill-rule="nonzero" stroke="none" y="284.58" fill="#000000 icc-color(p1,0,0,0)" x="74.8705">o  [CODE_COND_SFC]</tspan>
<tspan font-family="ArialMT,sans-serif" font-size="8.2336" letter-spacing="0" fill-rule="nonzero" stroke="none" y="293.52" fill="#000000 icc-color(p1,0,0,0)" x="74.8705">o  [CODE_STRENGTH]</tspan>
<tspan font-family="ArialMT,sans-serif" font-size="8.2336" letter-spacing="0" fill-rule="nonzero" stroke="none" y="302.4" fill="#000000 icc-color(p1,0,0,0)" x="74.8705">o  [TXT_DESCR_STRENGTH]</tspan>
<tspan font-family="ArialMT,sans-serif" font-size="8.2336" letter-spacing="0" fill-rule="nonzero" stroke="none" y="311.34" fill="#000000 icc-color(p1,0,0,0)" x="74.8705">o  CODE_STS</tspan>
<tspan font-family="ArialMT,sans-serif" font-size="8.2336" letter-spacing="0" fill-rule="nonzero" stroke="none" y="320.28" fill="#000000 icc-color(p1,0,0,0)" x="74.8705">o  TXT_MARKING</tspan>
<tspan font-family="ArialMT,sans-serif" font-size="8.2336" letter-spacing="0" fill-rule="nonzero" stroke="none" y="329.16" fill="#000000 icc-color(p1,0,0,0)" x="74.8705">o  TXT_RMK</tspan>
</text>
</a>
<a onclick="selectEntity('FATO_DIRECTION_DECL_DIST');" onmousemove="(window.status ='FATO_DIRECTION_DECL_DIST')">
<path id="FATO_DIRECTION_DECL_DIST" stroke-width="1" d="M253.86 517.37C250.08 517.37 247.02 514.25 247.02 510.471L247.02 335.571C247.02 331.791 250.08 328.731 253.86 328.731L332.7 328.731C336.48 328.731 339.6 331.791 339.6 335.571L339.6 510.471C339.6 514.25 336.48 517.37 332.7 517.37Z" fill-rule="evenodd" stroke-miterlimit="10" stroke="#000000 icc-color(p1,0,0,0)" stroke-linejoin="round" fill="#ffffff icc-color(p1,1,1,1)" stroke-linecap="round"/>
<text transform="matrix(0 1 1 0 0 0)">
<tspan font-family="ArialMT,sans-serif" font-size="10.9781" letter-spacing="0" fill-rule="nonzero" stroke="none" y="263.7" fill="#000000 icc-color(p1,0,0,0)" x="335.63">FATO_DIRECTION_DECL_DIST</tspan>
<tspan font-family="ArialMT,sans-serif" font-size="8.2336" letter-spacing="0" fill-rule="nonzero" stroke="none" y="273.6" fill="#000000 icc-color(p1,0,0,0)" x="335.63">*  CODE_TYPE</tspan>
<tspan font-family="ArialMT,sans-serif" font-size="8.2336" letter-spacing="0" fill-rule="nonzero" stroke="none" y="282.54" fill="#000000 icc-color(p1,0,0,0)" x="335.63">*  CODE_DAY_PERIOD</tspan>
<tspan font-family="ArialMT,sans-serif" font-size="8.2336" letter-spacing="0" fill-rule="nonzero" stroke="none" y="291.42" fill="#000000 icc-color(p1,0,0,0)" x="335.63">*  VAL_DIST</tspan>
<tspan font-family="ArialMT,sans-serif" font-size="8.2336" letter-spacing="0" fill-rule="nonzero" stroke="none" y="300.36" fill="#000000 icc-color(p1,0,0,0)" x="335.63">*  UOM_DIST</tspan>
<tspan font-family="ArialMT,sans-serif" font-size="8.2336" letter-spacing="0" fill-rule="nonzero" stroke="none" y="309.3" fill="#000000 icc-color(p1,0,0,0)" x="335.63">o  TXT_RMK</tspan>
</text>
</a>
<a onclick="selectEntity('FATO_DIRECTION');" onmousemove="(window.status ='FATO_DIRECTION')">
<path id="FATO_DIRECTION" stroke-width="1" d="M238.08 763.671C234.3 763.671 231.24 760.551 231.24 756.771L231.24 610.07C231.24 606.291 234.3 603.23 238.08 603.23L403.38 603.23C407.16 603.23 410.28 606.291 410.28 610.07L410.28 756.771C410.28 760.551 407.16 763.671 403.38 763.671Z" fill-rule="evenodd" stroke-miterlimit="10" stroke="#000000 icc-color(p1,0,0,0)" stroke-linejoin="round" fill="#ffffff icc-color(p1,1,1,1)" stroke-linecap="round"/>
<text transform="matrix(0 1 1 0 0 0)">
<tspan font-family="ArialMT,sans-serif" font-size="10.9781" letter-spacing="0" fill-rule="nonzero" stroke="none" y="247.92" fill="#000000 icc-color(p1,0,0,0)" x="610.071">FATO_DIRECTION</tspan>
<tspan font-family="ArialMT,sans-serif" font-size="8.2336" letter-spacing="0" fill-rule="nonzero" stroke="none" y="257.82" fill="#000000 icc-color(p1,0,0,0)" x="610.071">*  TXT_DESIG</tspan>
<tspan font-family="ArialMT,sans-serif" font-size="8.2336" letter-spacing="0" fill-rule="nonzero" stroke="none" y="266.76" fill="#000000 icc-color(p1,0,0,0)" x="610.071">o  VAL_TRUE_BRG</tspan>
<tspan font-family="ArialMT,sans-serif" font-size="8.2336" letter-spacing="0" fill-rule="nonzero" stroke="none" y="275.64" fill="#000000 icc-color(p1,0,0,0)" x="610.071">o  VAL_MAG_BRG</tspan>
<tspan font-family="ArialMT,sans-serif" font-size="8.2336" letter-spacing="0" fill-rule="nonzero" stroke="none" y="284.58" fill="#000000 icc-color(p1,0,0,0)" x="610.071">o  CODE_TYPE_VASIS</tspan>
<tspan font-family="ArialMT,sans-serif" font-size="8.2336" letter-spacing="0" fill-rule="nonzero" stroke="none" y="293.52" fill="#000000 icc-color(p1,0,0,0)" x="610.071">o  CODE_PSN_VASIS</tspan>
<tspan font-family="ArialMT,sans-serif" font-size="8.2336" letter-spacing="0" fill-rule="nonzero" stroke="none" y="302.4" fill="#000000 icc-color(p1,0,0,0)" x="610.071">o  NO_BOX_VASIS</tspan>
<tspan font-family="ArialMT,sans-serif" font-size="8.2336" letter-spacing="0" fill-rule="nonzero" stroke="none" y="311.34" fill="#000000 icc-color(p1,0,0,0)" x="610.071">o  CODE_PORTABLE_VASIS</tspan>
<tspan font-family="ArialMT,sans-serif" font-size="8.2336" letter-spacing="0" fill-rule="nonzero" stroke="none" y="320.28" fill="#000000 icc-color(p1,0,0,0)" x="610.071">o  [TXT_DESCR_PSN_VASIS]</tspan>
<tspan font-family="ArialMT,sans-serif" font-size="8.2336" letter-spacing="0" fill-rule="nonzero" stroke="none" y="329.16" fill="#000000 icc-color(p1,0,0,0)" x="610.071">o  VAL_SLOPE_ANGLE_GP_VASIS</tspan>
<tspan font-family="ArialMT,sans-serif" font-size="8.2336" letter-spacing="0" fill-rule="nonzero" stroke="none" y="338.1" fill="#000000 icc-color(p1,0,0,0)" x="610.071">o  VAL_MEHT</tspan>
<tspan font-family="ArialMT,sans-serif" font-size="8.2336" letter-spacing="0" fill-rule="nonzero" stroke="none" y="347.04" fill="#000000 icc-color(p1,0,0,0)" x="610.071">o  UOM_MEHT</tspan>
<tspan font-family="ArialMT,sans-serif" font-size="8.2336" letter-spacing="0" fill-rule="nonzero" stroke="none" y="355.92" fill="#000000 icc-color(p1,0,0,0)" x="610.071">o  TXT_RMK</tspan>
</text>
</a>
<path stroke-width="1" d="M297.78 324.651L297.78 312.291M297.78 308.151L297.78 295.851M297.78 291.711L297.78 279.351M297.78 275.271L297.78 264.291M297.78 260.151L297.78 247.791M297.78 243.711L297.78 231.351M297.78 227.211L297.78 214.851M297.78 210.771L297.78 199.071M297.78 318.471L294.36 328.731M297.78 318.471L301.2 328.731M297.78 318.471L297.78 328.731" stroke-miterlimit="10" stroke="#000000 icc-color(p1,0,0,0)" stroke-linejoin="round" fill="none" stroke-linecap="round"/>
<text transform="matrix(0 1 1 0 0 0)">
<tspan font-family="ArialMT,sans-serif" font-size="10.9781" letter-spacing="0" fill-rule="nonzero" stroke="none" y="311.04" fill="#000000 icc-color(p1,0,0,0)" x="233.39">associated with</tspan>
<tspan font-family="ArialMT,sans-serif" font-size="10.9781" letter-spacing="0" fill-rule="nonzero" stroke="none" y="289.8" fill="#000000 icc-color(p1,0,0,0)" x="205.97">associated with</tspan>
</text>
<path stroke-width="1" d="M297.78 517.43L297.78 559.971M297.78 564.11L297.78 576.471M297.78 580.551L297.78 592.911M297.78 597.051L297.78 603.23M297.78 527.75L294.36 517.43M297.78 527.75L301.2 517.43M297.78 527.75L297.78 517.43" stroke-miterlimit="10" stroke="#000000 icc-color(p1,0,0,0)" stroke-linejoin="round" fill="none" stroke-linecap="round"/>
<text transform="matrix(0 1 1 0 0 0)">
<tspan font-family="ArialMT,sans-serif" font-size="10.9781" letter-spacing="0" fill-rule="nonzero" stroke="none" y="289.8" fill="#000000 icc-color(p1,0,0,0)" x="524.33">for</tspan>
<tspan font-family="ArialMT,sans-serif" font-size="10.9781" letter-spacing="0" fill-rule="nonzero" stroke="none" y="311.04" fill="#000000 icc-color(p1,0,0,0)" x="555.17">having</tspan>
</text>
</g>
</g>
</g>
</svg>
