<?xml version="1.0" encoding="utf-8"?>
<svg onload="initSVG();" xml:space="preserve" width="842" height="595" viewBox="0 0 842 595" color-interpolation-filters="sRGB" id="root" xmlns:xlink="http://www.w3.org/1999/xlink">
 Converted with TEXTCAFE (tm) http://www.texterity.com 
  <title>014_TWY (AICM-4-5) -- Page 1</title>
<defs>
    <color-profile xlink:href="data:application/icc;base64, AAAMSExpbm8CEAAAbW50clJHQiBYWVogB84AAgAJAAYAMQAAYWNzcE1TRlQAAAAASUVDIHNSR0IA AAAAAAAAAAAAAAAAAPbWAAEAAAAA0y1IUCAgAAAAAAAAAAAAAAAAAAAAAAAAAAAAAAAAAAAAAAAA AAAAAAAAAAAAAAAAAAAAAAARY3BydAAAAVAAAAAzZGVzYwAAAYQAAABsd3RwdAAAAfAAAAAUYmtw dAAAAgQAAAAUclhZWgAAAhgAAAAUZ1hZWgAAAiwAAAAUYlhZWgAAAkAAAAAUZG1uZAAAAlQAAABw ZG1kZAAAAsQAAACIdnVlZAAAA0wAAACGdmlldwAAA9QAAAAkbHVtaQAAA/gAAAAUbWVhcwAABAwA AAAkdGVjaAAABDAAAAAMclRSQwAABDwAAAgMZ1RSQwAABDwAAAgMYlRSQwAABDwAAAgMdGV4dAAA AABDb3B5cmlnaHQgKGMpIDE5OTggSGV3bGV0dC1QYWNrYXJkIENvbXBhbnkAAGRlc2MAAAAAAAAA EnNSR0IgSUVDNjE5NjYtMi4xAAAAAAAAAAAAAAASc1JHQiBJRUM2MTk2Ni0yLjEAAAAAAAAAAAAA AAAAAAAAAAAAAAAAAAAAAAAAAAAAAAAAAAAAAAAAAAAAAAAAAAAAAFhZWiAAAAAAAADzUQABAAAA ARbMWFlaIAAAAAAAAAAAAAAAAAAAAABYWVogAAAAAAAAb6IAADj1AAADkFhZWiAAAAAAAABimQAA t4UAABjaWFlaIAAAAAAAACSgAAAPhAAAts9kZXNjAAAAAAAAABZJRUMgaHR0cDovL3d3dy5pZWMu Y2gAAAAAAAAAAAAAABZJRUMgaHR0cDovL3d3dy5pZWMuY2gAAAAAAAAAAAAAAAAAAAAAAAAAAAAA AAAAAAAAAAAAAAAAAAAAAAAAAAAAAAAAZGVzYwAAAAAAAAAuSUVDIDYxOTY2LTIuMSBEZWZhdWx0 IFJHQiBjb2xvdXIgc3BhY2UgLSBzUkdCAAAAAAAAAAAAAAAuSUVDIDYxOTY2LTIuMSBEZWZhdWx0 IFJHQiBjb2xvdXIgc3BhY2UgLSBzUkdCAAAAAAAAAAAAAAAAAAAAAAAAAAAAAGRlc2MAAAAAAAAA LFJlZmVyZW5jZSBWaWV3aW5nIENvbmRpdGlvbiBpbiBJRUM2MTk2Ni0yLjEAAAAAAAAAAAAAACxS ZWZlcmVuY2UgVmlld2luZyBDb25kaXRpb24gaW4gSUVDNjE5NjYtMi4xAAAAAAAAAAAAAAAAAAAA AAAAAAAAAAAAAAB2aWV3AAAAAAATpP4AFF8uABDPFAAD7cwABBMLAANcngAAAAFYWVogAAAAAABM CVYAUAAAAFcf521lYXMAAAAAAAAAAQAAAAAAAAAAAAAAAAAAAAAAAAKPAAAAAnNpZyAAAAAAQ1JU IGN1cnYAAAAAAAAEAAAAAAUACgAPABQAGQAeACMAKAAtADIANwA7AEAARQBKAE8AVABZAF4AYwBo AG0AcgB3AHwAgQCGAIsAkACVAJoAnwCkAKkArgCyALcAvADBAMYAywDQANUA2wDgAOUA6wDwAPYA +wEBAQcBDQETARkBHwElASsBMgE4AT4BRQFMAVIBWQFgAWcBbgF1AXwBgwGLAZIBmgGhAakBsQG5 AcEByQHRAdkB4QHpAfIB+gIDAgwCFAIdAiYCLwI4AkECSwJUAl0CZwJxAnoChAKOApgCogKsArYC wQLLAtUC4ALrAvUDAAMLAxYDIQMtAzgDQwNPA1oDZgNyA34DigOWA6IDrgO6A8cD0wPgA+wD+QQG BBMEIAQtBDsESARVBGMEcQR+BIwEmgSoBLYExATTBOEE8AT+BQ0FHAUrBToFSQVYBWcFdwWGBZYF pgW1BcUF1QXlBfYGBgYWBicGNwZIBlkGagZ7BowGnQavBsAG0QbjBvUHBwcZBysHPQdPB2EHdAeG B5kHrAe/B9IH5Qf4CAsIHwgyCEYIWghuCIIIlgiqCL4I0gjnCPsJEAklCToJTwlkCXkJjwmkCboJ zwnlCfsKEQonCj0KVApqCoEKmAquCsUK3ArzCwsLIgs5C1ELaQuAC5gLsAvIC+EL+QwSDCoMQwxc DHUMjgynDMAM2QzzDQ0NJg1ADVoNdA2ODakNww3eDfgOEw4uDkkOZA5/DpsOtg7SDu4PCQ8lD0EP Xg96D5YPsw/PD+wQCRAmEEMQYRB+EJsQuRDXEPURExExEU8RbRGMEaoRyRHoEgcSJhJFEmQShBKj EsMS4xMDEyMTQxNjE4MTpBPFE+UUBhQnFEkUahSLFK0UzhTwFRIVNBVWFXgVmxW9FeAWAxYmFkkW bBaPFrIW1hb6Fx0XQRdlF4kXrhfSF/cYGxhAGGUYihivGNUY+hkgGUUZaxmRGbcZ3RoEGioaURp3 Gp4axRrsGxQbOxtjG4obshvaHAIcKhxSHHscoxzMHPUdHh1HHXAdmR3DHeweFh5AHmoelB6+Hukf Ex8+H2kflB+/H+ogFSBBIGwgmCDEIPAhHCFIIXUhoSHOIfsiJyJVIoIiryLdIwojOCNmI5QjwiPw JB8kTSR8JKsk2iUJJTglaCWXJccl9yYnJlcmhya3JugnGCdJJ3onqyfcKA0oPyhxKKIo1CkGKTgp aymdKdAqAio1KmgqmyrPKwIrNitpK50r0SwFLDksbiyiLNctDC1BLXYtqy3hLhYuTC6CLrcu7i8k L1ovkS/HL/4wNTBsMKQw2zESMUoxgjG6MfIyKjJjMpsy1DMNM0YzfzO4M/E0KzRlNJ402DUTNU01 hzXCNf02NzZyNq426TckN2A3nDfXOBQ4UDiMOMg5BTlCOX85vDn5OjY6dDqyOu87LTtrO6o76Dwn PGU8pDzjPSI9YT2hPeA+ID5gPqA+4D8hP2E/oj/iQCNAZECmQOdBKUFqQaxB7kIwQnJCtUL3QzpD fUPARANER0SKRM5FEkVVRZpF3kYiRmdGq0bwRzVHe0fASAVIS0iRSNdJHUljSalJ8Eo3Sn1KxEsM S1NLmkviTCpMcky6TQJNSk2TTdxOJU5uTrdPAE9JT5NP3VAnUHFQu1EGUVBRm1HmUjFSfFLHUxNT X1OqU/ZUQlSPVNtVKFV1VcJWD1ZcVqlW91dEV5JX4FgvWH1Yy1kaWWlZuFoHWlZaplr1W0VblVvl XDVchlzWXSddeF3JXhpebF69Xw9fYV+zYAVgV2CqYPxhT2GiYfViSWKcYvBjQ2OXY+tkQGSUZOll PWWSZedmPWaSZuhnPWeTZ+loP2iWaOxpQ2maafFqSGqfavdrT2una/9sV2yvbQhtYG25bhJua27E bx5veG/RcCtwhnDgcTpxlXHwcktypnMBc11zuHQUdHB0zHUodYV14XY+dpt2+HdWd7N4EXhueMx5 KnmJeed6RnqlewR7Y3vCfCF8gXzhfUF9oX4BfmJ+wn8jf4R/5YBHgKiBCoFrgc2CMIKSgvSDV4O6 hB2EgITjhUeFq4YOhnKG14c7h5+IBIhpiM6JM4mZif6KZIrKizCLlov8jGOMyo0xjZiN/45mjs6P No+ekAaQbpDWkT+RqJIRknqS45NNk7aUIJSKlPSVX5XJljSWn5cKl3WX4JhMmLiZJJmQmfyaaJrV m0Kbr5wcnImc951kndKeQJ6unx2fi5/6oGmg2KFHobaiJqKWowajdqPmpFakx6U4pammGqaLpv2n bqfgqFKoxKk3qamqHKqPqwKrdavprFys0K1ErbiuLa6hrxavi7AAsHWw6rFgsdayS7LCszizrrQl tJy1E7WKtgG2ebbwt2i34LhZuNG5SrnCuju6tbsuu6e8IbybvRW9j74KvoS+/796v/XAcMDswWfB 48JfwtvDWMPUxFHEzsVLxcjGRsbDx0HHv8g9yLzJOsm5yjjKt8s2y7bMNcy1zTXNtc42zrbPN8+4 0DnQutE80b7SP9LB00TTxtRJ1MvVTtXR1lXW2Ndc1+DYZNjo2WzZ8dp22vvbgNwF3IrdEN2W3hze ot8p36/gNuC94UThzOJT4tvjY+Pr5HPk/OWE5g3mlucf56noMui86Ubp0Opb6uXrcOv77IbtEe2c 7ijutO9A78zwWPDl8XLx//KM8xnzp/Q09ML1UPXe9m32+/eK+Bn4qPk4+cf6V/rn+3f8B/yY/Sn9 uv5L/tz/bf//" rendering-intent="relative-colorimetric" name="p1"/>
<style type="text/css">

clipPath{shape-rendering:crispEdges}
image{shape-rendering:crispEdges}

    </style>
<clipPath id="id2">
      <rect width="595" height="842" y="0" x="0"/>
</clipPath>
</defs>
<defs/>
<g>
<g transform="scale(1 -1)">
<g transform="matrix(0 -1 1 0 0 0)" clip-path="url(#id2)" id="main">
<path stroke-width="1" d="M585.96 14.511L583.92 14.511M585.96 14.511L585.96 16.551M9.6 14.511L11.64 14.511M9.6 14.511L9.6 16.551M585.96 826.191L583.92 826.191M585.96 826.191L585.96 824.151M9.6 826.191L11.64 826.191M9.6 826.191L9.6 824.151" stroke-miterlimit="10" stroke="#000000 icc-color(p1,0,0,0)" stroke-linejoin="round" fill="none" stroke-linecap="round"/>
<path d="M10.38 15.291h566.58v801.9h-566.58Z" fill-rule="nonzero" stroke="none" fill="#ffffff icc-color(p1,1,1,1)"/>
<path stroke-width="1" d="M576.96 817.191h-566.64v-801.96h566.64Z" stroke-miterlimit="10" stroke="#000000 icc-color(p1,0,0,0)" stroke-linejoin="round" fill="none" stroke-linecap="round"/>
<a onclick="selectEntity('SURFACE_LGT_SYS');" onmousemove="(window.status ='SURFACE_LGT_SYS')">
<path id="SURFACE_LGT_SYS" stroke-width="1" d="M61.74 311.571C57.96 311.571 54.9 308.451 54.9 304.671L54.9 60.471C54.9 56.691 57.96 53.631 61.74 53.631L168.72 53.631C172.5 53.631 175.62 56.691 175.62 60.471L175.62 304.671C175.62 308.451 172.5 311.571 168.72 311.571Z" fill-rule="evenodd" stroke-miterlimit="10" stroke="#000000 icc-color(p1,0,0,0)" stroke-linejoin="round" fill="#ffffff icc-color(p1,1,1,1)" stroke-linecap="round"/>
<text transform="matrix(0 1 1 0 0 0)">
<tspan font-family="ArialMT,sans-serif" font-size="10.9781" letter-spacing="0" fill-rule="nonzero" stroke="none" y="71.58" fill="#000000 icc-color(p1,0,0,0)" x="60.4706">SURFACE_LGT_SYS</tspan>
<tspan font-family="ArialMT,sans-serif" font-size="8.2336" letter-spacing="0" fill-rule="nonzero" stroke="none" y="81.48" fill="#000000 icc-color(p1,0,0,0)" x="60.4706">o  TXT_DESCR</tspan>
<tspan font-family="ArialMT,sans-serif" font-size="8.2336" letter-spacing="0" fill-rule="nonzero" stroke="none" y="90.42" fill="#000000 icc-color(p1,0,0,0)" x="60.4706">o  TXT_DESCR_EMERG</tspan>
<tspan font-family="ArialMT,sans-serif" font-size="8.2336" letter-spacing="0" fill-rule="nonzero" stroke="none" y="99.3" fill="#000000 icc-color(p1,0,0,0)" x="60.4706">o  CODE_INTST</tspan>
<tspan font-family="ArialMT,sans-serif" font-size="8.2336" letter-spacing="0" fill-rule="nonzero" stroke="none" y="108.24" fill="#000000 icc-color(p1,0,0,0)" x="60.4706">o  CODE_COLOUR</tspan>
<tspan font-family="ArialMT,sans-serif" font-size="8.2336" letter-spacing="0" fill-rule="nonzero" stroke="none" y="117.18" fill="#000000 icc-color(p1,0,0,0)" x="60.4706">o  TXT_RMK</tspan>
</text>
</a>
<a onclick="selectEntity('TWY_LGT_SYS');" onmousemove="(window.status ='TWY_LGT_SYS')">
<path id="TWY_LGT_SYS" stroke-width="1" d="M77.52 296.451C73.74 296.451 70.68 293.331 70.68 289.551L70.68 207.291C70.68 203.511 73.74 200.451 77.52 200.451L150.18 200.451C153.96 200.451 157.08 203.511 157.08 207.291L157.08 289.551C157.08 293.331 153.96 296.451 150.18 296.451Z" fill-rule="evenodd" stroke-miterlimit="10" stroke="#000000 icc-color(p1,0,0,0)" stroke-linejoin="round" fill="#ffffff icc-color(p1,1,1,1)" stroke-linecap="round"/>
<text transform="matrix(0 1 1 0 0 0)">
<tspan font-family="ArialMT,sans-serif" font-size="10.9781" letter-spacing="0" fill-rule="nonzero" stroke="none" y="87.36" fill="#000000 icc-color(p1,0,0,0)" x="207.29">TWY_LGT_SYS</tspan>
<tspan font-family="ArialMT,sans-serif" font-size="8.2336" letter-spacing="0" fill-rule="nonzero" stroke="none" y="97.26" fill="#000000 icc-color(p1,0,0,0)" x="207.29">*  CODE_PSN</tspan>
</text>
</a>
<a onclick="selectEntity('TWY_HOLDING_POSITION');" onmousemove="(window.status ='TWY_HOLDING_POSITION')">
<path id="TWY_HOLDING_POSITION" stroke-width="1" d="M346.5 257.331C342.72 257.331 339.66 254.211 339.66 250.431L339.66 107.151C339.66 103.371 342.72 100.311 346.5 100.311L405.42 100.311C409.2 100.311 412.32 103.371 412.32 107.151L412.32 250.431C412.32 254.211 409.2 257.331 405.42 257.331Z" fill-rule="evenodd" stroke-miterlimit="10" stroke="#000000 icc-color(p1,0,0,0)" stroke-linejoin="round" fill="#ffffff icc-color(p1,1,1,1)" stroke-linecap="round"/>
<text transform="matrix(0 1 1 0 0 0)">
<tspan font-family="ArialMT,sans-serif" font-size="10.9781" letter-spacing="0" fill-rule="nonzero" stroke="none" y="356.34" fill="#000000 icc-color(p1,0,0,0)" x="107.15">TWY_HOLDING_POSITION</tspan>
<tspan font-family="ArialMT,sans-serif" font-size="8.2336" letter-spacing="0" fill-rule="nonzero" stroke="none" y="366.24" fill="#000000 icc-color(p1,0,0,0)" x="107.15">o  TXT_MARKING</tspan>
<tspan font-family="ArialMT,sans-serif" font-size="8.2336" letter-spacing="0" fill-rule="nonzero" stroke="none" y="375.18" fill="#000000 icc-color(p1,0,0,0)" x="107.15">o  TXT_LGT</tspan>
<tspan font-family="ArialMT,sans-serif" font-size="8.2336" letter-spacing="0" fill-rule="nonzero" stroke="none" y="384.06" fill="#000000 icc-color(p1,0,0,0)" x="107.15">o  TXT_RMK</tspan>
</text>
</a>
<a onclick="selectEntity('TWY_CLINE_POINT');" onmousemove="(window.status ='TWY_CLINE_POINT')">
<path id="TWY_CLINE_POINT" stroke-width="1" d="M293.64 507.771C289.86 507.771 286.8 504.651 286.8 500.87L286.8 375.411C286.8 371.631 289.86 368.571 293.64 368.571L457.56 368.571C461.34 368.571 464.46 371.631 464.46 375.411L464.46 500.87C464.46 504.651 461.34 507.771 457.56 507.771Z" fill-rule="evenodd" stroke-miterlimit="10" stroke="#000000 icc-color(p1,0,0,0)" stroke-linejoin="round" fill="#ffffff icc-color(p1,1,1,1)" stroke-linecap="round"/>
<text transform="matrix(0 1 1 0 0 0)">
<tspan font-family="ArialMT,sans-serif" font-size="10.9781" letter-spacing="0" fill-rule="nonzero" stroke="none" y="303.48" fill="#000000 icc-color(p1,0,0,0)" x="375.41">TWY_CLINE_POINT</tspan>
<tspan font-family="ArialMT,sans-serif" font-size="8.2336" letter-spacing="0" fill-rule="nonzero" stroke="none" y="313.38" fill="#000000 icc-color(p1,0,0,0)" x="375.41">*  NO_SEQ</tspan>
<tspan font-family="ArialMT,sans-serif" font-size="8.2336" letter-spacing="0" fill-rule="nonzero" stroke="none" y="322.32" fill="#000000 icc-color(p1,0,0,0)" x="375.41">*  GEO_LAT</tspan>
<tspan font-family="ArialMT,sans-serif" font-size="8.2336" letter-spacing="0" fill-rule="nonzero" stroke="none" y="331.26" fill="#000000 icc-color(p1,0,0,0)" x="375.41">*  GEO_LONG</tspan>
<tspan font-family="ArialMT,sans-serif" font-size="8.2336" letter-spacing="0" fill-rule="nonzero" stroke="none" y="340.14" fill="#000000 icc-color(p1,0,0,0)" x="375.41">*  CODE_DATUM</tspan>
<tspan font-family="ArialMT,sans-serif" font-size="8.2336" letter-spacing="0" fill-rule="nonzero" stroke="none" y="349.08" fill="#000000 icc-color(p1,0,0,0)" x="375.41">o  VAL_GEO_ACCURACY</tspan>
<tspan font-family="ArialMT,sans-serif" font-size="8.2336" letter-spacing="0" fill-rule="nonzero" stroke="none" y="358.02" fill="#000000 icc-color(p1,0,0,0)" x="375.41">o  UOM_GEO_ACCURACY</tspan>
<tspan font-family="ArialMT,sans-serif" font-size="8.2336" letter-spacing="0" fill-rule="nonzero" stroke="none" y="366.9" fill="#000000 icc-color(p1,0,0,0)" x="375.41">o  VAL_ELEV</tspan>
<tspan font-family="ArialMT,sans-serif" font-size="8.2336" letter-spacing="0" fill-rule="nonzero" stroke="none" y="375.84" fill="#000000 icc-color(p1,0,0,0)" x="375.41">o  VAL_ELEV_ACCURACY</tspan>
<tspan font-family="ArialMT,sans-serif" font-size="8.2336" letter-spacing="0" fill-rule="nonzero" stroke="none" y="384.78" fill="#000000 icc-color(p1,0,0,0)" x="375.41">o  VAL_GEOID_UNDULATION</tspan>
<tspan font-family="ArialMT,sans-serif" font-size="8.2336" letter-spacing="0" fill-rule="nonzero" stroke="none" y="393.66" fill="#000000 icc-color(p1,0,0,0)" x="375.41">o  UOM_DIST_VER</tspan>
<tspan font-family="ArialMT,sans-serif" font-size="8.2336" letter-spacing="0" fill-rule="nonzero" stroke="none" y="402.6" fill="#000000 icc-color(p1,0,0,0)" x="375.41">o  VAL_CRC</tspan>
<tspan font-family="ArialMT,sans-serif" font-size="8.2336" letter-spacing="0" fill-rule="nonzero" stroke="none" y="411.54" fill="#000000 icc-color(p1,0,0,0)" x="375.41">o  TXT_VER_DATUM</tspan>
<tspan font-family="ArialMT,sans-serif" font-size="8.2336" letter-spacing="0" fill-rule="nonzero" stroke="none" y="420.42" fill="#000000 icc-color(p1,0,0,0)" x="375.41">o  TXT_RMK</tspan>
</text>
</a>
<a onclick="selectEntity('TWY');" onmousemove="(window.status ='TWY')">
<path id="TWY" stroke-width="1" d="M62.4 508.491C58.62 508.491 55.56 505.37 55.56 501.591L55.56 386.391C55.56 382.611 58.62 379.551 62.4 379.551L207.78 379.551C211.56 379.551 214.68 382.611 214.68 386.391L214.68 501.591C214.68 505.37 211.56 508.491 207.78 508.491Z" fill-rule="evenodd" stroke-miterlimit="10" stroke="#000000 icc-color(p1,0,0,0)" stroke-linejoin="round" fill="#ffffff icc-color(p1,1,1,1)" stroke-linecap="round"/>
<text transform="matrix(0 1 1 0 0 0)">
<tspan font-family="ArialMT,sans-serif" font-size="10.9781" letter-spacing="0" fill-rule="nonzero" stroke="none" y="72.3" fill="#000000 icc-color(p1,0,0,0)" x="386.39">TWY</tspan>
<tspan font-family="ArialMT,sans-serif" font-size="8.2336" letter-spacing="0" fill-rule="nonzero" stroke="none" y="82.2" fill="#000000 icc-color(p1,0,0,0)" x="386.39">*  TXT_DESIG</tspan>
<tspan font-family="ArialMT,sans-serif" font-size="8.2336" letter-spacing="0" fill-rule="nonzero" stroke="none" y="91.0799" fill="#000000 icc-color(p1,0,0,0)" x="386.39">*  CODE_TYPE</tspan>
<tspan font-family="ArialMT,sans-serif" font-size="8.2336" letter-spacing="0" fill-rule="nonzero" stroke="none" y="100.02" fill="#000000 icc-color(p1,0,0,0)" x="386.39">o  VAL_WID</tspan>
<tspan font-family="ArialMT,sans-serif" font-size="8.2336" letter-spacing="0" fill-rule="nonzero" stroke="none" y="108.96" fill="#000000 icc-color(p1,0,0,0)" x="386.39">o  UOM_WID</tspan>
<tspan font-family="ArialMT,sans-serif" font-size="8.2336" letter-spacing="0" fill-rule="nonzero" stroke="none" y="117.84" fill="#000000 icc-color(p1,0,0,0)" x="386.39">o  [CODE_COMPOSITION]</tspan>
<tspan font-family="ArialMT,sans-serif" font-size="8.2336" letter-spacing="0" fill-rule="nonzero" stroke="none" y="126.78" fill="#000000 icc-color(p1,0,0,0)" x="386.39">o  [CODE_COND_SFC]</tspan>
<tspan font-family="ArialMT,sans-serif" font-size="8.2336" letter-spacing="0" fill-rule="nonzero" stroke="none" y="135.72" fill="#000000 icc-color(p1,0,0,0)" x="386.39">o  [CODE_STRENGTH]</tspan>
<tspan font-family="ArialMT,sans-serif" font-size="8.2336" letter-spacing="0" fill-rule="nonzero" stroke="none" y="144.6" fill="#000000 icc-color(p1,0,0,0)" x="386.39">o  [TXT_DESCR_STRENGTH]</tspan>
<tspan font-family="ArialMT,sans-serif" font-size="8.2336" letter-spacing="0" fill-rule="nonzero" stroke="none" y="153.54" fill="#000000 icc-color(p1,0,0,0)" x="386.39">o  CODE_STS</tspan>
<tspan font-family="ArialMT,sans-serif" font-size="8.2336" letter-spacing="0" fill-rule="nonzero" stroke="none" y="162.42" fill="#000000 icc-color(p1,0,0,0)" x="386.39">o  TXT_MARKING</tspan>
<tspan font-family="ArialMT,sans-serif" font-size="8.2336" letter-spacing="0" fill-rule="nonzero" stroke="none" y="171.36" fill="#000000 icc-color(p1,0,0,0)" x="386.39">o  TXT_RMK</tspan>
</text>
</a>
<a onclick="selectEntity('AD_HP');" onmousemove="(window.status ='AD_HP')">
<path id="AD_HP" stroke-width="1" d="M64.5 778.13C60.72 778.13 57.66 775.01 57.66 771.23L57.66 648.471C57.66 644.69 60.72 641.63 64.5 641.63L524.82 641.63C528.6 641.63 531.72 644.69 531.72 648.471L531.72 771.23C531.72 775.01 528.6 778.13 524.82 778.13Z" fill-rule="evenodd" stroke-miterlimit="10" stroke="#000000 icc-color(p1,0,0,0)" stroke-linejoin="round" fill="#ffffff icc-color(p1,1,1,1)" stroke-linecap="round"/>
<text transform="matrix(0 1 1 0 0 0)">
<tspan font-family="ArialMT,sans-serif" font-size="10.9781" letter-spacing="0" fill-rule="nonzero" stroke="none" y="74.34" fill="#000000 icc-color(p1,0,0,0)" x="648.471">AD_HP</tspan>
<tspan font-family="ArialMT,sans-serif" font-size="8.2336" letter-spacing="0" fill-rule="nonzero" stroke="none" y="84.24" fill="#000000 icc-color(p1,0,0,0)" x="648.471">*  CODE_ID</tspan>
<tspan font-family="ArialMT,sans-serif" font-size="8.2336" letter-spacing="0" fill-rule="nonzero" stroke="none" y="93.18" fill="#000000 icc-color(p1,0,0,0)" x="648.471">*  TXT_NAME</tspan>
<tspan font-family="ArialMT,sans-serif" font-size="8.2336" letter-spacing="0" fill-rule="nonzero" stroke="none" y="102.06" fill="#000000 icc-color(p1,0,0,0)" x="648.471">o  CODE_ICAO</tspan>
<tspan font-family="ArialMT,sans-serif" font-size="8.2336" letter-spacing="0" fill-rule="nonzero" stroke="none" y="111" fill="#000000 icc-color(p1,0,0,0)" x="648.471">o  CODE_IATA</tspan>
<tspan font-family="ArialMT,sans-serif" font-size="8.2336" letter-spacing="0" fill-rule="nonzero" stroke="none" y="119.88" fill="#000000 icc-color(p1,0,0,0)" x="648.471">*  CODE_TYPE</tspan>
<tspan font-family="ArialMT,sans-serif" font-size="8.2336" letter-spacing="0" fill-rule="nonzero" stroke="none" y="128.82" fill="#000000 icc-color(p1,0,0,0)" x="648.471">o  [CODE_TYPE_MIL_OPS]</tspan>
<tspan font-family="ArialMT,sans-serif" font-size="8.2336" letter-spacing="0" fill-rule="nonzero" stroke="none" y="137.76" fill="#000000 icc-color(p1,0,0,0)" x="648.471">o  [CODE_NATIONAL_TFC]</tspan>
<tspan font-family="ArialMT,sans-serif" font-size="8.2336" letter-spacing="0" fill-rule="nonzero" stroke="none" y="146.64" fill="#000000 icc-color(p1,0,0,0)" x="648.471">o  [CODE_INTL_TFC]</tspan>
<tspan font-family="ArialMT,sans-serif" font-size="8.2336" letter-spacing="0" fill-rule="nonzero" stroke="none" y="155.58" fill="#000000 icc-color(p1,0,0,0)" x="648.471">o  [CODE_SKED]</tspan>
<tspan font-family="ArialMT,sans-serif" font-size="8.2336" letter-spacing="0" fill-rule="nonzero" stroke="none" y="164.52" fill="#000000 icc-color(p1,0,0,0)" x="648.471">o  [CODE_NON-SKED]</tspan>
<tspan font-family="ArialMT,sans-serif" font-size="8.2336" letter-spacing="0" fill-rule="nonzero" stroke="none" y="173.4" fill="#000000 icc-color(p1,0,0,0)" x="648.471">o  [CODE_PRIV]</tspan>
<tspan font-family="ArialMT,sans-serif" font-size="8.2336" letter-spacing="0" fill-rule="nonzero" stroke="none" y="182.34" fill="#000000 icc-color(p1,0,0,0)" x="648.471">o  [CODE_VFR]</tspan>
<tspan font-family="ArialMT,sans-serif" font-size="8.2336" letter-spacing="0" fill-rule="nonzero" stroke="none" y="191.28" fill="#000000 icc-color(p1,0,0,0)" x="648.471">o  [CODE_IFR]</tspan>
<tspan font-family="ArialMT,sans-serif" font-size="8.2336" letter-spacing="0" fill-rule="nonzero" stroke="none" y="200.16" fill="#000000 icc-color(p1,0,0,0)" x="648.471">o  TXT_DESCR_REF_PT</tspan>
<tspan font-family="ArialMT,sans-serif" font-size="8.2336" letter-spacing="0" fill-rule="nonzero" stroke="none" y="209.1" fill="#000000 icc-color(p1,0,0,0)" x="648.471">*  GEO_LAT</tspan>
<tspan font-family="ArialMT,sans-serif" font-size="8.2336" letter-spacing="0" fill-rule="nonzero" stroke="none" y="218.04" fill="#000000 icc-color(p1,0,0,0)" x="648.471">*  GEO_LONG</tspan>
<tspan font-family="ArialMT,sans-serif" font-size="8.2336" letter-spacing="0" fill-rule="nonzero" stroke="none" y="226.92" fill="#000000 icc-color(p1,0,0,0)" x="648.471">o  CODE_DATUM</tspan>
<tspan font-family="ArialMT,sans-serif" font-size="8.2336" letter-spacing="0" fill-rule="nonzero" stroke="none" y="235.86" fill="#000000 icc-color(p1,0,0,0)" x="648.471">o  VAL_GEO_ACCURACY</tspan>
<tspan font-family="ArialMT,sans-serif" font-size="8.2336" letter-spacing="0" fill-rule="nonzero" stroke="none" y="244.8" fill="#000000 icc-color(p1,0,0,0)" x="648.471">o  UOM_GEO_ACCURACY</tspan>
<tspan font-family="ArialMT,sans-serif" font-size="8.2336" letter-spacing="0" fill-rule="nonzero" stroke="none" y="253.68" fill="#000000 icc-color(p1,0,0,0)" x="648.471">o  VAL_ELEV</tspan>
<tspan font-family="ArialMT,sans-serif" font-size="8.2336" letter-spacing="0" fill-rule="nonzero" stroke="none" y="262.62" fill="#000000 icc-color(p1,0,0,0)" x="648.471">o  VAL_ELEV_ACCURACY</tspan>
<tspan font-family="ArialMT,sans-serif" font-size="8.2336" letter-spacing="0" fill-rule="nonzero" stroke="none" y="271.56" fill="#000000 icc-color(p1,0,0,0)" x="648.471">o  VAL_GEOID_UNDULATION</tspan>
<tspan font-family="ArialMT,sans-serif" font-size="8.2336" letter-spacing="0" fill-rule="nonzero" stroke="none" y="280.44" fill="#000000 icc-color(p1,0,0,0)" x="648.471">o  UOM_DIST_VER</tspan>
<tspan font-family="ArialMT,sans-serif" font-size="8.2336" letter-spacing="0" fill-rule="nonzero" stroke="none" y="289.38" fill="#000000 icc-color(p1,0,0,0)" x="648.471">o  VAL_CRC</tspan>
<tspan font-family="ArialMT,sans-serif" font-size="8.2336" letter-spacing="0" fill-rule="nonzero" stroke="none" y="298.32" fill="#000000 icc-color(p1,0,0,0)" x="648.471">o  TXT_VER_DATUM</tspan>
<tspan font-family="ArialMT,sans-serif" font-size="8.2336" letter-spacing="0" fill-rule="nonzero" stroke="none" y="307.2" fill="#000000 icc-color(p1,0,0,0)" x="648.471">o  TXT_NAME_CITY_SER</tspan>
<tspan font-family="ArialMT,sans-serif" font-size="8.2336" letter-spacing="0" fill-rule="nonzero" stroke="none" y="316.14" fill="#000000 icc-color(p1,0,0,0)" x="648.471">o  TXT_DESCR_SITE</tspan>
<tspan font-family="ArialMT,sans-serif" font-size="8.2336" letter-spacing="0" fill-rule="nonzero" stroke="none" y="325.08" fill="#000000 icc-color(p1,0,0,0)" x="648.471">o  VAL_MAG_VAR</tspan>
<tspan font-family="ArialMT,sans-serif" font-size="8.2336" letter-spacing="0" fill-rule="nonzero" stroke="none" y="333.96" fill="#000000 icc-color(p1,0,0,0)" x="648.471">o  DATE_MAG_VAR</tspan>
<tspan font-family="ArialMT,sans-serif" font-size="8.2336" letter-spacing="0" fill-rule="nonzero" stroke="none" y="342.9" fill="#000000 icc-color(p1,0,0,0)" x="648.471">o  VAL_MAG_VAR_CHG</tspan>
<tspan font-family="ArialMT,sans-serif" font-size="8.2336" letter-spacing="0" fill-rule="nonzero" stroke="none" y="351.84" fill="#000000 icc-color(p1,0,0,0)" x="648.471">o  VAL_REF_T</tspan>
<tspan font-family="ArialMT,sans-serif" font-size="8.2336" letter-spacing="0" fill-rule="nonzero" stroke="none" y="360.72" fill="#000000 icc-color(p1,0,0,0)" x="648.471">o  UOM_REF_T</tspan>
<tspan font-family="ArialMT,sans-serif" font-size="8.2336" letter-spacing="0" fill-rule="nonzero" stroke="none" y="369.66" fill="#000000 icc-color(p1,0,0,0)" x="648.471">o  TXT_NAME_ADMIN</tspan>
<tspan font-family="ArialMT,sans-serif" font-size="8.2336" letter-spacing="0" fill-rule="nonzero" stroke="none" y="378.6" fill="#000000 icc-color(p1,0,0,0)" x="648.471">o  TXT_DESCR_ACL</tspan>
<tspan font-family="ArialMT,sans-serif" font-size="8.2336" letter-spacing="0" fill-rule="nonzero" stroke="none" y="387.48" fill="#000000 icc-color(p1,0,0,0)" x="648.471">o  TXT_DESCR_SRY_PWR</tspan>
<tspan font-family="ArialMT,sans-serif" font-size="8.2336" letter-spacing="0" fill-rule="nonzero" stroke="none" y="396.42" fill="#000000 icc-color(p1,0,0,0)" x="648.471">o  TXT_DESCR_WDI</tspan>
<tspan font-family="ArialMT,sans-serif" font-size="8.2336" letter-spacing="0" fill-rule="nonzero" stroke="none" y="405.36" fill="#000000 icc-color(p1,0,0,0)" x="648.471">o  TXT_DESCR_LDI</tspan>
<tspan font-family="ArialMT,sans-serif" font-size="8.2336" letter-spacing="0" fill-rule="nonzero" stroke="none" y="414.24" fill="#000000 icc-color(p1,0,0,0)" x="648.471">o  VAL_TRANSITION_ALT</tspan>
<tspan font-family="ArialMT,sans-serif" font-size="8.2336" letter-spacing="0" fill-rule="nonzero" stroke="none" y="423.18" fill="#000000 icc-color(p1,0,0,0)" x="648.471">o  UOM_TRANSITION_ALT</tspan>
<tspan font-family="ArialMT,sans-serif" font-size="8.2336" letter-spacing="0" fill-rule="nonzero" stroke="none" y="432.12" fill="#000000 icc-color(p1,0,0,0)" x="648.471">o  TXT_RMK</tspan>
</text>
</a>
<path stroke-width="1" d="M203.1 637.49L203.1 625.19M203.1 621.051L203.1 608.69M203.1 604.551L203.1 592.25M203.1 588.11L203.1 508.551M203.1 518.81L199.68 508.551M203.1 518.81L206.52 508.551M203.1 518.81L203.1 508.551" stroke-miterlimit="10" stroke="#000000 icc-color(p1,0,0,0)" stroke-linejoin="round" fill="none" stroke-linecap="round"/>
<text transform="matrix(0 1 1 0 0 0)">
<tspan font-family="ArialMT,sans-serif" font-size="10.9781" letter-spacing="0" fill-rule="nonzero" stroke="none" y="216.36" fill="#000000 icc-color(p1,0,0,0)" x="593.63">having</tspan>
<tspan font-family="ArialMT,sans-serif" font-size="10.9781" letter-spacing="0" fill-rule="nonzero" stroke="none" y="195.12" fill="#000000 icc-color(p1,0,0,0)" x="515.391">situated at</tspan>
</text>
<path stroke-width="1" d="M286.8 434.451L251.1 434.451M247.02 434.451L234.66 434.451M230.52 434.451L218.22 434.451M276.54 434.451L286.8 430.971M276.54 434.451L286.8 437.871M276.54 434.451L286.8 434.451" stroke-miterlimit="10" stroke="#000000 icc-color(p1,0,0,0)" stroke-linejoin="round" fill="none" stroke-linecap="round"/>
<text transform="matrix(0 1 1 0 0 0)">
<tspan font-family="ArialMT,sans-serif" font-size="10.9781" letter-spacing="0" fill-rule="nonzero" stroke="none" y="275.4" fill="#000000 icc-color(p1,0,0,0)" x="325.31">on the centreline of</tspan>
<tspan font-family="ArialMT,sans-serif" font-size="10.9781" letter-spacing="0" fill-rule="nonzero" stroke="none" y="231.48" fill="#000000 icc-color(p1,0,0,0)" x="437.87">described with</tspan>
</text>
<path stroke-width="1" d="M373.92 257.391L373.92 313.011M373.92 317.091L373.92 329.451M373.92 333.591L373.92 345.891M373.92 350.031L373.92 362.391M373.92 366.471L373.92 368.571" stroke-miterlimit="10" stroke="#000000 icc-color(p1,0,0,0)" stroke-linejoin="round" fill="none" stroke-linecap="round"/>
<text transform="matrix(0 1 1 0 0 0)">
<tspan font-family="ArialMT,sans-serif" font-size="10.9781" letter-spacing="0" fill-rule="nonzero" stroke="none" y="365.94" fill="#000000 icc-color(p1,0,0,0)" x="264.29">at</tspan>
<tspan font-family="ArialMT,sans-serif" font-size="10.9781" letter-spacing="0" fill-rule="nonzero" stroke="none" y="387.24" fill="#000000 icc-color(p1,0,0,0)" x="332.21">also</tspan>
</text>
<path stroke-width="1" d="M117.36 296.511L117.36 337.671M117.36 341.811L117.36 354.171M117.36 358.251L117.36 370.611M117.36 374.751L117.36 379.551M117.36 306.831L113.88 296.511M117.36 306.831L120.78 296.511M117.36 306.831L117.36 296.511" stroke-miterlimit="10" stroke="#000000 icc-color(p1,0,0,0)" stroke-linejoin="round" fill="none" stroke-linecap="round"/>
<text transform="matrix(0 1 1 0 0 0)">
<tspan font-family="ArialMT,sans-serif" font-size="10.9781" letter-spacing="0" fill-rule="nonzero" stroke="none" y="111.42" fill="#000000 icc-color(p1,0,0,0)" x="312.29">owned by</tspan>
<tspan font-family="ArialMT,sans-serif" font-size="10.9781" letter-spacing="0" fill-rule="nonzero" stroke="none" y="130.62" fill="#000000 icc-color(p1,0,0,0)" x="331.49">having</tspan>
</text>
</g>
</g>
</g>
</svg>
