<?xml version="1.0" encoding="utf-8"?>
<svg onload="initSVG();" xml:space="preserve" width="842" height="595" viewBox="0 0 842 595" color-interpolation-filters="sRGB" id="root" xmlns:xlink="http://www.w3.org/1999/xlink">
 Converted with TEXTCAFE (tm) http://www.texterity.com 
  <title>015_APRON (AICM-4-5) -- Page 1</title>
<defs>
    <color-profile xlink:href="data:application/icc;base64, AAAMSExpbm8CEAAAbW50clJHQiBYWVogB84AAgAJAAYAMQAAYWNzcE1TRlQAAAAASUVDIHNSR0IA AAAAAAAAAAAAAAAAAPbWAAEAAAAA0y1IUCAgAAAAAAAAAAAAAAAAAAAAAAAAAAAAAAAAAAAAAAAA AAAAAAAAAAAAAAAAAAAAAAARY3BydAAAAVAAAAAzZGVzYwAAAYQAAABsd3RwdAAAAfAAAAAUYmtw dAAAAgQAAAAUclhZWgAAAhgAAAAUZ1hZWgAAAiwAAAAUYlhZWgAAAkAAAAAUZG1uZAAAAlQAAABw ZG1kZAAAAsQAAACIdnVlZAAAA0wAAACGdmlldwAAA9QAAAAkbHVtaQAAA/gAAAAUbWVhcwAABAwA AAAkdGVjaAAABDAAAAAMclRSQwAABDwAAAgMZ1RSQwAABDwAAAgMYlRSQwAABDwAAAgMdGV4dAAA AABDb3B5cmlnaHQgKGMpIDE5OTggSGV3bGV0dC1QYWNrYXJkIENvbXBhbnkAAGRlc2MAAAAAAAAA EnNSR0IgSUVDNjE5NjYtMi4xAAAAAAAAAAAAAAASc1JHQiBJRUM2MTk2Ni0yLjEAAAAAAAAAAAAA AAAAAAAAAAAAAAAAAAAAAAAAAAAAAAAAAAAAAAAAAAAAAAAAAAAAAFhZWiAAAAAAAADzUQABAAAA ARbMWFlaIAAAAAAAAAAAAAAAAAAAAABYWVogAAAAAAAAb6IAADj1AAADkFhZWiAAAAAAAABimQAA t4UAABjaWFlaIAAAAAAAACSgAAAPhAAAts9kZXNjAAAAAAAAABZJRUMgaHR0cDovL3d3dy5pZWMu Y2gAAAAAAAAAAAAAABZJRUMgaHR0cDovL3d3dy5pZWMuY2gAAAAAAAAAAAAAAAAAAAAAAAAAAAAA AAAAAAAAAAAAAAAAAAAAAAAAAAAAAAAAZGVzYwAAAAAAAAAuSUVDIDYxOTY2LTIuMSBEZWZhdWx0 IFJHQiBjb2xvdXIgc3BhY2UgLSBzUkdCAAAAAAAAAAAAAAAuSUVDIDYxOTY2LTIuMSBEZWZhdWx0 IFJHQiBjb2xvdXIgc3BhY2UgLSBzUkdCAAAAAAAAAAAAAAAAAAAAAAAAAAAAAGRlc2MAAAAAAAAA LFJlZmVyZW5jZSBWaWV3aW5nIENvbmRpdGlvbiBpbiBJRUM2MTk2Ni0yLjEAAAAAAAAAAAAAACxS ZWZlcmVuY2UgVmlld2luZyBDb25kaXRpb24gaW4gSUVDNjE5NjYtMi4xAAAAAAAAAAAAAAAAAAAA AAAAAAAAAAAAAAB2aWV3AAAAAAATpP4AFF8uABDPFAAD7cwABBMLAANcngAAAAFYWVogAAAAAABM CVYAUAAAAFcf521lYXMAAAAAAAAAAQAAAAAAAAAAAAAAAAAAAAAAAAKPAAAAAnNpZyAAAAAAQ1JU IGN1cnYAAAAAAAAEAAAAAAUACgAPABQAGQAeACMAKAAtADIANwA7AEAARQBKAE8AVABZAF4AYwBo AG0AcgB3AHwAgQCGAIsAkACVAJoAnwCkAKkArgCyALcAvADBAMYAywDQANUA2wDgAOUA6wDwAPYA +wEBAQcBDQETARkBHwElASsBMgE4AT4BRQFMAVIBWQFgAWcBbgF1AXwBgwGLAZIBmgGhAakBsQG5 AcEByQHRAdkB4QHpAfIB+gIDAgwCFAIdAiYCLwI4AkECSwJUAl0CZwJxAnoChAKOApgCogKsArYC wQLLAtUC4ALrAvUDAAMLAxYDIQMtAzgDQwNPA1oDZgNyA34DigOWA6IDrgO6A8cD0wPgA+wD+QQG BBMEIAQtBDsESARVBGMEcQR+BIwEmgSoBLYExATTBOEE8AT+BQ0FHAUrBToFSQVYBWcFdwWGBZYF pgW1BcUF1QXlBfYGBgYWBicGNwZIBlkGagZ7BowGnQavBsAG0QbjBvUHBwcZBysHPQdPB2EHdAeG B5kHrAe/B9IH5Qf4CAsIHwgyCEYIWghuCIIIlgiqCL4I0gjnCPsJEAklCToJTwlkCXkJjwmkCboJ zwnlCfsKEQonCj0KVApqCoEKmAquCsUK3ArzCwsLIgs5C1ELaQuAC5gLsAvIC+EL+QwSDCoMQwxc DHUMjgynDMAM2QzzDQ0NJg1ADVoNdA2ODakNww3eDfgOEw4uDkkOZA5/DpsOtg7SDu4PCQ8lD0EP Xg96D5YPsw/PD+wQCRAmEEMQYRB+EJsQuRDXEPURExExEU8RbRGMEaoRyRHoEgcSJhJFEmQShBKj EsMS4xMDEyMTQxNjE4MTpBPFE+UUBhQnFEkUahSLFK0UzhTwFRIVNBVWFXgVmxW9FeAWAxYmFkkW bBaPFrIW1hb6Fx0XQRdlF4kXrhfSF/cYGxhAGGUYihivGNUY+hkgGUUZaxmRGbcZ3RoEGioaURp3 Gp4axRrsGxQbOxtjG4obshvaHAIcKhxSHHscoxzMHPUdHh1HHXAdmR3DHeweFh5AHmoelB6+Hukf Ex8+H2kflB+/H+ogFSBBIGwgmCDEIPAhHCFIIXUhoSHOIfsiJyJVIoIiryLdIwojOCNmI5QjwiPw JB8kTSR8JKsk2iUJJTglaCWXJccl9yYnJlcmhya3JugnGCdJJ3onqyfcKA0oPyhxKKIo1CkGKTgp aymdKdAqAio1KmgqmyrPKwIrNitpK50r0SwFLDksbiyiLNctDC1BLXYtqy3hLhYuTC6CLrcu7i8k L1ovkS/HL/4wNTBsMKQw2zESMUoxgjG6MfIyKjJjMpsy1DMNM0YzfzO4M/E0KzRlNJ402DUTNU01 hzXCNf02NzZyNq426TckN2A3nDfXOBQ4UDiMOMg5BTlCOX85vDn5OjY6dDqyOu87LTtrO6o76Dwn PGU8pDzjPSI9YT2hPeA+ID5gPqA+4D8hP2E/oj/iQCNAZECmQOdBKUFqQaxB7kIwQnJCtUL3QzpD fUPARANER0SKRM5FEkVVRZpF3kYiRmdGq0bwRzVHe0fASAVIS0iRSNdJHUljSalJ8Eo3Sn1KxEsM S1NLmkviTCpMcky6TQJNSk2TTdxOJU5uTrdPAE9JT5NP3VAnUHFQu1EGUVBRm1HmUjFSfFLHUxNT X1OqU/ZUQlSPVNtVKFV1VcJWD1ZcVqlW91dEV5JX4FgvWH1Yy1kaWWlZuFoHWlZaplr1W0VblVvl XDVchlzWXSddeF3JXhpebF69Xw9fYV+zYAVgV2CqYPxhT2GiYfViSWKcYvBjQ2OXY+tkQGSUZOll PWWSZedmPWaSZuhnPWeTZ+loP2iWaOxpQ2maafFqSGqfavdrT2una/9sV2yvbQhtYG25bhJua27E bx5veG/RcCtwhnDgcTpxlXHwcktypnMBc11zuHQUdHB0zHUodYV14XY+dpt2+HdWd7N4EXhueMx5 KnmJeed6RnqlewR7Y3vCfCF8gXzhfUF9oX4BfmJ+wn8jf4R/5YBHgKiBCoFrgc2CMIKSgvSDV4O6 hB2EgITjhUeFq4YOhnKG14c7h5+IBIhpiM6JM4mZif6KZIrKizCLlov8jGOMyo0xjZiN/45mjs6P No+ekAaQbpDWkT+RqJIRknqS45NNk7aUIJSKlPSVX5XJljSWn5cKl3WX4JhMmLiZJJmQmfyaaJrV m0Kbr5wcnImc951kndKeQJ6unx2fi5/6oGmg2KFHobaiJqKWowajdqPmpFakx6U4pammGqaLpv2n bqfgqFKoxKk3qamqHKqPqwKrdavprFys0K1ErbiuLa6hrxavi7AAsHWw6rFgsdayS7LCszizrrQl tJy1E7WKtgG2ebbwt2i34LhZuNG5SrnCuju6tbsuu6e8IbybvRW9j74KvoS+/796v/XAcMDswWfB 48JfwtvDWMPUxFHEzsVLxcjGRsbDx0HHv8g9yLzJOsm5yjjKt8s2y7bMNcy1zTXNtc42zrbPN8+4 0DnQutE80b7SP9LB00TTxtRJ1MvVTtXR1lXW2Ndc1+DYZNjo2WzZ8dp22vvbgNwF3IrdEN2W3hze ot8p36/gNuC94UThzOJT4tvjY+Pr5HPk/OWE5g3mlucf56noMui86Ubp0Opb6uXrcOv77IbtEe2c 7ijutO9A78zwWPDl8XLx//KM8xnzp/Q09ML1UPXe9m32+/eK+Bn4qPk4+cf6V/rn+3f8B/yY/Sn9 uv5L/tz/bf//" rendering-intent="relative-colorimetric" name="p1"/>
<style type="text/css">

clipPath{shape-rendering:crispEdges}
image{shape-rendering:crispEdges}

    </style>
<clipPath id="id2">
      <rect width="595" height="842" y="0" x="0"/>
</clipPath>
</defs>
<defs/>
<g>
<g transform="scale(1 -1)">
<g transform="matrix(0 -1 1 0 0 0)" clip-path="url(#id2)" id="main">
<path stroke-width="1" d="M585.96 14.511L583.92 14.511M585.96 14.511L585.96 16.551M9.6 14.511L11.64 14.511M9.6 14.511L9.6 16.551M585.96 826.191L583.92 826.191M585.96 826.191L585.96 824.151M9.6 826.191L11.64 826.191M9.6 826.191L9.6 824.151" stroke-miterlimit="10" stroke="#000000 icc-color(p1,0,0,0)" stroke-linejoin="round" fill="none" stroke-linecap="round"/>
<path d="M10.38 15.291h566.58v801.9h-566.58Z" fill-rule="nonzero" stroke="none" fill="#ffffff icc-color(p1,1,1,1)"/>
<path stroke-width="1" d="M576.96 817.191h-566.64v-801.96h566.64Z" stroke-miterlimit="10" stroke="#000000 icc-color(p1,0,0,0)" stroke-linejoin="round" fill="none" stroke-linecap="round"/>
<a onclick="selectEntity('AD_HP_SURFACE_VERTEX');" onmousemove="(window.status ='AD_HP_SURFACE_VERTEX')">
<path id="AD_HP_SURFACE_VERTEX" stroke-width="1" d="M403.44 301.971C399.66 301.971 396.6 298.851 396.6 295.071L396.6 131.151C396.6 127.371 399.66 124.311 403.44 124.311L514.5 124.311C518.28 124.311 521.4 127.371 521.4 131.151L521.4 295.071C521.4 298.851 518.28 301.971 514.5 301.971Z" fill-rule="evenodd" stroke-miterlimit="10" stroke="#000000 icc-color(p1,0,0,0)" stroke-linejoin="round" fill="#ffffff icc-color(p1,1,1,1)" stroke-linecap="round"/>
<text transform="matrix(0 1 1 0 0 0)">
<tspan font-family="ArialMT,sans-serif" font-size="10.9781" letter-spacing="0" fill-rule="nonzero" stroke="none" y="413.28" fill="#000000 icc-color(p1,0,0,0)" x="131.15">AD_HP_SURFACE_VERTEX</tspan>
<tspan font-family="ArialMT,sans-serif" font-size="8.2336" letter-spacing="0" fill-rule="nonzero" stroke="none" y="423.18" fill="#000000 icc-color(p1,0,0,0)" x="131.15">*  NO_SEQ</tspan>
<tspan font-family="ArialMT,sans-serif" font-size="8.2336" letter-spacing="0" fill-rule="nonzero" stroke="none" y="432.12" fill="#000000 icc-color(p1,0,0,0)" x="131.15">*  CODE_TYPE</tspan>
<tspan font-family="ArialMT,sans-serif" font-size="8.2336" letter-spacing="0" fill-rule="nonzero" stroke="none" y="441" fill="#000000 icc-color(p1,0,0,0)" x="131.15">*  GEO_LAT</tspan>
<tspan font-family="ArialMT,sans-serif" font-size="8.2336" letter-spacing="0" fill-rule="nonzero" stroke="none" y="449.94" fill="#000000 icc-color(p1,0,0,0)" x="131.15">*  GEO_LONG</tspan>
<tspan font-family="ArialMT,sans-serif" font-size="8.2336" letter-spacing="0" fill-rule="nonzero" stroke="none" y="458.88" fill="#000000 icc-color(p1,0,0,0)" x="131.15">o  GEO_LAT_ARC</tspan>
<tspan font-family="ArialMT,sans-serif" font-size="8.2336" letter-spacing="0" fill-rule="nonzero" stroke="none" y="467.76" fill="#000000 icc-color(p1,0,0,0)" x="131.15">o  GEO_LONG_ARC</tspan>
<tspan font-family="ArialMT,sans-serif" font-size="8.2336" letter-spacing="0" fill-rule="nonzero" stroke="none" y="476.7" fill="#000000 icc-color(p1,0,0,0)" x="131.15">o  VAL_ELEV</tspan>
</text>
</a>
<a onclick="selectEntity('AD_HP_SURFACE_BORDER');" onmousemove="(window.status ='AD_HP_SURFACE_BORDER')">
<path id="AD_HP_SURFACE_BORDER" stroke-width="1" d="M242.16 286.191C238.38 286.191 235.32 283.071 235.32 279.291L235.32 107.811C235.32 104.031 238.38 100.971 242.16 100.971L335.4 100.971C339.18 100.971 342.3 104.031 342.3 107.811L342.3 279.291C342.3 283.071 339.18 286.191 335.4 286.191Z" fill-rule="evenodd" stroke-miterlimit="10" stroke="#000000 icc-color(p1,0,0,0)" stroke-linejoin="round" fill="#ffffff icc-color(p1,1,1,1)" stroke-linecap="round"/>
<text transform="matrix(0 1 1 0 0 0)">
<tspan font-family="ArialMT,sans-serif" font-size="10.9781" letter-spacing="0" fill-rule="nonzero" stroke="none" y="252.06" fill="#000000 icc-color(p1,0,0,0)" x="107.811">AD_HP_SURFACE_BORDER</tspan>
<tspan font-family="ArialMT,sans-serif" font-size="8.2336" letter-spacing="0" fill-rule="nonzero" stroke="none" y="261.96" fill="#000000 icc-color(p1,0,0,0)" x="107.811">*  CODE_DATUM</tspan>
<tspan font-family="ArialMT,sans-serif" font-size="8.2336" letter-spacing="0" fill-rule="nonzero" stroke="none" y="270.84" fill="#000000 icc-color(p1,0,0,0)" x="107.811">o  VAL_GEO_ACCURACY</tspan>
<tspan font-family="ArialMT,sans-serif" font-size="8.2336" letter-spacing="0" fill-rule="nonzero" stroke="none" y="279.78" fill="#000000 icc-color(p1,0,0,0)" x="107.811">o  UOM_GEO_ACCURACY</tspan>
<tspan font-family="ArialMT,sans-serif" font-size="8.2336" letter-spacing="0" fill-rule="nonzero" stroke="none" y="288.72" fill="#000000 icc-color(p1,0,0,0)" x="107.811">o  VAL_ELEV_ACCURACY</tspan>
<tspan font-family="ArialMT,sans-serif" font-size="8.2336" letter-spacing="0" fill-rule="nonzero" stroke="none" y="297.6" fill="#000000 icc-color(p1,0,0,0)" x="107.811">o  VAL_GEOID_UNDULATION</tspan>
<tspan font-family="ArialMT,sans-serif" font-size="8.2336" letter-spacing="0" fill-rule="nonzero" stroke="none" y="306.54" fill="#000000 icc-color(p1,0,0,0)" x="107.811">o  UOM_DIST_VER</tspan>
<tspan font-family="ArialMT,sans-serif" font-size="8.2336" letter-spacing="0" fill-rule="nonzero" stroke="none" y="315.48" fill="#000000 icc-color(p1,0,0,0)" x="107.811">o  TXT_RMK</tspan>
</text>
</a>
<path stroke-width="1" d="M221.64 216.171C221.64 212.391 224.64 209.391 228.42 209.391M228.42 223.011C224.64 223.011 221.64 219.951 221.64 216.171M221.58 219.591C219.72 219.591 218.22 218.031 218.22 216.171C218.22 214.311 219.72 212.811 221.58 212.811C223.44 212.811 225 214.311 225 216.171C225 218.031 223.44 219.591 221.58 219.591Z" stroke-miterlimit="10" stroke="#000000 icc-color(p1,0,0,0)" stroke-linejoin="round" fill="none" stroke-linecap="round"/>
<a onclick="selectEntity('APRON');" onmousemove="(window.status ='APRON')">
<path id="APRON" stroke-width="1" d="M80.94 513.951C77.16 513.951 74.1 510.831 74.1 507.051L74.1 384.291C74.1 380.511 77.16 377.451 80.94 377.451L203.7 377.451C207.48 377.451 210.6 380.511 210.6 384.291L210.6 507.051C210.6 510.831 207.48 513.951 203.7 513.951Z" fill-rule="evenodd" stroke-miterlimit="10" stroke="#000000 icc-color(p1,0,0,0)" stroke-linejoin="round" fill="#ffffff icc-color(p1,1,1,1)" stroke-linecap="round"/>
<text transform="matrix(0 1 1 0 0 0)">
<tspan font-family="ArialMT,sans-serif" font-size="10.9781" letter-spacing="0" fill-rule="nonzero" stroke="none" y="90.78" fill="#000000 icc-color(p1,0,0,0)" x="384.35">APRON</tspan>
<tspan font-family="ArialMT,sans-serif" font-size="8.2336" letter-spacing="0" fill-rule="nonzero" stroke="none" y="100.68" fill="#000000 icc-color(p1,0,0,0)" x="384.35">*  TXT_NAME</tspan>
<tspan font-family="ArialMT,sans-serif" font-size="8.2336" letter-spacing="0" fill-rule="nonzero" stroke="none" y="109.62" fill="#000000 icc-color(p1,0,0,0)" x="384.35">o  [CODE_COMPOSITION]</tspan>
<tspan font-family="ArialMT,sans-serif" font-size="8.2336" letter-spacing="0" fill-rule="nonzero" stroke="none" y="118.56" fill="#000000 icc-color(p1,0,0,0)" x="384.35">o  [CODE_COND_SFC]</tspan>
<tspan font-family="ArialMT,sans-serif" font-size="8.2336" letter-spacing="0" fill-rule="nonzero" stroke="none" y="127.44" fill="#000000 icc-color(p1,0,0,0)" x="384.35">o  [CODE_STRENGTH]</tspan>
<tspan font-family="ArialMT,sans-serif" font-size="8.2336" letter-spacing="0" fill-rule="nonzero" stroke="none" y="136.38" fill="#000000 icc-color(p1,0,0,0)" x="384.35">o  [TXT_DESCR_STRENGTH]</tspan>
<tspan font-family="ArialMT,sans-serif" font-size="8.2336" letter-spacing="0" fill-rule="nonzero" stroke="none" y="145.32" fill="#000000 icc-color(p1,0,0,0)" x="384.35">o  CODE_STS</tspan>
<tspan font-family="ArialMT,sans-serif" font-size="8.2336" letter-spacing="0" fill-rule="nonzero" stroke="none" y="154.2" fill="#000000 icc-color(p1,0,0,0)" x="384.35">o  TXT_MARKING</tspan>
<tspan font-family="ArialMT,sans-serif" font-size="8.2336" letter-spacing="0" fill-rule="nonzero" stroke="none" y="163.14" fill="#000000 icc-color(p1,0,0,0)" x="384.35">o  [TXT_LGT]</tspan>
<tspan font-family="ArialMT,sans-serif" font-size="8.2336" letter-spacing="0" fill-rule="nonzero" stroke="none" y="172.08" fill="#000000 icc-color(p1,0,0,0)" x="384.35">o  TXT_RMK</tspan>
</text>
</a>
<a onclick="selectEntity('AD_HP');" onmousemove="(window.status ='AD_HP')">
<path id="AD_HP" stroke-width="1" d="M48 763.671C44.22 763.671 41.16 760.551 41.16 756.771L41.16 634.73C41.16 630.951 44.22 627.891 48 627.891L538.5 627.891C542.28 627.891 545.4 630.951 545.4 634.73L545.4 756.771C545.4 760.551 542.28 763.671 538.5 763.671Z" fill-rule="evenodd" stroke-miterlimit="10" stroke="#000000 icc-color(p1,0,0,0)" stroke-linejoin="round" fill="#ffffff icc-color(p1,1,1,1)" stroke-linecap="round"/>
<text transform="matrix(0 1 1 0 0 0)">
<tspan font-family="ArialMT,sans-serif" font-size="10.9781" letter-spacing="0" fill-rule="nonzero" stroke="none" y="57.84" fill="#000000 icc-color(p1,0,0,0)" x="634.791">AD_HP</tspan>
<tspan font-family="ArialMT,sans-serif" font-size="8.2336" letter-spacing="0" fill-rule="nonzero" stroke="none" y="67.74" fill="#000000 icc-color(p1,0,0,0)" x="634.791">*  CODE_ID</tspan>
<tspan font-family="ArialMT,sans-serif" font-size="8.2336" letter-spacing="0" fill-rule="nonzero" stroke="none" y="76.68" fill="#000000 icc-color(p1,0,0,0)" x="634.791">*  TXT_NAME</tspan>
<tspan font-family="ArialMT,sans-serif" font-size="8.2336" letter-spacing="0" fill-rule="nonzero" stroke="none" y="85.6201" fill="#000000 icc-color(p1,0,0,0)" x="634.791">o  CODE_ICAO</tspan>
<tspan font-family="ArialMT,sans-serif" font-size="8.2336" letter-spacing="0" fill-rule="nonzero" stroke="none" y="94.5" fill="#000000 icc-color(p1,0,0,0)" x="634.791">o  CODE_IATA</tspan>
<tspan font-family="ArialMT,sans-serif" font-size="8.2336" letter-spacing="0" fill-rule="nonzero" stroke="none" y="103.44" fill="#000000 icc-color(p1,0,0,0)" x="634.791">*  CODE_TYPE</tspan>
<tspan font-family="ArialMT,sans-serif" font-size="8.2336" letter-spacing="0" fill-rule="nonzero" stroke="none" y="112.38" fill="#000000 icc-color(p1,0,0,0)" x="634.791">o  [CODE_TYPE_MIL_OPS]</tspan>
<tspan font-family="ArialMT,sans-serif" font-size="8.2336" letter-spacing="0" fill-rule="nonzero" stroke="none" y="121.26" fill="#000000 icc-color(p1,0,0,0)" x="634.791">o  [CODE_NATIONAL_TFC]</tspan>
<tspan font-family="ArialMT,sans-serif" font-size="8.2336" letter-spacing="0" fill-rule="nonzero" stroke="none" y="130.2" fill="#000000 icc-color(p1,0,0,0)" x="634.791">o  [CODE_INTL_TFC]</tspan>
<tspan font-family="ArialMT,sans-serif" font-size="8.2336" letter-spacing="0" fill-rule="nonzero" stroke="none" y="139.14" fill="#000000 icc-color(p1,0,0,0)" x="634.791">o  [CODE_SKED]</tspan>
<tspan font-family="ArialMT,sans-serif" font-size="8.2336" letter-spacing="0" fill-rule="nonzero" stroke="none" y="148.02" fill="#000000 icc-color(p1,0,0,0)" x="634.791">o  [CODE_NON-SKED]</tspan>
<tspan font-family="ArialMT,sans-serif" font-size="8.2336" letter-spacing="0" fill-rule="nonzero" stroke="none" y="156.96" fill="#000000 icc-color(p1,0,0,0)" x="634.791">o  [CODE_PRIV]</tspan>
<tspan font-family="ArialMT,sans-serif" font-size="8.2336" letter-spacing="0" fill-rule="nonzero" stroke="none" y="165.9" fill="#000000 icc-color(p1,0,0,0)" x="634.791">o  [CODE_VFR]</tspan>
<tspan font-family="ArialMT,sans-serif" font-size="8.2336" letter-spacing="0" fill-rule="nonzero" stroke="none" y="174.78" fill="#000000 icc-color(p1,0,0,0)" x="634.791">o  [CODE_IFR]</tspan>
<tspan font-family="ArialMT,sans-serif" font-size="8.2336" letter-spacing="0" fill-rule="nonzero" stroke="none" y="183.72" fill="#000000 icc-color(p1,0,0,0)" x="634.791">o  TXT_DESCR_REF_PT</tspan>
<tspan font-family="ArialMT,sans-serif" font-size="8.2336" letter-spacing="0" fill-rule="nonzero" stroke="none" y="192.66" fill="#000000 icc-color(p1,0,0,0)" x="634.791">*  GEO_LAT</tspan>
<tspan font-family="ArialMT,sans-serif" font-size="8.2336" letter-spacing="0" fill-rule="nonzero" stroke="none" y="201.54" fill="#000000 icc-color(p1,0,0,0)" x="634.791">*  GEO_LONG</tspan>
<tspan font-family="ArialMT,sans-serif" font-size="8.2336" letter-spacing="0" fill-rule="nonzero" stroke="none" y="210.48" fill="#000000 icc-color(p1,0,0,0)" x="634.791">o  CODE_DATUM</tspan>
<tspan font-family="ArialMT,sans-serif" font-size="8.2336" letter-spacing="0" fill-rule="nonzero" stroke="none" y="219.42" fill="#000000 icc-color(p1,0,0,0)" x="634.791">o  VAL_GEO_ACCURACY</tspan>
<tspan font-family="ArialMT,sans-serif" font-size="8.2336" letter-spacing="0" fill-rule="nonzero" stroke="none" y="228.3" fill="#000000 icc-color(p1,0,0,0)" x="634.791">o  UOM_GEO_ACCURACY</tspan>
<tspan font-family="ArialMT,sans-serif" font-size="8.2336" letter-spacing="0" fill-rule="nonzero" stroke="none" y="237.24" fill="#000000 icc-color(p1,0,0,0)" x="634.791">o  VAL_ELEV</tspan>
<tspan font-family="ArialMT,sans-serif" font-size="8.2336" letter-spacing="0" fill-rule="nonzero" stroke="none" y="246.18" fill="#000000 icc-color(p1,0,0,0)" x="634.791">o  VAL_ELEV_ACCURACY</tspan>
<tspan font-family="ArialMT,sans-serif" font-size="8.2336" letter-spacing="0" fill-rule="nonzero" stroke="none" y="255.06" fill="#000000 icc-color(p1,0,0,0)" x="634.791">o  VAL_GEOID_UNDULATION</tspan>
<tspan font-family="ArialMT,sans-serif" font-size="8.2336" letter-spacing="0" fill-rule="nonzero" stroke="none" y="264" fill="#000000 icc-color(p1,0,0,0)" x="634.791">o  UOM_DIST_VER</tspan>
<tspan font-family="ArialMT,sans-serif" font-size="8.2336" letter-spacing="0" fill-rule="nonzero" stroke="none" y="272.94" fill="#000000 icc-color(p1,0,0,0)" x="634.791">o  VAL_CRC</tspan>
<tspan font-family="ArialMT,sans-serif" font-size="8.2336" letter-spacing="0" fill-rule="nonzero" stroke="none" y="281.82" fill="#000000 icc-color(p1,0,0,0)" x="634.791">o  TXT_VER_DATUM</tspan>
<tspan font-family="ArialMT,sans-serif" font-size="8.2336" letter-spacing="0" fill-rule="nonzero" stroke="none" y="290.76" fill="#000000 icc-color(p1,0,0,0)" x="634.791">o  TXT_NAME_CITY_SER</tspan>
<tspan font-family="ArialMT,sans-serif" font-size="8.2336" letter-spacing="0" fill-rule="nonzero" stroke="none" y="299.7" fill="#000000 icc-color(p1,0,0,0)" x="634.791">o  TXT_DESCR_SITE</tspan>
<tspan font-family="ArialMT,sans-serif" font-size="8.2336" letter-spacing="0" fill-rule="nonzero" stroke="none" y="308.58" fill="#000000 icc-color(p1,0,0,0)" x="634.791">o  VAL_MAG_VAR</tspan>
<tspan font-family="ArialMT,sans-serif" font-size="8.2336" letter-spacing="0" fill-rule="nonzero" stroke="none" y="317.52" fill="#000000 icc-color(p1,0,0,0)" x="634.791">o  DATE_MAG_VAR</tspan>
<tspan font-family="ArialMT,sans-serif" font-size="8.2336" letter-spacing="0" fill-rule="nonzero" stroke="none" y="326.46" fill="#000000 icc-color(p1,0,0,0)" x="634.791">o  VAL_MAG_VAR_CHG</tspan>
<tspan font-family="ArialMT,sans-serif" font-size="8.2336" letter-spacing="0" fill-rule="nonzero" stroke="none" y="335.34" fill="#000000 icc-color(p1,0,0,0)" x="634.791">o  VAL_REF_T</tspan>
<tspan font-family="ArialMT,sans-serif" font-size="8.2336" letter-spacing="0" fill-rule="nonzero" stroke="none" y="344.28" fill="#000000 icc-color(p1,0,0,0)" x="634.791">o  UOM_REF_T</tspan>
<tspan font-family="ArialMT,sans-serif" font-size="8.2336" letter-spacing="0" fill-rule="nonzero" stroke="none" y="353.22" fill="#000000 icc-color(p1,0,0,0)" x="634.791">o  TXT_NAME_ADMIN</tspan>
<tspan font-family="ArialMT,sans-serif" font-size="8.2336" letter-spacing="0" fill-rule="nonzero" stroke="none" y="362.1" fill="#000000 icc-color(p1,0,0,0)" x="634.791">o  TXT_DESCR_ACL</tspan>
<tspan font-family="ArialMT,sans-serif" font-size="8.2336" letter-spacing="0" fill-rule="nonzero" stroke="none" y="371.04" fill="#000000 icc-color(p1,0,0,0)" x="634.791">o  TXT_DESCR_SRY_PWR</tspan>
<tspan font-family="ArialMT,sans-serif" font-size="8.2336" letter-spacing="0" fill-rule="nonzero" stroke="none" y="379.98" fill="#000000 icc-color(p1,0,0,0)" x="634.791">o  TXT_DESCR_WDI</tspan>
<tspan font-family="ArialMT,sans-serif" font-size="8.2336" letter-spacing="0" fill-rule="nonzero" stroke="none" y="388.86" fill="#000000 icc-color(p1,0,0,0)" x="634.791">o  TXT_DESCR_LDI</tspan>
<tspan font-family="ArialMT,sans-serif" font-size="8.2336" letter-spacing="0" fill-rule="nonzero" stroke="none" y="397.8" fill="#000000 icc-color(p1,0,0,0)" x="634.791">o  VAL_TRANSITION_ALT</tspan>
<tspan font-family="ArialMT,sans-serif" font-size="8.2336" letter-spacing="0" fill-rule="nonzero" stroke="none" y="406.68" fill="#000000 icc-color(p1,0,0,0)" x="634.791">o  UOM_TRANSITION_ALT</tspan>
<tspan font-family="ArialMT,sans-serif" font-size="8.2336" letter-spacing="0" fill-rule="nonzero" stroke="none" y="415.62" fill="#000000 icc-color(p1,0,0,0)" x="634.791">o  TXT_RMK</tspan>
</text>
</a>
<path stroke-width="1" d="M396.6 206.631L342.36 206.631M386.28 206.631L396.6 203.211M386.28 206.631L396.6 210.051M386.28 206.631L396.6 206.631" stroke-miterlimit="10" stroke="#000000 icc-color(p1,0,0,0)" stroke-linejoin="round" fill="none" stroke-linecap="round"/>
<text transform="matrix(0 1 1 0 0 0)">
<tspan font-family="ArialMT,sans-serif" font-size="10.9781" letter-spacing="0" fill-rule="nonzero" stroke="none" y="385.14" fill="#000000 icc-color(p1,0,0,0)" x="164.09">part of</tspan>
<tspan font-family="ArialMT,sans-serif" font-size="10.9781" letter-spacing="0" fill-rule="nonzero" stroke="none" y="359.1" fill="#000000 icc-color(p1,0,0,0)" x="210.05">made of</tspan>
</text>
<path stroke-width="1" d="M235.32 216.231L144.06 216.231M144.06 373.371L144.06 361.011M144.06 356.871L144.06 344.511M144.06 340.431L144.06 328.071M144.06 323.931L144.06 311.631M144.06 307.491L144.06 295.131M144.06 291.051L144.06 278.691M144.06 274.551L144.06 262.191M144.06 258.111L144.06 245.751M144.06 241.611L144.06 229.251M144.06 225.171L144.06 216.231" stroke-miterlimit="10" stroke="#000000 icc-color(p1,0,0,0)" stroke-linejoin="round" fill="none" stroke-linecap="round"/>
<text transform="matrix(0 1 1 0 0 0)">
<tspan font-family="ArialMT,sans-serif" font-size="10.9781" letter-spacing="0" fill-rule="nonzero" stroke="none" y="223.92" fill="#000000 icc-color(p1,0,0,0)" x="68.0305">describing the geometry of</tspan>
<tspan font-family="ArialMT,sans-serif" font-size="10.9781" letter-spacing="0" fill-rule="nonzero" stroke="none" y="134.04" fill="#000000 icc-color(p1,0,0,0)" x="192.23">having the geometry described by</tspan>
</text>
<path stroke-width="1" d="M190.08 623.81L190.08 611.451M190.08 607.31L190.08 594.951M190.08 590.87L190.08 578.51M190.08 574.37L190.08 514.01M190.08 524.331L186.6 514.01M190.08 524.331L193.5 514.01M190.08 524.331L190.08 514.01" stroke-miterlimit="10" stroke="#000000 icc-color(p1,0,0,0)" stroke-linejoin="round" fill="none" stroke-linecap="round"/>
<text transform="matrix(0 1 1 0 0 0)">
<tspan font-family="ArialMT,sans-serif" font-size="10.9781" letter-spacing="0" fill-rule="nonzero" stroke="none" y="203.34" fill="#000000 icc-color(p1,0,0,0)" x="579.89">having</tspan>
<tspan font-family="ArialMT,sans-serif" font-size="10.9781" letter-spacing="0" fill-rule="nonzero" stroke="none" y="182.04" fill="#000000 icc-color(p1,0,0,0)" x="520.85">located at</tspan>
</text>
</g>
</g>
</g>
</svg>
