<?xml version="1.0" encoding="utf-8"?>
<svg onload="initSVG();" xml:space="preserve" width="842" height="595" viewBox="0 0 842 595" color-interpolation-filters="sRGB" id="root" xmlns:xlink="http://www.w3.org/1999/xlink">
 Converted with TEXTCAFE (tm) http://www.texterity.com 
  <title>052_SERVICE (AICM-4-5) -- Page 1</title>
<defs>
    <color-profile xlink:href="data:application/icc;base64, AAAMSExpbm8CEAAAbW50clJHQiBYWVogB84AAgAJAAYAMQAAYWNzcE1TRlQAAAAASUVDIHNSR0IA AAAAAAAAAAAAAAAAAPbWAAEAAAAA0y1IUCAgAAAAAAAAAAAAAAAAAAAAAAAAAAAAAAAAAAAAAAAA AAAAAAAAAAAAAAAAAAAAAAARY3BydAAAAVAAAAAzZGVzYwAAAYQAAABsd3RwdAAAAfAAAAAUYmtw dAAAAgQAAAAUclhZWgAAAhgAAAAUZ1hZWgAAAiwAAAAUYlhZWgAAAkAAAAAUZG1uZAAAAlQAAABw ZG1kZAAAAsQAAACIdnVlZAAAA0wAAACGdmlldwAAA9QAAAAkbHVtaQAAA/gAAAAUbWVhcwAABAwA AAAkdGVjaAAABDAAAAAMclRSQwAABDwAAAgMZ1RSQwAABDwAAAgMYlRSQwAABDwAAAgMdGV4dAAA AABDb3B5cmlnaHQgKGMpIDE5OTggSGV3bGV0dC1QYWNrYXJkIENvbXBhbnkAAGRlc2MAAAAAAAAA EnNSR0IgSUVDNjE5NjYtMi4xAAAAAAAAAAAAAAASc1JHQiBJRUM2MTk2Ni0yLjEAAAAAAAAAAAAA AAAAAAAAAAAAAAAAAAAAAAAAAAAAAAAAAAAAAAAAAAAAAAAAAAAAAFhZWiAAAAAAAADzUQABAAAA ARbMWFlaIAAAAAAAAAAAAAAAAAAAAABYWVogAAAAAAAAb6IAADj1AAADkFhZWiAAAAAAAABimQAA t4UAABjaWFlaIAAAAAAAACSgAAAPhAAAts9kZXNjAAAAAAAAABZJRUMgaHR0cDovL3d3dy5pZWMu Y2gAAAAAAAAAAAAAABZJRUMgaHR0cDovL3d3dy5pZWMuY2gAAAAAAAAAAAAAAAAAAAAAAAAAAAAA AAAAAAAAAAAAAAAAAAAAAAAAAAAAAAAAZGVzYwAAAAAAAAAuSUVDIDYxOTY2LTIuMSBEZWZhdWx0 IFJHQiBjb2xvdXIgc3BhY2UgLSBzUkdCAAAAAAAAAAAAAAAuSUVDIDYxOTY2LTIuMSBEZWZhdWx0 IFJHQiBjb2xvdXIgc3BhY2UgLSBzUkdCAAAAAAAAAAAAAAAAAAAAAAAAAAAAAGRlc2MAAAAAAAAA LFJlZmVyZW5jZSBWaWV3aW5nIENvbmRpdGlvbiBpbiBJRUM2MTk2Ni0yLjEAAAAAAAAAAAAAACxS ZWZlcmVuY2UgVmlld2luZyBDb25kaXRpb24gaW4gSUVDNjE5NjYtMi4xAAAAAAAAAAAAAAAAAAAA AAAAAAAAAAAAAAB2aWV3AAAAAAATpP4AFF8uABDPFAAD7cwABBMLAANcngAAAAFYWVogAAAAAABM CVYAUAAAAFcf521lYXMAAAAAAAAAAQAAAAAAAAAAAAAAAAAAAAAAAAKPAAAAAnNpZyAAAAAAQ1JU IGN1cnYAAAAAAAAEAAAAAAUACgAPABQAGQAeACMAKAAtADIANwA7AEAARQBKAE8AVABZAF4AYwBo AG0AcgB3AHwAgQCGAIsAkACVAJoAnwCkAKkArgCyALcAvADBAMYAywDQANUA2wDgAOUA6wDwAPYA +wEBAQcBDQETARkBHwElASsBMgE4AT4BRQFMAVIBWQFgAWcBbgF1AXwBgwGLAZIBmgGhAakBsQG5 AcEByQHRAdkB4QHpAfIB+gIDAgwCFAIdAiYCLwI4AkECSwJUAl0CZwJxAnoChAKOApgCogKsArYC wQLLAtUC4ALrAvUDAAMLAxYDIQMtAzgDQwNPA1oDZgNyA34DigOWA6IDrgO6A8cD0wPgA+wD+QQG BBMEIAQtBDsESARVBGMEcQR+BIwEmgSoBLYExATTBOEE8AT+BQ0FHAUrBToFSQVYBWcFdwWGBZYF pgW1BcUF1QXlBfYGBgYWBicGNwZIBlkGagZ7BowGnQavBsAG0QbjBvUHBwcZBysHPQdPB2EHdAeG B5kHrAe/B9IH5Qf4CAsIHwgyCEYIWghuCIIIlgiqCL4I0gjnCPsJEAklCToJTwlkCXkJjwmkCboJ zwnlCfsKEQonCj0KVApqCoEKmAquCsUK3ArzCwsLIgs5C1ELaQuAC5gLsAvIC+EL+QwSDCoMQwxc DHUMjgynDMAM2QzzDQ0NJg1ADVoNdA2ODakNww3eDfgOEw4uDkkOZA5/DpsOtg7SDu4PCQ8lD0EP Xg96D5YPsw/PD+wQCRAmEEMQYRB+EJsQuRDXEPURExExEU8RbRGMEaoRyRHoEgcSJhJFEmQShBKj EsMS4xMDEyMTQxNjE4MTpBPFE+UUBhQnFEkUahSLFK0UzhTwFRIVNBVWFXgVmxW9FeAWAxYmFkkW bBaPFrIW1hb6Fx0XQRdlF4kXrhfSF/cYGxhAGGUYihivGNUY+hkgGUUZaxmRGbcZ3RoEGioaURp3 Gp4axRrsGxQbOxtjG4obshvaHAIcKhxSHHscoxzMHPUdHh1HHXAdmR3DHeweFh5AHmoelB6+Hukf Ex8+H2kflB+/H+ogFSBBIGwgmCDEIPAhHCFIIXUhoSHOIfsiJyJVIoIiryLdIwojOCNmI5QjwiPw JB8kTSR8JKsk2iUJJTglaCWXJccl9yYnJlcmhya3JugnGCdJJ3onqyfcKA0oPyhxKKIo1CkGKTgp aymdKdAqAio1KmgqmyrPKwIrNitpK50r0SwFLDksbiyiLNctDC1BLXYtqy3hLhYuTC6CLrcu7i8k L1ovkS/HL/4wNTBsMKQw2zESMUoxgjG6MfIyKjJjMpsy1DMNM0YzfzO4M/E0KzRlNJ402DUTNU01 hzXCNf02NzZyNq426TckN2A3nDfXOBQ4UDiMOMg5BTlCOX85vDn5OjY6dDqyOu87LTtrO6o76Dwn PGU8pDzjPSI9YT2hPeA+ID5gPqA+4D8hP2E/oj/iQCNAZECmQOdBKUFqQaxB7kIwQnJCtUL3QzpD fUPARANER0SKRM5FEkVVRZpF3kYiRmdGq0bwRzVHe0fASAVIS0iRSNdJHUljSalJ8Eo3Sn1KxEsM S1NLmkviTCpMcky6TQJNSk2TTdxOJU5uTrdPAE9JT5NP3VAnUHFQu1EGUVBRm1HmUjFSfFLHUxNT X1OqU/ZUQlSPVNtVKFV1VcJWD1ZcVqlW91dEV5JX4FgvWH1Yy1kaWWlZuFoHWlZaplr1W0VblVvl XDVchlzWXSddeF3JXhpebF69Xw9fYV+zYAVgV2CqYPxhT2GiYfViSWKcYvBjQ2OXY+tkQGSUZOll PWWSZedmPWaSZuhnPWeTZ+loP2iWaOxpQ2maafFqSGqfavdrT2una/9sV2yvbQhtYG25bhJua27E bx5veG/RcCtwhnDgcTpxlXHwcktypnMBc11zuHQUdHB0zHUodYV14XY+dpt2+HdWd7N4EXhueMx5 KnmJeed6RnqlewR7Y3vCfCF8gXzhfUF9oX4BfmJ+wn8jf4R/5YBHgKiBCoFrgc2CMIKSgvSDV4O6 hB2EgITjhUeFq4YOhnKG14c7h5+IBIhpiM6JM4mZif6KZIrKizCLlov8jGOMyo0xjZiN/45mjs6P No+ekAaQbpDWkT+RqJIRknqS45NNk7aUIJSKlPSVX5XJljSWn5cKl3WX4JhMmLiZJJmQmfyaaJrV m0Kbr5wcnImc951kndKeQJ6unx2fi5/6oGmg2KFHobaiJqKWowajdqPmpFakx6U4pammGqaLpv2n bqfgqFKoxKk3qamqHKqPqwKrdavprFys0K1ErbiuLa6hrxavi7AAsHWw6rFgsdayS7LCszizrrQl tJy1E7WKtgG2ebbwt2i34LhZuNG5SrnCuju6tbsuu6e8IbybvRW9j74KvoS+/796v/XAcMDswWfB 48JfwtvDWMPUxFHEzsVLxcjGRsbDx0HHv8g9yLzJOsm5yjjKt8s2y7bMNcy1zTXNtc42zrbPN8+4 0DnQutE80b7SP9LB00TTxtRJ1MvVTtXR1lXW2Ndc1+DYZNjo2WzZ8dp22vvbgNwF3IrdEN2W3hze ot8p36/gNuC94UThzOJT4tvjY+Pr5HPk/OWE5g3mlucf56noMui86Ubp0Opb6uXrcOv77IbtEe2c 7ijutO9A78zwWPDl8XLx//KM8xnzp/Q09ML1UPXe9m32+/eK+Bn4qPk4+cf6V/rn+3f8B/yY/Sn9 uv5L/tz/bf//" rendering-intent="relative-colorimetric" name="p1"/>
<style type="text/css">

clipPath{shape-rendering:crispEdges}
image{shape-rendering:crispEdges}

    </style>
<clipPath id="id2">
      <rect width="595" height="842" y="0" x="0"/>
</clipPath>
</defs>
<defs/>
<g>
<g transform="scale(1 -1)">
<g transform="matrix(0 -1 1 0 0 0)" clip-path="url(#id2)" id="main">
<path stroke-width="1" d="M585.96 14.511L583.92 14.511M585.96 14.511L585.96 16.551M9.6 14.511L11.64 14.511M9.6 14.511L9.6 16.551M585.96 826.191L583.92 826.191M585.96 826.191L585.96 824.151M9.6 826.191L11.64 826.191M9.6 826.191L9.6 824.151" stroke-miterlimit="10" stroke="#000000 icc-color(p1,0,0,0)" stroke-linejoin="round" fill="none" stroke-linecap="round"/>
<path d="M10.38 15.291h566.58v801.9h-566.58Z" fill-rule="nonzero" stroke="none" fill="#ffffff icc-color(p1,1,1,1)"/>
<path stroke-width="1" d="M576.96 817.191h-566.64v-801.96h566.64Z" stroke-miterlimit="10" stroke="#000000 icc-color(p1,0,0,0)" stroke-linejoin="round" fill="none" stroke-linecap="round"/>
<a onclick="selectEntity('ORG_AUTH');" onmousemove="(window.status ='ORG_AUTH')">
<path id="ORG_AUTH" stroke-width="1" d="M260.7 718.431C256.92 718.431 253.86 715.311 253.86 711.531L253.86 637.49C253.86 633.711 256.92 630.651 260.7 630.651L322.38 630.651C326.16 630.651 329.28 633.711 329.28 637.49L329.28 711.531C329.28 715.311 326.16 718.431 322.38 718.431Z" fill-rule="evenodd" stroke-miterlimit="10" stroke="#000000 icc-color(p1,0,0,0)" stroke-linejoin="round" fill="#ffffff icc-color(p1,1,1,1)" stroke-linecap="round"/>
<text transform="matrix(0 1 1 0 0 0)">
<tspan font-family="ArialMT,sans-serif" font-size="10.9781" letter-spacing="0" fill-rule="nonzero" stroke="none" y="270.6" fill="#000000 icc-color(p1,0,0,0)" x="637.49">ORG_AUTH</tspan>
<tspan font-family="ArialMT,sans-serif" font-size="8.2336" letter-spacing="0" fill-rule="nonzero" stroke="none" y="280.44" fill="#000000 icc-color(p1,0,0,0)" x="637.49">*  TXT_NAME</tspan>
<tspan font-family="ArialMT,sans-serif" font-size="8.2336" letter-spacing="0" fill-rule="nonzero" stroke="none" y="289.38" fill="#000000 icc-color(p1,0,0,0)" x="637.49">o  CODE_ID</tspan>
<tspan font-family="ArialMT,sans-serif" font-size="8.2336" letter-spacing="0" fill-rule="nonzero" stroke="none" y="298.32" fill="#000000 icc-color(p1,0,0,0)" x="637.49">*  CODE_TYPE</tspan>
<tspan font-family="ArialMT,sans-serif" font-size="8.2336" letter-spacing="0" fill-rule="nonzero" stroke="none" y="307.2" fill="#000000 icc-color(p1,0,0,0)" x="637.49">o  TXT_RMK</tspan>
</text>
</a>
<a onclick="selectEntity('TIMESHEET');" onmousemove="(window.status ='TIMESHEET')">
<path id="TIMESHEET" stroke-width="1" d="M86.46 233.331C82.68 233.331 79.62 230.211 79.62 226.431L79.62 107.151C79.62 103.371 82.68 100.311 86.46 100.311L261.3 100.311C265.08 100.311 268.2 103.371 268.2 107.151L268.2 226.431C268.2 230.211 265.08 233.331 261.3 233.331Z" fill-rule="evenodd" stroke-miterlimit="10" stroke="#000000 icc-color(p1,0,0,0)" stroke-linejoin="round" fill="#ffffff icc-color(p1,1,1,1)" stroke-linecap="round"/>
<text transform="matrix(0 1 1 0 0 0)">
<tspan font-family="ArialMT,sans-serif" font-size="10.9781" letter-spacing="0" fill-rule="nonzero" stroke="none" y="96.3" fill="#000000 icc-color(p1,0,0,0)" x="107.15">TIMESHEET</tspan>
<tspan font-family="ArialMT,sans-serif" font-size="8.2336" letter-spacing="0" fill-rule="nonzero" stroke="none" y="106.2" fill="#000000 icc-color(p1,0,0,0)" x="107.15">*  CODE_TIME_REF</tspan>
<tspan font-family="ArialMT,sans-serif" font-size="8.2336" letter-spacing="0" fill-rule="nonzero" stroke="none" y="115.08" fill="#000000 icc-color(p1,0,0,0)" x="107.15">*  DATE_VALID_WEF</tspan>
<tspan font-family="ArialMT,sans-serif" font-size="8.2336" letter-spacing="0" fill-rule="nonzero" stroke="none" y="124.02" fill="#000000 icc-color(p1,0,0,0)" x="107.15">*  DATE_VALID_TIL</tspan>
<tspan font-family="ArialMT,sans-serif" font-size="8.2336" letter-spacing="0" fill-rule="nonzero" stroke="none" y="132.96" fill="#000000 icc-color(p1,0,0,0)" x="107.15">*  CODE_DAY</tspan>
<tspan font-family="ArialMT,sans-serif" font-size="8.2336" letter-spacing="0" fill-rule="nonzero" stroke="none" y="141.84" fill="#000000 icc-color(p1,0,0,0)" x="107.15">o  CODE_DAY_TIL</tspan>
<tspan font-family="ArialMT,sans-serif" font-size="8.2336" letter-spacing="0" fill-rule="nonzero" stroke="none" y="150.78" fill="#000000 icc-color(p1,0,0,0)" x="107.15">o  TIME_WEF</tspan>
<tspan font-family="ArialMT,sans-serif" font-size="8.2336" letter-spacing="0" fill-rule="nonzero" stroke="none" y="159.72" fill="#000000 icc-color(p1,0,0,0)" x="107.15">o  CODE_EVENT_WEF</tspan>
<tspan font-family="ArialMT,sans-serif" font-size="8.2336" letter-spacing="0" fill-rule="nonzero" stroke="none" y="168.6" fill="#000000 icc-color(p1,0,0,0)" x="107.15">o  TIME_REL_EVENT_WEF</tspan>
<tspan font-family="ArialMT,sans-serif" font-size="8.2336" letter-spacing="0" fill-rule="nonzero" stroke="none" y="177.54" fill="#000000 icc-color(p1,0,0,0)" x="107.15">o  CODE_COMB_WEF</tspan>
<tspan font-family="ArialMT,sans-serif" font-size="8.2336" letter-spacing="0" fill-rule="nonzero" stroke="none" y="186.48" fill="#000000 icc-color(p1,0,0,0)" x="107.15">o  TIME_TIL</tspan>
<tspan font-family="ArialMT,sans-serif" font-size="8.2336" letter-spacing="0" fill-rule="nonzero" stroke="none" y="195.36" fill="#000000 icc-color(p1,0,0,0)" x="107.15">o  CODE_EVENT_TIL</tspan>
<tspan font-family="ArialMT,sans-serif" font-size="8.2336" letter-spacing="0" fill-rule="nonzero" stroke="none" y="204.3" fill="#000000 icc-color(p1,0,0,0)" x="107.15">o  TIME_REL_EVENT_TIL</tspan>
<tspan font-family="ArialMT,sans-serif" font-size="8.2336" letter-spacing="0" fill-rule="nonzero" stroke="none" y="213.24" fill="#000000 icc-color(p1,0,0,0)" x="107.15">o  CODE_COMB_TIL</tspan>
</text>
</a>
<a onclick="selectEntity('UNIT');" onmousemove="(window.status ='UNIT')">
<path id="UNIT" stroke-width="1" d="M86.46 715.01C82.68 715.01 79.62 711.891 79.62 708.11L79.62 636.11C79.62 632.331 82.68 629.271 86.46 629.271L175.56 629.271C179.34 629.271 182.46 632.331 182.46 636.11L182.46 708.11C182.46 711.891 179.34 715.01 175.56 715.01Z" fill-rule="evenodd" stroke-miterlimit="10" stroke="#000000 icc-color(p1,0,0,0)" stroke-linejoin="round" fill="#ffffff icc-color(p1,1,1,1)" stroke-linecap="round"/>
<text transform="matrix(0 1 1 0 0 0)">
<tspan font-family="ArialMT,sans-serif" font-size="10.9781" letter-spacing="0" fill-rule="nonzero" stroke="none" y="96.3" fill="#000000 icc-color(p1,0,0,0)" x="636.11">UNIT</tspan>
<tspan font-family="ArialMT,sans-serif" font-size="8.2336" letter-spacing="0" fill-rule="nonzero" stroke="none" y="106.2" fill="#000000 icc-color(p1,0,0,0)" x="636.11">*  TXT_NAME</tspan>
<tspan font-family="ArialMT,sans-serif" font-size="8.2336" letter-spacing="0" fill-rule="nonzero" stroke="none" y="115.08" fill="#000000 icc-color(p1,0,0,0)" x="636.11">*  CODE_TYPE</tspan>
<tspan font-family="ArialMT,sans-serif" font-size="8.2336" letter-spacing="0" fill-rule="nonzero" stroke="none" y="124.02" fill="#000000 icc-color(p1,0,0,0)" x="636.11">*  CODE_CLASS</tspan>
<tspan font-family="ArialMT,sans-serif" font-size="8.2336" letter-spacing="0" fill-rule="nonzero" stroke="none" y="132.96" fill="#000000 icc-color(p1,0,0,0)" x="636.11">o  CODE_ID</tspan>
<tspan font-family="ArialMT,sans-serif" font-size="8.2336" letter-spacing="0" fill-rule="nonzero" stroke="none" y="141.84" fill="#000000 icc-color(p1,0,0,0)" x="636.11">o  GEO_LAT</tspan>
<tspan font-family="ArialMT,sans-serif" font-size="8.2336" letter-spacing="0" fill-rule="nonzero" stroke="none" y="150.78" fill="#000000 icc-color(p1,0,0,0)" x="636.11">o  GEO_LONG</tspan>
<tspan font-family="ArialMT,sans-serif" font-size="8.2336" letter-spacing="0" fill-rule="nonzero" stroke="none" y="159.72" fill="#000000 icc-color(p1,0,0,0)" x="636.11">o  CODE_DATUM</tspan>
<tspan font-family="ArialMT,sans-serif" font-size="8.2336" letter-spacing="0" fill-rule="nonzero" stroke="none" y="168.6" fill="#000000 icc-color(p1,0,0,0)" x="636.11">o  TXT_RMK</tspan>
</text>
</a>
<a onclick="selectEntity('TIMETABLE');" onmousemove="(window.status ='TIMETABLE')">
<path id="TIMETABLE" stroke-width="1" d="M373.92 180.471C370.14 180.471 367.08 177.351 367.08 173.571L367.08 75.591C367.08 71.811 370.14 68.751 373.92 68.751L480.18 68.751C483.96 68.751 487.08 71.811 487.08 75.591L487.08 173.571C487.08 177.351 483.96 180.471 480.18 180.471Z" fill-rule="evenodd" stroke-miterlimit="10" stroke="#000000 icc-color(p1,0,0,0)" stroke-linejoin="round" fill="#ffffff icc-color(p1,1,1,1)" stroke-linecap="round"/>
<text transform="matrix(0 1 1 0 0 0)">
<tspan font-family="ArialMT,sans-serif" font-size="10.9781" letter-spacing="0" fill-rule="nonzero" stroke="none" y="383.76" fill="#000000 icc-color(p1,0,0,0)" x="75.5905">TIMETABLE</tspan>
<tspan font-family="ArialMT,sans-serif" font-size="8.2336" letter-spacing="0" fill-rule="nonzero" stroke="none" y="393.66" fill="#000000 icc-color(p1,0,0,0)" x="75.5905">*  CODE_WORK_HR</tspan>
<tspan font-family="ArialMT,sans-serif" font-size="8.2336" letter-spacing="0" fill-rule="nonzero" stroke="none" y="402.6" fill="#000000 icc-color(p1,0,0,0)" x="75.5905">o  TXT_RMK_WORK_HR</tspan>
</text>
</a>
<path stroke-width="1" d="M391.08 194.211C387.3 194.211 384.24 191.091 384.24 187.371M391.08 194.271L459.72 194.271M466.5 187.371C466.5 191.091 463.44 194.211 459.66 194.211M459.66 197.631C457.8 197.631 456.3 196.071 456.3 194.211C456.3 192.351 457.8 190.851 459.66 190.851C461.52 190.851 463.08 192.351 463.08 194.211C463.08 196.071 461.52 197.631 459.66 197.631ZM391.02 197.631C389.16 197.631 387.66 196.071 387.66 194.211C387.66 192.351 389.16 190.851 391.02 190.851C392.88 190.851 394.44 192.351 394.44 194.211C394.44 196.071 392.88 197.631 391.02 197.631Z" stroke-miterlimit="10" stroke="#000000 icc-color(p1,0,0,0)" stroke-linejoin="round" fill="none" stroke-linecap="round"/>
<a onclick="selectEntity('SERVICE');" onmousemove="(window.status ='SERVICE')">
<path id="SERVICE" stroke-width="1" d="M85.74 484.431C81.96 484.431 78.9 481.311 78.9 477.531L78.9 336.951C78.9 333.171 81.96 330.111 85.74 330.111L290.16 330.111C293.94 330.111 297.06 333.171 297.06 336.951L297.06 477.531C297.06 481.311 293.94 484.431 290.16 484.431Z" fill-rule="evenodd" stroke-miterlimit="10" stroke="#000000 icc-color(p1,0,0,0)" stroke-linejoin="round" fill="#ffffff icc-color(p1,1,1,1)" stroke-linecap="round"/>
<text transform="matrix(0 1 1 0 0 0)">
<tspan font-family="ArialMT,sans-serif" font-size="10.9781" letter-spacing="0" fill-rule="nonzero" stroke="none" y="95.58" fill="#000000 icc-color(p1,0,0,0)" x="337.01">SERVICE</tspan>
<tspan font-family="ArialMT,sans-serif" font-size="8.2336" letter-spacing="0" fill-rule="nonzero" stroke="none" y="105.48" fill="#000000 icc-color(p1,0,0,0)" x="337.01">*  CODE_TYPE</tspan>
<tspan font-family="ArialMT,sans-serif" font-size="8.2336" letter-spacing="0" fill-rule="nonzero" stroke="none" y="114.42" fill="#000000 icc-color(p1,0,0,0)" x="337.01">*  NO_SEQ</tspan>
<tspan font-family="ArialMT,sans-serif" font-size="8.2336" letter-spacing="0" fill-rule="nonzero" stroke="none" y="123.36" fill="#000000 icc-color(p1,0,0,0)" x="337.01">o  CODE_SOURCE</tspan>
<tspan font-family="ArialMT,sans-serif" font-size="8.2336" letter-spacing="0" fill-rule="nonzero" stroke="none" y="132.24" fill="#000000 icc-color(p1,0,0,0)" x="337.01">o  GEO_LAT</tspan>
<tspan font-family="ArialMT,sans-serif" font-size="8.2336" letter-spacing="0" fill-rule="nonzero" stroke="none" y="141.18" fill="#000000 icc-color(p1,0,0,0)" x="337.01">o  GEO_LONG</tspan>
<tspan font-family="ArialMT,sans-serif" font-size="8.2336" letter-spacing="0" fill-rule="nonzero" stroke="none" y="150.12" fill="#000000 icc-color(p1,0,0,0)" x="337.01">o  CODE_RADAR</tspan>
<tspan font-family="ArialMT,sans-serif" font-size="8.2336" letter-spacing="0" fill-rule="nonzero" stroke="none" y="159" fill="#000000 icc-color(p1,0,0,0)" x="337.01">o  CODE_DATUM</tspan>
<tspan font-family="ArialMT,sans-serif" font-size="8.2336" letter-spacing="0" fill-rule="nonzero" stroke="none" y="167.94" fill="#000000 icc-color(p1,0,0,0)" x="337.01">o  VAL_GEO_ACCURACY</tspan>
<tspan font-family="ArialMT,sans-serif" font-size="8.2336" letter-spacing="0" fill-rule="nonzero" stroke="none" y="176.88" fill="#000000 icc-color(p1,0,0,0)" x="337.01">o  UOM_GEO_ACCURACY</tspan>
<tspan font-family="ArialMT,sans-serif" font-size="8.2336" letter-spacing="0" fill-rule="nonzero" stroke="none" y="185.76" fill="#000000 icc-color(p1,0,0,0)" x="337.01">o  VAL_ELEV</tspan>
<tspan font-family="ArialMT,sans-serif" font-size="8.2336" letter-spacing="0" fill-rule="nonzero" stroke="none" y="194.7" fill="#000000 icc-color(p1,0,0,0)" x="337.01">o  VAL_ELEV_ACCURACY</tspan>
<tspan font-family="ArialMT,sans-serif" font-size="8.2336" letter-spacing="0" fill-rule="nonzero" stroke="none" y="203.64" fill="#000000 icc-color(p1,0,0,0)" x="337.01">o  VAL_GEOID_UNDULATION</tspan>
<tspan font-family="ArialMT,sans-serif" font-size="8.2336" letter-spacing="0" fill-rule="nonzero" stroke="none" y="212.52" fill="#000000 icc-color(p1,0,0,0)" x="337.01">o  UOM_DIST_VER</tspan>
<tspan font-family="ArialMT,sans-serif" font-size="8.2336" letter-spacing="0" fill-rule="nonzero" stroke="none" y="221.46" fill="#000000 icc-color(p1,0,0,0)" x="337.01">o  VAL_CRC</tspan>
<tspan font-family="ArialMT,sans-serif" font-size="8.2336" letter-spacing="0" fill-rule="nonzero" stroke="none" y="230.4" fill="#000000 icc-color(p1,0,0,0)" x="337.01">o  TXT_VER_DATUM</tspan>
<tspan font-family="ArialMT,sans-serif" font-size="8.2336" letter-spacing="0" fill-rule="nonzero" stroke="none" y="239.28" fill="#000000 icc-color(p1,0,0,0)" x="337.01">o  TXT_RMK</tspan>
</text>
</a>
<a onclick="selectEntity('FREQUENCY');" onmousemove="(window.status ='FREQUENCY')">
<path id="FREQUENCY" stroke-width="1" d="M394.5 502.31C390.72 502.31 387.66 499.19 387.66 495.41L387.66 395.271C387.66 391.491 390.72 388.431 394.5 388.431L500.76 388.431C504.54 388.431 507.66 391.491 507.66 395.271L507.66 495.41C507.66 499.19 504.54 502.31 500.76 502.31Z" fill-rule="evenodd" stroke-miterlimit="10" stroke="#000000 icc-color(p1,0,0,0)" stroke-linejoin="round" fill="#ffffff icc-color(p1,1,1,1)" stroke-linecap="round"/>
<text transform="matrix(0 1 1 0 0 0)">
<tspan font-family="ArialMT,sans-serif" font-size="10.9781" letter-spacing="0" fill-rule="nonzero" stroke="none" y="404.34" fill="#000000 icc-color(p1,0,0,0)" x="395.33">FREQUENCY</tspan>
<tspan font-family="ArialMT,sans-serif" font-size="8.2336" letter-spacing="0" fill-rule="nonzero" stroke="none" y="414.24" fill="#000000 icc-color(p1,0,0,0)" x="395.33">*  VAL_FREQ_TRANS</tspan>
<tspan font-family="ArialMT,sans-serif" font-size="8.2336" letter-spacing="0" fill-rule="nonzero" stroke="none" y="423.18" fill="#000000 icc-color(p1,0,0,0)" x="395.33">o  VAL_FREQ_REC</tspan>
<tspan font-family="ArialMT,sans-serif" font-size="8.2336" letter-spacing="0" fill-rule="nonzero" stroke="none" y="432.12" fill="#000000 icc-color(p1,0,0,0)" x="395.33">*  UOM_FREQ</tspan>
<tspan font-family="ArialMT,sans-serif" font-size="8.2336" letter-spacing="0" fill-rule="nonzero" stroke="none" y="441" fill="#000000 icc-color(p1,0,0,0)" x="395.33">o  CODE_TYPE</tspan>
<tspan font-family="ArialMT,sans-serif" font-size="8.2336" letter-spacing="0" fill-rule="nonzero" stroke="none" y="449.94" fill="#000000 icc-color(p1,0,0,0)" x="395.33">o  CODE_EM</tspan>
<tspan font-family="ArialMT,sans-serif" font-size="8.2336" letter-spacing="0" fill-rule="nonzero" stroke="none" y="458.88" fill="#000000 icc-color(p1,0,0,0)" x="395.33">o  CODE_SELCAL</tspan>
<tspan font-family="ArialMT,sans-serif" font-size="8.2336" letter-spacing="0" fill-rule="nonzero" stroke="none" y="467.76" fill="#000000 icc-color(p1,0,0,0)" x="395.33">o  TXT_RMK</tspan>
</text>
</a>
<a onclick="selectEntity('CALLSIGN_DETAIL');" onmousemove="(window.status ='CALLSIGN_DETAIL')">
<path id="CALLSIGN_DETAIL" stroke-width="1" d="M398.64 722.51C394.86 722.51 391.8 719.391 391.8 715.61L391.8 609.351C391.8 605.57 394.86 602.51 398.64 602.51L470.58 602.51C474.36 602.51 477.48 605.57 477.48 609.351L477.48 715.61C477.48 719.391 474.36 722.51 470.58 722.51Z" fill-rule="evenodd" stroke-miterlimit="10" stroke="#000000 icc-color(p1,0,0,0)" stroke-linejoin="round" fill="#ffffff icc-color(p1,1,1,1)" stroke-linecap="round"/>
<text transform="matrix(0 1 1 0 0 0)">
<tspan font-family="ArialMT,sans-serif" font-size="10.9781" letter-spacing="0" fill-rule="nonzero" stroke="none" y="408.48" fill="#000000 icc-color(p1,0,0,0)" x="609.35">CALLSIGN_DETAIL</tspan>
<tspan font-family="ArialMT,sans-serif" font-size="8.2336" letter-spacing="0" fill-rule="nonzero" stroke="none" y="418.38" fill="#000000 icc-color(p1,0,0,0)" x="609.35">*  TXT_CALL_SIGN</tspan>
<tspan font-family="ArialMT,sans-serif" font-size="8.2336" letter-spacing="0" fill-rule="nonzero" stroke="none" y="427.32" fill="#000000 icc-color(p1,0,0,0)" x="609.35">*  CODE_LANG</tspan>
<tspan font-family="ArialMT,sans-serif" font-size="8.2336" letter-spacing="0" fill-rule="nonzero" stroke="none" y="436.2" fill="#000000 icc-color(p1,0,0,0)" x="609.35">o  TXT_RMK</tspan>
</text>
</a>
<path stroke-width="1" d="M249.78 677.99L237.42 677.99M233.28 677.99L182.52 677.99M192.78 677.99L182.52 674.57M192.78 677.99L182.52 681.411M192.78 677.99L182.52 677.99" stroke-miterlimit="10" stroke="#000000 icc-color(p1,0,0,0)" stroke-linejoin="round" fill="none" stroke-linecap="round"/>
<text transform="matrix(0 1 1 0 0 0)">
<tspan font-family="ArialMT,sans-serif" font-size="10.9781" letter-spacing="0" fill-rule="nonzero" stroke="none" y="243.84" fill="#000000 icc-color(p1,0,0,0)" x="608.691">supervising</tspan>
<tspan font-family="ArialMT,sans-serif" font-size="10.9781" letter-spacing="0" fill-rule="nonzero" stroke="none" y="197.16" fill="#000000 icc-color(p1,0,0,0)" x="685.55">supervised by</tspan>
</text>
<path stroke-width="1" d="M268.26 145.551L317.7 145.551M321.78 145.551L334.14 145.551M338.28 145.551L350.64 145.551M354.72 145.551L367.08 145.551M278.58 145.551L268.26 142.131M278.58 145.551L268.26 148.971M278.58 145.551L268.26 145.551" stroke-miterlimit="10" stroke="#000000 icc-color(p1,0,0,0)" stroke-linejoin="round" fill="none" stroke-linecap="round"/>
<text transform="matrix(0 1 1 0 0 0)">
<tspan font-family="ArialMT,sans-serif" font-size="10.9781" letter-spacing="0" fill-rule="nonzero" stroke="none" y="284.28" fill="#000000 icc-color(p1,0,0,0)" x="155.15">part of</tspan>
<tspan font-family="ArialMT,sans-serif" font-size="10.9781" letter-spacing="0" fill-rule="nonzero" stroke="none" y="355.679" fill="#000000 icc-color(p1,0,0,0)" x="66.6505">composed of</tspan>
</text>
<path stroke-width="1" d="M459.72 384.351L459.72 371.991M459.72 367.851L459.72 355.491M459.72 351.411L459.72 339.051M459.72 334.911L459.72 322.611M459.72 318.471L459.72 306.111M459.72 302.031L459.72 289.671M459.72 285.531L459.72 180.531" stroke-miterlimit="10" stroke="#000000 icc-color(p1,0,0,0)" stroke-linejoin="round" fill="none" stroke-linecap="round"/>
<text transform="matrix(0 1 1 0 0 0)">
<tspan font-family="ArialMT,sans-serif" font-size="10.9781" letter-spacing="0" fill-rule="nonzero" stroke="none" y="472.98" fill="#000000 icc-color(p1,0,0,0)" x="278.69">active according to</tspan>
<tspan font-family="ArialMT,sans-serif" font-size="10.9781" letter-spacing="0" fill-rule="nonzero" stroke="none" y="449.641" fill="#000000 icc-color(p1,0,0,0)" x="199.071">describing activity hours for</tspan>
</text>
<path stroke-width="1" d="M387.66 471.471L342.36 471.471M338.28 471.471L325.92 471.471M321.78 471.471L309.42 471.471M305.34 471.471L297.12 471.471M377.4 471.471L387.66 468.051M377.4 471.471L387.66 474.891M377.4 471.471L387.66 471.471" stroke-miterlimit="10" stroke="#000000 icc-color(p1,0,0,0)" stroke-linejoin="round" fill="none" stroke-linecap="round"/>
<text transform="matrix(0 1 1 0 0 0)">
<tspan font-family="ArialMT,sans-serif" font-size="10.9781" letter-spacing="0" fill-rule="nonzero" stroke="none" y="378.96" fill="#000000 icc-color(p1,0,0,0)" x="401.51">attributed to</tspan>
<tspan font-family="ArialMT,sans-serif" font-size="10.9781" letter-spacing="0" fill-rule="nonzero" stroke="none" y="310.38" fill="#000000 icc-color(p1,0,0,0)" x="481.79">using</tspan>
</text>
<path stroke-width="1" d="M435.72 502.37L435.72 602.51M435.72 592.25L432.24 602.51M435.72 592.25L439.14 602.51M435.72 592.25L435.72 602.51" stroke-miterlimit="10" stroke="#000000 icc-color(p1,0,0,0)" stroke-linejoin="round" fill="none" stroke-linecap="round"/>
<text transform="matrix(0 1 1 0 0 0)">
<tspan font-family="ArialMT,sans-serif" font-size="10.9781" letter-spacing="0" fill-rule="nonzero" stroke="none" y="426.3" fill="#000000 icc-color(p1,0,0,0)" x="505.07">identified by</tspan>
<tspan font-family="ArialMT,sans-serif" font-size="10.9781" letter-spacing="0" fill-rule="nonzero" stroke="none" y="448.98" fill="#000000 icc-color(p1,0,0,0)" x="532.551">provided on</tspan>
</text>
<path stroke-width="1" d="M301.2 345.231L313.56 345.231M317.7 345.231L330.06 345.231M334.14 345.231L346.5 345.231M350.64 345.231L362.94 345.231M367.08 345.231L379.44 345.231M383.58 345.231L391.08 345.231L391.08 180.531" stroke-miterlimit="10" stroke="#000000 icc-color(p1,0,0,0)" stroke-linejoin="round" fill="none" stroke-linecap="round"/>
<text transform="matrix(0 1 1 0 0 0)">
<tspan font-family="ArialMT,sans-serif" font-size="10.9781" letter-spacing="0" fill-rule="nonzero" stroke="none" y="310.38" fill="#000000 icc-color(p1,0,0,0)" x="347.99">available according to</tspan>
<tspan font-family="ArialMT,sans-serif" font-size="10.9781" letter-spacing="0" fill-rule="nonzero" stroke="none" y="379.679" fill="#000000 icc-color(p1,0,0,0)" x="193.611">describing availability hours for</tspan>
</text>
<path stroke-width="1" d="M161.22 484.491L161.22 556.551M161.22 560.69L161.22 572.99M161.22 577.13L161.22 589.49M161.22 593.57L161.22 605.931M161.22 610.07L161.22 622.431M161.22 626.51L161.22 629.271M161.22 494.81L157.8 484.491M161.22 494.81L164.7 484.491M161.22 494.81L161.22 484.491" stroke-miterlimit="10" stroke="#000000 icc-color(p1,0,0,0)" stroke-linejoin="round" fill="none" stroke-linecap="round"/>
<text transform="matrix(0 1 1 0 0 0)">
<tspan font-family="ArialMT,sans-serif" font-size="10.9781" letter-spacing="0" fill-rule="nonzero" stroke="none" y="152.58" fill="#000000 icc-color(p1,0,0,0)" x="493.43">provided by</tspan>
<tspan font-family="ArialMT,sans-serif" font-size="10.9781" letter-spacing="0" fill-rule="nonzero" stroke="none" y="175.86" fill="#000000 icc-color(p1,0,0,0)" x="575.09">providing</tspan>
</text>
</g>
</g>
</g>
</svg>
