<?xml version="1.0" encoding="utf-8"?>
<svg onload="initSVG();" xml:space="preserve" width="842" height="595" viewBox="0 0 842 595" color-interpolation-filters="sRGB" id="root" xmlns:xlink="http://www.w3.org/1999/xlink">
 Converted with TEXTCAFE (tm) http://www.texterity.com 
  <title>054_SIGNIFICANT_POINT_IN_AS (AI -- Page 1</title>
<defs>
    <color-profile xlink:href="data:application/icc;base64, AAAMSExpbm8CEAAAbW50clJHQiBYWVogB84AAgAJAAYAMQAAYWNzcE1TRlQAAAAASUVDIHNSR0IA AAAAAAAAAAAAAAAAAPbWAAEAAAAA0y1IUCAgAAAAAAAAAAAAAAAAAAAAAAAAAAAAAAAAAAAAAAAA AAAAAAAAAAAAAAAAAAAAAAARY3BydAAAAVAAAAAzZGVzYwAAAYQAAABsd3RwdAAAAfAAAAAUYmtw dAAAAgQAAAAUclhZWgAAAhgAAAAUZ1hZWgAAAiwAAAAUYlhZWgAAAkAAAAAUZG1uZAAAAlQAAABw ZG1kZAAAAsQAAACIdnVlZAAAA0wAAACGdmlldwAAA9QAAAAkbHVtaQAAA/gAAAAUbWVhcwAABAwA AAAkdGVjaAAABDAAAAAMclRSQwAABDwAAAgMZ1RSQwAABDwAAAgMYlRSQwAABDwAAAgMdGV4dAAA AABDb3B5cmlnaHQgKGMpIDE5OTggSGV3bGV0dC1QYWNrYXJkIENvbXBhbnkAAGRlc2MAAAAAAAAA EnNSR0IgSUVDNjE5NjYtMi4xAAAAAAAAAAAAAAASc1JHQiBJRUM2MTk2Ni0yLjEAAAAAAAAAAAAA AAAAAAAAAAAAAAAAAAAAAAAAAAAAAAAAAAAAAAAAAAAAAAAAAAAAAFhZWiAAAAAAAADzUQABAAAA ARbMWFlaIAAAAAAAAAAAAAAAAAAAAABYWVogAAAAAAAAb6IAADj1AAADkFhZWiAAAAAAAABimQAA t4UAABjaWFlaIAAAAAAAACSgAAAPhAAAts9kZXNjAAAAAAAAABZJRUMgaHR0cDovL3d3dy5pZWMu Y2gAAAAAAAAAAAAAABZJRUMgaHR0cDovL3d3dy5pZWMuY2gAAAAAAAAAAAAAAAAAAAAAAAAAAAAA AAAAAAAAAAAAAAAAAAAAAAAAAAAAAAAAZGVzYwAAAAAAAAAuSUVDIDYxOTY2LTIuMSBEZWZhdWx0 IFJHQiBjb2xvdXIgc3BhY2UgLSBzUkdCAAAAAAAAAAAAAAAuSUVDIDYxOTY2LTIuMSBEZWZhdWx0 IFJHQiBjb2xvdXIgc3BhY2UgLSBzUkdCAAAAAAAAAAAAAAAAAAAAAAAAAAAAAGRlc2MAAAAAAAAA LFJlZmVyZW5jZSBWaWV3aW5nIENvbmRpdGlvbiBpbiBJRUM2MTk2Ni0yLjEAAAAAAAAAAAAAACxS ZWZlcmVuY2UgVmlld2luZyBDb25kaXRpb24gaW4gSUVDNjE5NjYtMi4xAAAAAAAAAAAAAAAAAAAA AAAAAAAAAAAAAAB2aWV3AAAAAAATpP4AFF8uABDPFAAD7cwABBMLAANcngAAAAFYWVogAAAAAABM CVYAUAAAAFcf521lYXMAAAAAAAAAAQAAAAAAAAAAAAAAAAAAAAAAAAKPAAAAAnNpZyAAAAAAQ1JU IGN1cnYAAAAAAAAEAAAAAAUACgAPABQAGQAeACMAKAAtADIANwA7AEAARQBKAE8AVABZAF4AYwBo AG0AcgB3AHwAgQCGAIsAkACVAJoAnwCkAKkArgCyALcAvADBAMYAywDQANUA2wDgAOUA6wDwAPYA +wEBAQcBDQETARkBHwElASsBMgE4AT4BRQFMAVIBWQFgAWcBbgF1AXwBgwGLAZIBmgGhAakBsQG5 AcEByQHRAdkB4QHpAfIB+gIDAgwCFAIdAiYCLwI4AkECSwJUAl0CZwJxAnoChAKOApgCogKsArYC wQLLAtUC4ALrAvUDAAMLAxYDIQMtAzgDQwNPA1oDZgNyA34DigOWA6IDrgO6A8cD0wPgA+wD+QQG BBMEIAQtBDsESARVBGMEcQR+BIwEmgSoBLYExATTBOEE8AT+BQ0FHAUrBToFSQVYBWcFdwWGBZYF pgW1BcUF1QXlBfYGBgYWBicGNwZIBlkGagZ7BowGnQavBsAG0QbjBvUHBwcZBysHPQdPB2EHdAeG B5kHrAe/B9IH5Qf4CAsIHwgyCEYIWghuCIIIlgiqCL4I0gjnCPsJEAklCToJTwlkCXkJjwmkCboJ zwnlCfsKEQonCj0KVApqCoEKmAquCsUK3ArzCwsLIgs5C1ELaQuAC5gLsAvIC+EL+QwSDCoMQwxc DHUMjgynDMAM2QzzDQ0NJg1ADVoNdA2ODakNww3eDfgOEw4uDkkOZA5/DpsOtg7SDu4PCQ8lD0EP Xg96D5YPsw/PD+wQCRAmEEMQYRB+EJsQuRDXEPURExExEU8RbRGMEaoRyRHoEgcSJhJFEmQShBKj EsMS4xMDEyMTQxNjE4MTpBPFE+UUBhQnFEkUahSLFK0UzhTwFRIVNBVWFXgVmxW9FeAWAxYmFkkW bBaPFrIW1hb6Fx0XQRdlF4kXrhfSF/cYGxhAGGUYihivGNUY+hkgGUUZaxmRGbcZ3RoEGioaURp3 Gp4axRrsGxQbOxtjG4obshvaHAIcKhxSHHscoxzMHPUdHh1HHXAdmR3DHeweFh5AHmoelB6+Hukf Ex8+H2kflB+/H+ogFSBBIGwgmCDEIPAhHCFIIXUhoSHOIfsiJyJVIoIiryLdIwojOCNmI5QjwiPw JB8kTSR8JKsk2iUJJTglaCWXJccl9yYnJlcmhya3JugnGCdJJ3onqyfcKA0oPyhxKKIo1CkGKTgp aymdKdAqAio1KmgqmyrPKwIrNitpK50r0SwFLDksbiyiLNctDC1BLXYtqy3hLhYuTC6CLrcu7i8k L1ovkS/HL/4wNTBsMKQw2zESMUoxgjG6MfIyKjJjMpsy1DMNM0YzfzO4M/E0KzRlNJ402DUTNU01 hzXCNf02NzZyNq426TckN2A3nDfXOBQ4UDiMOMg5BTlCOX85vDn5OjY6dDqyOu87LTtrO6o76Dwn PGU8pDzjPSI9YT2hPeA+ID5gPqA+4D8hP2E/oj/iQCNAZECmQOdBKUFqQaxB7kIwQnJCtUL3QzpD fUPARANER0SKRM5FEkVVRZpF3kYiRmdGq0bwRzVHe0fASAVIS0iRSNdJHUljSalJ8Eo3Sn1KxEsM S1NLmkviTCpMcky6TQJNSk2TTdxOJU5uTrdPAE9JT5NP3VAnUHFQu1EGUVBRm1HmUjFSfFLHUxNT X1OqU/ZUQlSPVNtVKFV1VcJWD1ZcVqlW91dEV5JX4FgvWH1Yy1kaWWlZuFoHWlZaplr1W0VblVvl XDVchlzWXSddeF3JXhpebF69Xw9fYV+zYAVgV2CqYPxhT2GiYfViSWKcYvBjQ2OXY+tkQGSUZOll PWWSZedmPWaSZuhnPWeTZ+loP2iWaOxpQ2maafFqSGqfavdrT2una/9sV2yvbQhtYG25bhJua27E bx5veG/RcCtwhnDgcTpxlXHwcktypnMBc11zuHQUdHB0zHUodYV14XY+dpt2+HdWd7N4EXhueMx5 KnmJeed6RnqlewR7Y3vCfCF8gXzhfUF9oX4BfmJ+wn8jf4R/5YBHgKiBCoFrgc2CMIKSgvSDV4O6 hB2EgITjhUeFq4YOhnKG14c7h5+IBIhpiM6JM4mZif6KZIrKizCLlov8jGOMyo0xjZiN/45mjs6P No+ekAaQbpDWkT+RqJIRknqS45NNk7aUIJSKlPSVX5XJljSWn5cKl3WX4JhMmLiZJJmQmfyaaJrV m0Kbr5wcnImc951kndKeQJ6unx2fi5/6oGmg2KFHobaiJqKWowajdqPmpFakx6U4pammGqaLpv2n bqfgqFKoxKk3qamqHKqPqwKrdavprFys0K1ErbiuLa6hrxavi7AAsHWw6rFgsdayS7LCszizrrQl tJy1E7WKtgG2ebbwt2i34LhZuNG5SrnCuju6tbsuu6e8IbybvRW9j74KvoS+/796v/XAcMDswWfB 48JfwtvDWMPUxFHEzsVLxcjGRsbDx0HHv8g9yLzJOsm5yjjKt8s2y7bMNcy1zTXNtc42zrbPN8+4 0DnQutE80b7SP9LB00TTxtRJ1MvVTtXR1lXW2Ndc1+DYZNjo2WzZ8dp22vvbgNwF3IrdEN2W3hze ot8p36/gNuC94UThzOJT4tvjY+Pr5HPk/OWE5g3mlucf56noMui86Ubp0Opb6uXrcOv77IbtEe2c 7ijutO9A78zwWPDl8XLx//KM8xnzp/Q09ML1UPXe9m32+/eK+Bn4qPk4+cf6V/rn+3f8B/yY/Sn9 uv5L/tz/bf//" rendering-intent="relative-colorimetric" name="p1"/>
<style type="text/css">

clipPath{shape-rendering:crispEdges}
image{shape-rendering:crispEdges}

    </style>
<clipPath id="id2">
      <rect width="595" height="842" y="0" x="0"/>
</clipPath>
</defs>
<defs/>
<g>
<g transform="scale(1 -1)">
<g transform="matrix(0 -1 1 0 0 0)" clip-path="url(#id2)" id="main">
<path stroke-width="1" d="M585.96 14.511L583.92 14.511M585.96 14.511L585.96 16.551M9.6 14.511L11.64 14.511M9.6 14.511L9.6 16.551M585.96 826.191L583.92 826.191M585.96 826.191L585.96 824.151M9.6 826.191L11.64 826.191M9.6 826.191L9.6 824.151" stroke-miterlimit="10" stroke="#000000 icc-color(p1,0,0,0)" stroke-linejoin="round" fill="none" stroke-linecap="round"/>
<path d="M10.38 15.291h566.58v801.9h-566.58Z" fill-rule="nonzero" stroke="none" fill="#ffffff icc-color(p1,1,1,1)"/>
<path stroke-width="1" d="M576.96 817.191h-566.64v-801.96h566.64Z" stroke-miterlimit="10" stroke="#000000 icc-color(p1,0,0,0)" stroke-linejoin="round" fill="none" stroke-linecap="round"/>
<a onclick="selectEntity('SIGNIFICANT_POINT_IN_AS');" onmousemove="(window.status ='SIGNIFICANT_POINT_IN_AS')">
<path id="SIGNIFICANT_POINT_IN_AS" stroke-width="1" d="M190.74 329.391C186.96 329.391 183.9 326.271 183.9 322.491L183.9 168.891C183.9 165.111 186.96 162.051 190.74 162.051L231.12 162.051C234.9 162.051 238.02 165.111 238.02 168.891L238.02 322.491C238.02 326.271 234.9 329.391 231.12 329.391Z" fill-rule="evenodd" stroke-miterlimit="10" stroke="#000000 icc-color(p1,0,0,0)" stroke-linejoin="round" fill="#ffffff icc-color(p1,1,1,1)" stroke-linecap="round"/>
<text transform="matrix(0 1 1 0 0 0)">
<tspan font-family="ArialMT,sans-serif" font-size="10.9781" letter-spacing="0" fill-rule="nonzero" stroke="none" y="200.58" fill="#000000 icc-color(p1,0,0,0)" x="168.89">SIGNIFICANT_POINT_IN_AS</tspan>
<tspan font-family="ArialMT,sans-serif" font-size="8.2336" letter-spacing="0" fill-rule="nonzero" stroke="none" y="210.48" fill="#000000 icc-color(p1,0,0,0)" x="168.89">o  CODE_TYPE</tspan>
<tspan font-family="ArialMT,sans-serif" font-size="8.2336" letter-spacing="0" fill-rule="nonzero" stroke="none" y="219.42" fill="#000000 icc-color(p1,0,0,0)" x="168.89">o  TXT_RMK</tspan>
</text>
</a>
<a onclick="selectEntity('SIGNIFICANT_POINT');" onmousemove="(window.status ='SIGNIFICANT_POINT')">
<path id="SIGNIFICANT_POINT" stroke-width="1" d="M360.18 318.411C356.4 318.411 353.34 315.291 353.34 311.511L353.34 183.291C353.34 179.511 356.4 176.451 360.18 176.451L394.44 176.451C398.22 176.451 401.34 179.511 401.34 183.291L401.34 311.511C401.34 315.291 398.22 318.411 394.44 318.411Z" fill-rule="evenodd" stroke-miterlimit="10" stroke="#000000 icc-color(p1,0,0,0)" stroke-linejoin="round" fill="#ffffff icc-color(p1,1,1,1)" stroke-linecap="round"/>
<text transform="matrix(0 1 1 0 0 0)">
<tspan font-family="ArialMT,sans-serif" font-size="10.9781" letter-spacing="0" fill-rule="nonzero" stroke="none" y="370.08" fill="#000000 icc-color(p1,0,0,0)" x="183.29">SIGNIFICANT_POINT</tspan>
</text>
</a>
<a onclick="selectEntity('AIRSPACE');" onmousemove="(window.status ='AIRSPACE')">
<path id="AIRSPACE" stroke-width="1" d="M191.4 669.711C187.62 669.711 184.56 666.591 184.56 662.81L184.56 529.791C184.56 526.01 187.62 522.951 191.4 522.951L448.62 522.951C452.4 522.951 455.52 526.01 455.52 529.791L455.52 662.81C455.52 666.591 452.4 669.711 448.62 669.711Z" fill-rule="evenodd" stroke-miterlimit="10" stroke="#000000 icc-color(p1,0,0,0)" stroke-linejoin="round" fill="#ffffff icc-color(p1,1,1,1)" stroke-linecap="round"/>
<text transform="matrix(0 1 1 0 0 0)">
<tspan font-family="ArialMT,sans-serif" font-size="10.9781" letter-spacing="0" fill-rule="nonzero" stroke="none" y="201.3" fill="#000000 icc-color(p1,0,0,0)" x="529.791">AIRSPACE</tspan>
<tspan font-family="ArialMT,sans-serif" font-size="8.2336" letter-spacing="0" fill-rule="nonzero" stroke="none" y="211.14" fill="#000000 icc-color(p1,0,0,0)" x="529.791">*  CODE_TYPE</tspan>
<tspan font-family="ArialMT,sans-serif" font-size="8.2336" letter-spacing="0" fill-rule="nonzero" stroke="none" y="220.08" fill="#000000 icc-color(p1,0,0,0)" x="529.791">*  CODE_ID</tspan>
<tspan font-family="ArialMT,sans-serif" font-size="8.2336" letter-spacing="0" fill-rule="nonzero" stroke="none" y="229.02" fill="#000000 icc-color(p1,0,0,0)" x="529.791">o  TXT_LOCAL_TYPE</tspan>
<tspan font-family="ArialMT,sans-serif" font-size="8.2336" letter-spacing="0" fill-rule="nonzero" stroke="none" y="237.9" fill="#000000 icc-color(p1,0,0,0)" x="529.791">o  TXT_NAME</tspan>
<tspan font-family="ArialMT,sans-serif" font-size="8.2336" letter-spacing="0" fill-rule="nonzero" stroke="none" y="246.84" fill="#000000 icc-color(p1,0,0,0)" x="529.791">o  CODE_CLASS</tspan>
<tspan font-family="ArialMT,sans-serif" font-size="8.2336" letter-spacing="0" fill-rule="nonzero" stroke="none" y="255.78" fill="#000000 icc-color(p1,0,0,0)" x="529.791">o  CODE_LOC_IND</tspan>
<tspan font-family="ArialMT,sans-serif" font-size="8.2336" letter-spacing="0" fill-rule="nonzero" stroke="none" y="264.66" fill="#000000 icc-color(p1,0,0,0)" x="529.791">o  CODE_ACTIVITY</tspan>
<tspan font-family="ArialMT,sans-serif" font-size="8.2336" letter-spacing="0" fill-rule="nonzero" stroke="none" y="273.6" fill="#000000 icc-color(p1,0,0,0)" x="529.791">o  CODE_MIL</tspan>
<tspan font-family="ArialMT,sans-serif" font-size="8.2336" letter-spacing="0" fill-rule="nonzero" stroke="none" y="282.54" fill="#000000 icc-color(p1,0,0,0)" x="529.791">o  CODE_DIST_VER_UPPER</tspan>
<tspan font-family="ArialMT,sans-serif" font-size="8.2336" letter-spacing="0" fill-rule="nonzero" stroke="none" y="291.42" fill="#000000 icc-color(p1,0,0,0)" x="529.791">o  VAL_DIST_VER_UPPER</tspan>
<tspan font-family="ArialMT,sans-serif" font-size="8.2336" letter-spacing="0" fill-rule="nonzero" stroke="none" y="300.36" fill="#000000 icc-color(p1,0,0,0)" x="529.791">o  UOM_DIST_VER_UPPER</tspan>
<tspan font-family="ArialMT,sans-serif" font-size="8.2336" letter-spacing="0" fill-rule="nonzero" stroke="none" y="309.3" fill="#000000 icc-color(p1,0,0,0)" x="529.791">o  CODE_DIST_VER_LOWER</tspan>
<tspan font-family="ArialMT,sans-serif" font-size="8.2336" letter-spacing="0" fill-rule="nonzero" stroke="none" y="318.18" fill="#000000 icc-color(p1,0,0,0)" x="529.791">o  VAL_DIST_VER_LOWER</tspan>
<tspan font-family="ArialMT,sans-serif" font-size="8.2336" letter-spacing="0" fill-rule="nonzero" stroke="none" y="327.12" fill="#000000 icc-color(p1,0,0,0)" x="529.791">o  UOM_DIST_VER_LOWER</tspan>
<tspan font-family="ArialMT,sans-serif" font-size="8.2336" letter-spacing="0" fill-rule="nonzero" stroke="none" y="336.06" fill="#000000 icc-color(p1,0,0,0)" x="529.791">o  CODE_DIST_VER_MAX</tspan>
<tspan font-family="ArialMT,sans-serif" font-size="8.2336" letter-spacing="0" fill-rule="nonzero" stroke="none" y="344.94" fill="#000000 icc-color(p1,0,0,0)" x="529.791">o  VAL_DIST_VER_MAX</tspan>
<tspan font-family="ArialMT,sans-serif" font-size="8.2336" letter-spacing="0" fill-rule="nonzero" stroke="none" y="353.88" fill="#000000 icc-color(p1,0,0,0)" x="529.791">o  UOM_DIST_VER_MAX</tspan>
<tspan font-family="ArialMT,sans-serif" font-size="8.2336" letter-spacing="0" fill-rule="nonzero" stroke="none" y="362.82" fill="#000000 icc-color(p1,0,0,0)" x="529.791">o  CODE_DIST_VER_MNM</tspan>
<tspan font-family="ArialMT,sans-serif" font-size="8.2336" letter-spacing="0" fill-rule="nonzero" stroke="none" y="371.7" fill="#000000 icc-color(p1,0,0,0)" x="529.791">o  VAL_DIST_VER_MNM</tspan>
<tspan font-family="ArialMT,sans-serif" font-size="8.2336" letter-spacing="0" fill-rule="nonzero" stroke="none" y="380.64" fill="#000000 icc-color(p1,0,0,0)" x="529.791">o  UOM_DIST_VER_MNM</tspan>
<tspan font-family="ArialMT,sans-serif" font-size="8.2336" letter-spacing="0" fill-rule="nonzero" stroke="none" y="389.58" fill="#000000 icc-color(p1,0,0,0)" x="529.791">o  VAL_LOWER_LIMIT</tspan>
<tspan font-family="ArialMT,sans-serif" font-size="8.2336" letter-spacing="0" fill-rule="nonzero" stroke="none" y="398.46" fill="#000000 icc-color(p1,0,0,0)" x="529.791">o  TXT_RMK</tspan>
</text>
</a>
<path stroke-width="1" d="M238.08 247.131L295.74 247.131M299.82 247.131L312.18 247.131M316.32 247.131L328.68 247.131M332.76 247.131L345.12 247.131M349.26 247.131L353.34 247.131M248.4 247.131L238.08 243.711M248.4 247.131L238.08 250.551M248.4 247.131L238.08 247.131" stroke-miterlimit="10" stroke="#000000 icc-color(p1,0,0,0)" stroke-linejoin="round" fill="none" stroke-linecap="round"/>
<text transform="matrix(0 1 1 0 0 0)">
<tspan font-family="ArialMT,sans-serif" font-size="10.9781" letter-spacing="0" fill-rule="nonzero" stroke="none" y="254.76" fill="#000000 icc-color(p1,0,0,0)" x="250.55">also</tspan>
<tspan font-family="ArialMT,sans-serif" font-size="10.9781" letter-spacing="0" fill-rule="nonzero" stroke="none" y="341.939" fill="#000000 icc-color(p1,0,0,0)" x="214.191">also</tspan>
</text>
<path stroke-width="1" d="M223.68 329.451L223.68 426.171M223.68 430.311L223.68 442.671M223.68 446.751L223.68 459.111M223.68 463.251L223.68 475.611M223.68 479.691L223.68 492.051M223.68 496.19L223.68 508.551M223.68 512.63L223.68 522.951M223.68 339.711L220.26 329.451M223.68 339.711L227.1 329.451M223.68 339.711L223.68 329.451" stroke-miterlimit="10" stroke="#000000 icc-color(p1,0,0,0)" stroke-linejoin="round" fill="none" stroke-linecap="round"/>
<text transform="matrix(0 1 1 0 0 0)">
<tspan font-family="ArialMT,sans-serif" font-size="10.9781" letter-spacing="0" fill-rule="nonzero" stroke="none" y="215.7" fill="#000000 icc-color(p1,0,0,0)" x="336.29">situated within</tspan>
<tspan font-family="ArialMT,sans-serif" font-size="10.9781" letter-spacing="0" fill-rule="nonzero" stroke="none" y="236.94" fill="#000000 icc-color(p1,0,0,0)" x="474.89">having</tspan>
</text>
</g>
</g>
</g>
</svg>
