<?xml version="1.0" encoding="utf-8"?>
<svg onload="initSVG();" xml:space="preserve" width="842" height="595" viewBox="0 0 842 595" color-interpolation-filters="sRGB" id="root" xmlns:xlink="http://www.w3.org/1999/xlink">
 Converted with TEXTCAFE (tm) http://www.texterity.com 
  <title>061_ADDRESS (AICM-4-5) -- Page 1</title>
<defs>
    <color-profile xlink:href="data:application/icc;base64, AAAMSExpbm8CEAAAbW50clJHQiBYWVogB84AAgAJAAYAMQAAYWNzcE1TRlQAAAAASUVDIHNSR0IA AAAAAAAAAAAAAAAAAPbWAAEAAAAA0y1IUCAgAAAAAAAAAAAAAAAAAAAAAAAAAAAAAAAAAAAAAAAA AAAAAAAAAAAAAAAAAAAAAAARY3BydAAAAVAAAAAzZGVzYwAAAYQAAABsd3RwdAAAAfAAAAAUYmtw dAAAAgQAAAAUclhZWgAAAhgAAAAUZ1hZWgAAAiwAAAAUYlhZWgAAAkAAAAAUZG1uZAAAAlQAAABw ZG1kZAAAAsQAAACIdnVlZAAAA0wAAACGdmlldwAAA9QAAAAkbHVtaQAAA/gAAAAUbWVhcwAABAwA AAAkdGVjaAAABDAAAAAMclRSQwAABDwAAAgMZ1RSQwAABDwAAAgMYlRSQwAABDwAAAgMdGV4dAAA AABDb3B5cmlnaHQgKGMpIDE5OTggSGV3bGV0dC1QYWNrYXJkIENvbXBhbnkAAGRlc2MAAAAAAAAA EnNSR0IgSUVDNjE5NjYtMi4xAAAAAAAAAAAAAAASc1JHQiBJRUM2MTk2Ni0yLjEAAAAAAAAAAAAA AAAAAAAAAAAAAAAAAAAAAAAAAAAAAAAAAAAAAAAAAAAAAAAAAAAAAFhZWiAAAAAAAADzUQABAAAA ARbMWFlaIAAAAAAAAAAAAAAAAAAAAABYWVogAAAAAAAAb6IAADj1AAADkFhZWiAAAAAAAABimQAA t4UAABjaWFlaIAAAAAAAACSgAAAPhAAAts9kZXNjAAAAAAAAABZJRUMgaHR0cDovL3d3dy5pZWMu Y2gAAAAAAAAAAAAAABZJRUMgaHR0cDovL3d3dy5pZWMuY2gAAAAAAAAAAAAAAAAAAAAAAAAAAAAA AAAAAAAAAAAAAAAAAAAAAAAAAAAAAAAAZGVzYwAAAAAAAAAuSUVDIDYxOTY2LTIuMSBEZWZhdWx0 IFJHQiBjb2xvdXIgc3BhY2UgLSBzUkdCAAAAAAAAAAAAAAAuSUVDIDYxOTY2LTIuMSBEZWZhdWx0 IFJHQiBjb2xvdXIgc3BhY2UgLSBzUkdCAAAAAAAAAAAAAAAAAAAAAAAAAAAAAGRlc2MAAAAAAAAA LFJlZmVyZW5jZSBWaWV3aW5nIENvbmRpdGlvbiBpbiBJRUM2MTk2Ni0yLjEAAAAAAAAAAAAAACxS ZWZlcmVuY2UgVmlld2luZyBDb25kaXRpb24gaW4gSUVDNjE5NjYtMi4xAAAAAAAAAAAAAAAAAAAA AAAAAAAAAAAAAAB2aWV3AAAAAAATpP4AFF8uABDPFAAD7cwABBMLAANcngAAAAFYWVogAAAAAABM CVYAUAAAAFcf521lYXMAAAAAAAAAAQAAAAAAAAAAAAAAAAAAAAAAAAKPAAAAAnNpZyAAAAAAQ1JU IGN1cnYAAAAAAAAEAAAAAAUACgAPABQAGQAeACMAKAAtADIANwA7AEAARQBKAE8AVABZAF4AYwBo AG0AcgB3AHwAgQCGAIsAkACVAJoAnwCkAKkArgCyALcAvADBAMYAywDQANUA2wDgAOUA6wDwAPYA +wEBAQcBDQETARkBHwElASsBMgE4AT4BRQFMAVIBWQFgAWcBbgF1AXwBgwGLAZIBmgGhAakBsQG5 AcEByQHRAdkB4QHpAfIB+gIDAgwCFAIdAiYCLwI4AkECSwJUAl0CZwJxAnoChAKOApgCogKsArYC wQLLAtUC4ALrAvUDAAMLAxYDIQMtAzgDQwNPA1oDZgNyA34DigOWA6IDrgO6A8cD0wPgA+wD+QQG BBMEIAQtBDsESARVBGMEcQR+BIwEmgSoBLYExATTBOEE8AT+BQ0FHAUrBToFSQVYBWcFdwWGBZYF pgW1BcUF1QXlBfYGBgYWBicGNwZIBlkGagZ7BowGnQavBsAG0QbjBvUHBwcZBysHPQdPB2EHdAeG B5kHrAe/B9IH5Qf4CAsIHwgyCEYIWghuCIIIlgiqCL4I0gjnCPsJEAklCToJTwlkCXkJjwmkCboJ zwnlCfsKEQonCj0KVApqCoEKmAquCsUK3ArzCwsLIgs5C1ELaQuAC5gLsAvIC+EL+QwSDCoMQwxc DHUMjgynDMAM2QzzDQ0NJg1ADVoNdA2ODakNww3eDfgOEw4uDkkOZA5/DpsOtg7SDu4PCQ8lD0EP Xg96D5YPsw/PD+wQCRAmEEMQYRB+EJsQuRDXEPURExExEU8RbRGMEaoRyRHoEgcSJhJFEmQShBKj EsMS4xMDEyMTQxNjE4MTpBPFE+UUBhQnFEkUahSLFK0UzhTwFRIVNBVWFXgVmxW9FeAWAxYmFkkW bBaPFrIW1hb6Fx0XQRdlF4kXrhfSF/cYGxhAGGUYihivGNUY+hkgGUUZaxmRGbcZ3RoEGioaURp3 Gp4axRrsGxQbOxtjG4obshvaHAIcKhxSHHscoxzMHPUdHh1HHXAdmR3DHeweFh5AHmoelB6+Hukf Ex8+H2kflB+/H+ogFSBBIGwgmCDEIPAhHCFIIXUhoSHOIfsiJyJVIoIiryLdIwojOCNmI5QjwiPw JB8kTSR8JKsk2iUJJTglaCWXJccl9yYnJlcmhya3JugnGCdJJ3onqyfcKA0oPyhxKKIo1CkGKTgp aymdKdAqAio1KmgqmyrPKwIrNitpK50r0SwFLDksbiyiLNctDC1BLXYtqy3hLhYuTC6CLrcu7i8k L1ovkS/HL/4wNTBsMKQw2zESMUoxgjG6MfIyKjJjMpsy1DMNM0YzfzO4M/E0KzRlNJ402DUTNU01 hzXCNf02NzZyNq426TckN2A3nDfXOBQ4UDiMOMg5BTlCOX85vDn5OjY6dDqyOu87LTtrO6o76Dwn PGU8pDzjPSI9YT2hPeA+ID5gPqA+4D8hP2E/oj/iQCNAZECmQOdBKUFqQaxB7kIwQnJCtUL3QzpD fUPARANER0SKRM5FEkVVRZpF3kYiRmdGq0bwRzVHe0fASAVIS0iRSNdJHUljSalJ8Eo3Sn1KxEsM S1NLmkviTCpMcky6TQJNSk2TTdxOJU5uTrdPAE9JT5NP3VAnUHFQu1EGUVBRm1HmUjFSfFLHUxNT X1OqU/ZUQlSPVNtVKFV1VcJWD1ZcVqlW91dEV5JX4FgvWH1Yy1kaWWlZuFoHWlZaplr1W0VblVvl XDVchlzWXSddeF3JXhpebF69Xw9fYV+zYAVgV2CqYPxhT2GiYfViSWKcYvBjQ2OXY+tkQGSUZOll PWWSZedmPWaSZuhnPWeTZ+loP2iWaOxpQ2maafFqSGqfavdrT2una/9sV2yvbQhtYG25bhJua27E bx5veG/RcCtwhnDgcTpxlXHwcktypnMBc11zuHQUdHB0zHUodYV14XY+dpt2+HdWd7N4EXhueMx5 KnmJeed6RnqlewR7Y3vCfCF8gXzhfUF9oX4BfmJ+wn8jf4R/5YBHgKiBCoFrgc2CMIKSgvSDV4O6 hB2EgITjhUeFq4YOhnKG14c7h5+IBIhpiM6JM4mZif6KZIrKizCLlov8jGOMyo0xjZiN/45mjs6P No+ekAaQbpDWkT+RqJIRknqS45NNk7aUIJSKlPSVX5XJljSWn5cKl3WX4JhMmLiZJJmQmfyaaJrV m0Kbr5wcnImc951kndKeQJ6unx2fi5/6oGmg2KFHobaiJqKWowajdqPmpFakx6U4pammGqaLpv2n bqfgqFKoxKk3qamqHKqPqwKrdavprFys0K1ErbiuLa6hrxavi7AAsHWw6rFgsdayS7LCszizrrQl tJy1E7WKtgG2ebbwt2i34LhZuNG5SrnCuju6tbsuu6e8IbybvRW9j74KvoS+/796v/XAcMDswWfB 48JfwtvDWMPUxFHEzsVLxcjGRsbDx0HHv8g9yLzJOsm5yjjKt8s2y7bMNcy1zTXNtc42zrbPN8+4 0DnQutE80b7SP9LB00TTxtRJ1MvVTtXR1lXW2Ndc1+DYZNjo2WzZ8dp22vvbgNwF3IrdEN2W3hze ot8p36/gNuC94UThzOJT4tvjY+Pr5HPk/OWE5g3mlucf56noMui86Ubp0Opb6uXrcOv77IbtEe2c 7ijutO9A78zwWPDl8XLx//KM8xnzp/Q09ML1UPXe9m32+/eK+Bn4qPk4+cf6V/rn+3f8B/yY/Sn9 uv5L/tz/bf//" rendering-intent="relative-colorimetric" name="p1"/>
<style type="text/css">

clipPath{shape-rendering:crispEdges}
image{shape-rendering:crispEdges}

    </style>
<clipPath id="id2">
      <rect width="595" height="842" y="0" x="0"/>
</clipPath>
<clipPath id="id3">
      <path clip-rule="nonzero" d="M151.62 533.211h9.24v102.9h-9.24Z"/>
</clipPath>
</defs>
<defs/>
<g>
<g transform="scale(1 -1)">
<g transform="matrix(0 -1 1 0 0 0)" clip-path="url(#id2)" id="main">
<path stroke-width="1" d="M585.96 14.511L583.92 14.511M585.96 14.511L585.96 16.611M9.6 14.511L11.64 14.511M9.6 14.511L9.6 16.611M585.96 826.191L583.92 826.191M585.96 826.191L585.96 824.151M9.6 826.191L11.64 826.191M9.6 826.191L9.6 824.151" stroke-miterlimit="10" stroke="#000000 icc-color(p1,0,0,0)" stroke-linejoin="round" fill="none" stroke-linecap="round"/>
<path d="M10.38 15.291h566.58v801.9h-566.58Z" fill-rule="nonzero" stroke="none" fill="#ffffff icc-color(p1,1,1,1)"/>
<path stroke-width="1" d="M576.96 817.191h-566.64v-801.96h566.64Z" stroke-miterlimit="10" stroke="#000000 icc-color(p1,0,0,0)" stroke-linejoin="round" fill="none" stroke-linecap="round"/>
<a onclick="selectEntity('UNIT');" onmousemove="(window.status ='UNIT')">
<path id="UNIT" stroke-width="1" d="M222.96 752.031C219.18 752.031 216.12 748.911 216.12 745.13L216.12 658.07C216.12 654.291 219.18 651.231 222.96 651.231L329.22 651.231C333 651.231 336.12 654.291 336.12 658.07L336.12 745.13C336.12 748.911 333 752.031 329.22 752.031Z" fill-rule="evenodd" stroke-miterlimit="10" stroke="#000000 icc-color(p1,0,0,0)" stroke-linejoin="round" fill="#ffffff icc-color(p1,1,1,1)" stroke-linecap="round"/>
<text transform="matrix(0 1 1 0 0 0)">
<tspan font-family="ArialMT,sans-serif" font-size="10.9781" letter-spacing="0" fill-rule="nonzero" stroke="none" y="232.86" fill="#000000 icc-color(p1,0,0,0)" x="658.071">UNIT</tspan>
<tspan font-family="ArialMT,sans-serif" font-size="8.2336" letter-spacing="0" fill-rule="nonzero" stroke="none" y="242.7" fill="#000000 icc-color(p1,0,0,0)" x="658.071">*  TXT_NAME</tspan>
<tspan font-family="ArialMT,sans-serif" font-size="8.2336" letter-spacing="0" fill-rule="nonzero" stroke="none" y="251.64" fill="#000000 icc-color(p1,0,0,0)" x="658.071">*  CODE_TYPE</tspan>
<tspan font-family="ArialMT,sans-serif" font-size="8.2336" letter-spacing="0" fill-rule="nonzero" stroke="none" y="260.58" fill="#000000 icc-color(p1,0,0,0)" x="658.071">*  CODE_CLASS</tspan>
<tspan font-family="ArialMT,sans-serif" font-size="8.2336" letter-spacing="0" fill-rule="nonzero" stroke="none" y="269.46" fill="#000000 icc-color(p1,0,0,0)" x="658.071">o  CODE_ID</tspan>
<tspan font-family="ArialMT,sans-serif" font-size="8.2336" letter-spacing="0" fill-rule="nonzero" stroke="none" y="278.4" fill="#000000 icc-color(p1,0,0,0)" x="658.071">o  GEO_LAT</tspan>
<tspan font-family="ArialMT,sans-serif" font-size="8.2336" letter-spacing="0" fill-rule="nonzero" stroke="none" y="287.34" fill="#000000 icc-color(p1,0,0,0)" x="658.071">o  GEO_LONG</tspan>
<tspan font-family="ArialMT,sans-serif" font-size="8.2336" letter-spacing="0" fill-rule="nonzero" stroke="none" y="296.22" fill="#000000 icc-color(p1,0,0,0)" x="658.071">o  CODE_DATUM</tspan>
<tspan font-family="ArialMT,sans-serif" font-size="8.2336" letter-spacing="0" fill-rule="nonzero" stroke="none" y="305.16" fill="#000000 icc-color(p1,0,0,0)" x="658.071">o  TXT_RMK</tspan>
</text>
</a>
<a onclick="selectEntity('ORG_AUTH');" onmousemove="(window.status ='ORG_AUTH')">
<path id="ORG_AUTH" stroke-width="1" d="M46.62 461.811C42.84 461.811 39.78 458.691 39.78 454.911L39.78 363.711C39.78 359.931 42.84 356.871 46.62 356.871L108.3 356.871C112.08 356.871 115.2 359.931 115.2 363.711L115.2 454.911C115.2 458.691 112.08 461.811 108.3 461.811Z" fill-rule="evenodd" stroke-miterlimit="10" stroke="#000000 icc-color(p1,0,0,0)" stroke-linejoin="round" fill="#ffffff icc-color(p1,1,1,1)" stroke-linecap="round"/>
<text transform="matrix(0 1 1 0 0 0)">
<tspan font-family="ArialMT,sans-serif" font-size="10.9781" letter-spacing="0" fill-rule="nonzero" stroke="none" y="56.52" fill="#000000 icc-color(p1,0,0,0)" x="363.77">ORG_AUTH</tspan>
<tspan font-family="ArialMT,sans-serif" font-size="8.2336" letter-spacing="0" fill-rule="nonzero" stroke="none" y="66.42" fill="#000000 icc-color(p1,0,0,0)" x="363.77">*  TXT_NAME</tspan>
<tspan font-family="ArialMT,sans-serif" font-size="8.2336" letter-spacing="0" fill-rule="nonzero" stroke="none" y="75.2999" fill="#000000 icc-color(p1,0,0,0)" x="363.77">o  CODE_ID</tspan>
<tspan font-family="ArialMT,sans-serif" font-size="8.2336" letter-spacing="0" fill-rule="nonzero" stroke="none" y="84.24" fill="#000000 icc-color(p1,0,0,0)" x="363.77">*  CODE_TYPE</tspan>
<tspan font-family="ArialMT,sans-serif" font-size="8.2336" letter-spacing="0" fill-rule="nonzero" stroke="none" y="93.1199" fill="#000000 icc-color(p1,0,0,0)" x="363.77">o  TXT_RMK</tspan>
</text>
</a>
<a onclick="selectEntity('AIRSPACE');" onmousemove="(window.status ='AIRSPACE')">
<path id="AIRSPACE" stroke-width="1" d="M310.14 511.19C306.36 511.19 303.3 508.07 303.3 504.29L303.3 385.671C303.3 381.891 306.36 378.831 310.14 378.831L561.84 378.831C565.62 378.831 568.74 381.891 568.74 385.671L568.74 504.29C568.74 508.07 565.62 511.19 561.84 511.19Z" fill-rule="evenodd" stroke-miterlimit="10" stroke="#000000 icc-color(p1,0,0,0)" stroke-linejoin="round" fill="#ffffff icc-color(p1,1,1,1)" stroke-linecap="round"/>
<text transform="matrix(0 1 1 0 0 0)">
<tspan font-family="ArialMT,sans-serif" font-size="10.9781" letter-spacing="0" fill-rule="nonzero" stroke="none" y="319.98" fill="#000000 icc-color(p1,0,0,0)" x="385.73">AIRSPACE</tspan>
<tspan font-family="ArialMT,sans-serif" font-size="8.2336" letter-spacing="0" fill-rule="nonzero" stroke="none" y="329.88" fill="#000000 icc-color(p1,0,0,0)" x="385.73">*  CODE_TYPE</tspan>
<tspan font-family="ArialMT,sans-serif" font-size="8.2336" letter-spacing="0" fill-rule="nonzero" stroke="none" y="338.76" fill="#000000 icc-color(p1,0,0,0)" x="385.73">*  CODE_ID</tspan>
<tspan font-family="ArialMT,sans-serif" font-size="8.2336" letter-spacing="0" fill-rule="nonzero" stroke="none" y="347.7" fill="#000000 icc-color(p1,0,0,0)" x="385.73">o  TXT_LOCAL_TYPE</tspan>
<tspan font-family="ArialMT,sans-serif" font-size="8.2336" letter-spacing="0" fill-rule="nonzero" stroke="none" y="356.64" fill="#000000 icc-color(p1,0,0,0)" x="385.73">o  TXT_NAME</tspan>
<tspan font-family="ArialMT,sans-serif" font-size="8.2336" letter-spacing="0" fill-rule="nonzero" stroke="none" y="365.52" fill="#000000 icc-color(p1,0,0,0)" x="385.73">o  CODE_CLASS</tspan>
<tspan font-family="ArialMT,sans-serif" font-size="8.2336" letter-spacing="0" fill-rule="nonzero" stroke="none" y="374.46" fill="#000000 icc-color(p1,0,0,0)" x="385.73">o  CODE_LOC_IND</tspan>
<tspan font-family="ArialMT,sans-serif" font-size="8.2336" letter-spacing="0" fill-rule="nonzero" stroke="none" y="383.4" fill="#000000 icc-color(p1,0,0,0)" x="385.73">o  CODE_ACTIVITY</tspan>
<tspan font-family="ArialMT,sans-serif" font-size="8.2336" letter-spacing="0" fill-rule="nonzero" stroke="none" y="392.28" fill="#000000 icc-color(p1,0,0,0)" x="385.73">o  CODE_MIL</tspan>
<tspan font-family="ArialMT,sans-serif" font-size="8.2336" letter-spacing="0" fill-rule="nonzero" stroke="none" y="401.22" fill="#000000 icc-color(p1,0,0,0)" x="385.73">o  CODE_DIST_VER_UPPER</tspan>
<tspan font-family="ArialMT,sans-serif" font-size="8.2336" letter-spacing="0" fill-rule="nonzero" stroke="none" y="410.16" fill="#000000 icc-color(p1,0,0,0)" x="385.73">o  VAL_DIST_VER_UPPER</tspan>
<tspan font-family="ArialMT,sans-serif" font-size="8.2336" letter-spacing="0" fill-rule="nonzero" stroke="none" y="419.04" fill="#000000 icc-color(p1,0,0,0)" x="385.73">o  UOM_DIST_VER_UPPER</tspan>
<tspan font-family="ArialMT,sans-serif" font-size="8.2336" letter-spacing="0" fill-rule="nonzero" stroke="none" y="427.98" fill="#000000 icc-color(p1,0,0,0)" x="385.73">o  CODE_DIST_VER_LOWER</tspan>
<tspan font-family="ArialMT,sans-serif" font-size="8.2336" letter-spacing="0" fill-rule="nonzero" stroke="none" y="436.92" fill="#000000 icc-color(p1,0,0,0)" x="385.73">o  VAL_DIST_VER_LOWER</tspan>
<tspan font-family="ArialMT,sans-serif" font-size="8.2336" letter-spacing="0" fill-rule="nonzero" stroke="none" y="445.8" fill="#000000 icc-color(p1,0,0,0)" x="385.73">o  UOM_DIST_VER_LOWER</tspan>
<tspan font-family="ArialMT,sans-serif" font-size="8.2336" letter-spacing="0" fill-rule="nonzero" stroke="none" y="454.74" fill="#000000 icc-color(p1,0,0,0)" x="385.73">o  CODE_DIST_VER_MAX</tspan>
<tspan font-family="ArialMT,sans-serif" font-size="8.2336" letter-spacing="0" fill-rule="nonzero" stroke="none" y="463.68" fill="#000000 icc-color(p1,0,0,0)" x="385.73">o  VAL_DIST_VER_MAX</tspan>
<tspan font-family="ArialMT,sans-serif" font-size="8.2336" letter-spacing="0" fill-rule="nonzero" stroke="none" y="472.56" fill="#000000 icc-color(p1,0,0,0)" x="385.73">o  UOM_DIST_VER_MAX</tspan>
<tspan font-family="ArialMT,sans-serif" font-size="8.2336" letter-spacing="0" fill-rule="nonzero" stroke="none" y="481.5" fill="#000000 icc-color(p1,0,0,0)" x="385.73">o  CODE_DIST_VER_MNM</tspan>
<tspan font-family="ArialMT,sans-serif" font-size="8.2336" letter-spacing="0" fill-rule="nonzero" stroke="none" y="490.44" fill="#000000 icc-color(p1,0,0,0)" x="385.73">o  VAL_DIST_VER_MNM</tspan>
<tspan font-family="ArialMT,sans-serif" font-size="8.2336" letter-spacing="0" fill-rule="nonzero" stroke="none" y="499.32" fill="#000000 icc-color(p1,0,0,0)" x="385.73">o  UOM_DIST_VER_MNM</tspan>
<tspan font-family="ArialMT,sans-serif" font-size="8.2336" letter-spacing="0" fill-rule="nonzero" stroke="none" y="508.26" fill="#000000 icc-color(p1,0,0,0)" x="385.73">o  VAL_LOWER_LIMIT</tspan>
<tspan font-family="ArialMT,sans-serif" font-size="8.2336" letter-spacing="0" fill-rule="nonzero" stroke="none" y="517.2" fill="#000000 icc-color(p1,0,0,0)" x="385.73">o  TXT_RMK</tspan>
</text>
</a>
<a onclick="selectEntity('AD_HP_GND_SER');" onmousemove="(window.status ='AD_HP_GND_SER')">
<path id="AD_HP_GND_SER" stroke-width="1" d="M121.44 636.11C117.66 636.11 114.6 632.99 114.6 629.211L114.6 533.211C114.6 529.43 117.66 526.37 121.44 526.37L209.88 526.37C213.66 526.37 216.78 529.43 216.78 533.211L216.78 629.211C216.78 632.99 213.66 636.11 209.88 636.11Z" fill-rule="evenodd" stroke-miterlimit="10" stroke="#000000 icc-color(p1,0,0,0)" stroke-linejoin="round" fill="#ffffff icc-color(p1,1,1,1)" stroke-linecap="round"/>
<text transform="matrix(0 1 1 0 0 0)">
<tspan font-family="ArialMT,sans-serif" font-size="10.9781" letter-spacing="0" fill-rule="nonzero" stroke="none" y="131.28" fill="#000000 icc-color(p1,0,0,0)" x="533.211">AD_HP_GND_SER</tspan>
<tspan font-family="ArialMT,sans-serif" font-size="8.2336" letter-spacing="0" fill-rule="nonzero" stroke="none" y="141.18" fill="#000000 icc-color(p1,0,0,0)" x="533.211">*  CODE_TYPE</tspan>
<tspan font-family="ArialMT,sans-serif" font-size="8.2336" letter-spacing="0" fill-rule="nonzero" stroke="none" y="150.12" fill="#000000 icc-color(p1,0,0,0)" x="533.211">o  CODE_CAT</tspan>
<tspan font-family="ArialMT,sans-serif" font-size="8.2336" letter-spacing="0" fill-rule="nonzero" stroke="none" y="159" fill="#000000 icc-color(p1,0,0,0)" x="533.211">o  CODE_CAT_REFEREN</tspan>
</text>
</a>
<g clip-path="url(#id3)">
<text transform="matrix(0 1 1 0 0 0)">
<tspan font-family="ArialMT,sans-serif" font-size="8.2336" letter-spacing="0" fill-rule="nonzero" stroke="none" y="159" fill="#000000 icc-color(p1,0,0,0)" x="631.121">C</tspan>
</text>
</g>
<text transform="matrix(0 1 1 0 0 0)">
<tspan font-family="ArialMT,sans-serif" font-size="8.2336" letter-spacing="0" fill-rule="nonzero" stroke="none" y="167.94" fill="#000000 icc-color(p1,0,0,0)" x="533.211">o  TXT_DESCR_FAC</tspan>
<tspan font-family="ArialMT,sans-serif" font-size="8.2336" letter-spacing="0" fill-rule="nonzero" stroke="none" y="176.88" fill="#000000 icc-color(p1,0,0,0)" x="533.211">o  TXT_RMK</tspan>
</text>
<a onclick="selectEntity('AD_HP');" onmousemove="(window.status ='AD_HP')">
<path id="AD_HP" stroke-width="1" d="M47.34 220.311C43.56 220.311 40.5 217.191 40.5 213.411L40.5 87.231C40.5 83.451 43.56 80.391 47.34 80.391L532.32 80.391C536.1 80.391 539.22 83.451 539.22 87.231L539.22 213.411C539.22 217.191 536.1 220.311 532.32 220.311Z" fill-rule="evenodd" stroke-miterlimit="10" stroke="#000000 icc-color(p1,0,0,0)" stroke-linejoin="round" fill="#ffffff icc-color(p1,1,1,1)" stroke-linecap="round"/>
<text transform="matrix(0 1 1 0 0 0)">
<tspan font-family="ArialMT,sans-serif" font-size="10.9781" letter-spacing="0" fill-rule="nonzero" stroke="none" y="57.18" fill="#000000 icc-color(p1,0,0,0)" x="87.2305">AD_HP</tspan>
<tspan font-family="ArialMT,sans-serif" font-size="8.2336" letter-spacing="0" fill-rule="nonzero" stroke="none" y="67.08" fill="#000000 icc-color(p1,0,0,0)" x="87.2305">*  CODE_ID</tspan>
<tspan font-family="ArialMT,sans-serif" font-size="8.2336" letter-spacing="0" fill-rule="nonzero" stroke="none" y="76.02" fill="#000000 icc-color(p1,0,0,0)" x="87.2305">*  TXT_NAME</tspan>
<tspan font-family="ArialMT,sans-serif" font-size="8.2336" letter-spacing="0" fill-rule="nonzero" stroke="none" y="84.9" fill="#000000 icc-color(p1,0,0,0)" x="87.2305">o  CODE_ICAO</tspan>
<tspan font-family="ArialMT,sans-serif" font-size="8.2336" letter-spacing="0" fill-rule="nonzero" stroke="none" y="93.84" fill="#000000 icc-color(p1,0,0,0)" x="87.2305">o  CODE_IATA</tspan>
<tspan font-family="ArialMT,sans-serif" font-size="8.2336" letter-spacing="0" fill-rule="nonzero" stroke="none" y="102.78" fill="#000000 icc-color(p1,0,0,0)" x="87.2305">*  CODE_TYPE</tspan>
<tspan font-family="ArialMT,sans-serif" font-size="8.2336" letter-spacing="0" fill-rule="nonzero" stroke="none" y="111.66" fill="#000000 icc-color(p1,0,0,0)" x="87.2305">o  [CODE_TYPE_MIL_OPS]</tspan>
<tspan font-family="ArialMT,sans-serif" font-size="8.2336" letter-spacing="0" fill-rule="nonzero" stroke="none" y="120.6" fill="#000000 icc-color(p1,0,0,0)" x="87.2305">o  [CODE_NATIONAL_TFC]</tspan>
<tspan font-family="ArialMT,sans-serif" font-size="8.2336" letter-spacing="0" fill-rule="nonzero" stroke="none" y="129.54" fill="#000000 icc-color(p1,0,0,0)" x="87.2305">o  [CODE_INTL_TFC]</tspan>
<tspan font-family="ArialMT,sans-serif" font-size="8.2336" letter-spacing="0" fill-rule="nonzero" stroke="none" y="138.42" fill="#000000 icc-color(p1,0,0,0)" x="87.2305">o  [CODE_SKED]</tspan>
<tspan font-family="ArialMT,sans-serif" font-size="8.2336" letter-spacing="0" fill-rule="nonzero" stroke="none" y="147.36" fill="#000000 icc-color(p1,0,0,0)" x="87.2305">o  [CODE_NON-SKED]</tspan>
<tspan font-family="ArialMT,sans-serif" font-size="8.2336" letter-spacing="0" fill-rule="nonzero" stroke="none" y="156.3" fill="#000000 icc-color(p1,0,0,0)" x="87.2305">o  [CODE_PRIV]</tspan>
<tspan font-family="ArialMT,sans-serif" font-size="8.2336" letter-spacing="0" fill-rule="nonzero" stroke="none" y="165.18" fill="#000000 icc-color(p1,0,0,0)" x="87.2305">o  [CODE_VFR]</tspan>
<tspan font-family="ArialMT,sans-serif" font-size="8.2336" letter-spacing="0" fill-rule="nonzero" stroke="none" y="174.12" fill="#000000 icc-color(p1,0,0,0)" x="87.2305">o  [CODE_IFR]</tspan>
<tspan font-family="ArialMT,sans-serif" font-size="8.2336" letter-spacing="0" fill-rule="nonzero" stroke="none" y="183.06" fill="#000000 icc-color(p1,0,0,0)" x="87.2305">o  TXT_DESCR_REF_PT</tspan>
<tspan font-family="ArialMT,sans-serif" font-size="8.2336" letter-spacing="0" fill-rule="nonzero" stroke="none" y="191.94" fill="#000000 icc-color(p1,0,0,0)" x="87.2305">*  GEO_LAT</tspan>
<tspan font-family="ArialMT,sans-serif" font-size="8.2336" letter-spacing="0" fill-rule="nonzero" stroke="none" y="200.88" fill="#000000 icc-color(p1,0,0,0)" x="87.2305">*  GEO_LONG</tspan>
<tspan font-family="ArialMT,sans-serif" font-size="8.2336" letter-spacing="0" fill-rule="nonzero" stroke="none" y="209.82" fill="#000000 icc-color(p1,0,0,0)" x="87.2305">o  CODE_DATUM</tspan>
<tspan font-family="ArialMT,sans-serif" font-size="8.2336" letter-spacing="0" fill-rule="nonzero" stroke="none" y="218.7" fill="#000000 icc-color(p1,0,0,0)" x="87.2305">o  VAL_GEO_ACCURACY</tspan>
<tspan font-family="ArialMT,sans-serif" font-size="8.2336" letter-spacing="0" fill-rule="nonzero" stroke="none" y="227.64" fill="#000000 icc-color(p1,0,0,0)" x="87.2305">o  UOM_GEO_ACCURACY</tspan>
<tspan font-family="ArialMT,sans-serif" font-size="8.2336" letter-spacing="0" fill-rule="nonzero" stroke="none" y="236.58" fill="#000000 icc-color(p1,0,0,0)" x="87.2305">o  VAL_ELEV</tspan>
<tspan font-family="ArialMT,sans-serif" font-size="8.2336" letter-spacing="0" fill-rule="nonzero" stroke="none" y="245.46" fill="#000000 icc-color(p1,0,0,0)" x="87.2305">o  VAL_ELEV_ACCURACY</tspan>
<tspan font-family="ArialMT,sans-serif" font-size="8.2336" letter-spacing="0" fill-rule="nonzero" stroke="none" y="254.4" fill="#000000 icc-color(p1,0,0,0)" x="87.2305">o  VAL_GEOID_UNDULATION</tspan>
<tspan font-family="ArialMT,sans-serif" font-size="8.2336" letter-spacing="0" fill-rule="nonzero" stroke="none" y="263.34" fill="#000000 icc-color(p1,0,0,0)" x="87.2305">o  UOM_DIST_VER</tspan>
<tspan font-family="ArialMT,sans-serif" font-size="8.2336" letter-spacing="0" fill-rule="nonzero" stroke="none" y="272.22" fill="#000000 icc-color(p1,0,0,0)" x="87.2305">o  VAL_CRC</tspan>
<tspan font-family="ArialMT,sans-serif" font-size="8.2336" letter-spacing="0" fill-rule="nonzero" stroke="none" y="281.16" fill="#000000 icc-color(p1,0,0,0)" x="87.2305">o  TXT_VER_DATUM</tspan>
<tspan font-family="ArialMT,sans-serif" font-size="8.2336" letter-spacing="0" fill-rule="nonzero" stroke="none" y="290.1" fill="#000000 icc-color(p1,0,0,0)" x="87.2305">o  TXT_NAME_CITY_SER</tspan>
<tspan font-family="ArialMT,sans-serif" font-size="8.2336" letter-spacing="0" fill-rule="nonzero" stroke="none" y="298.98" fill="#000000 icc-color(p1,0,0,0)" x="87.2305">o  TXT_DESCR_SITE</tspan>
<tspan font-family="ArialMT,sans-serif" font-size="8.2336" letter-spacing="0" fill-rule="nonzero" stroke="none" y="307.92" fill="#000000 icc-color(p1,0,0,0)" x="87.2305">o  VAL_MAG_VAR</tspan>
<tspan font-family="ArialMT,sans-serif" font-size="8.2336" letter-spacing="0" fill-rule="nonzero" stroke="none" y="316.8" fill="#000000 icc-color(p1,0,0,0)" x="87.2305">o  DATE_MAG_VAR</tspan>
<tspan font-family="ArialMT,sans-serif" font-size="8.2336" letter-spacing="0" fill-rule="nonzero" stroke="none" y="325.74" fill="#000000 icc-color(p1,0,0,0)" x="87.2305">o  VAL_MAG_VAR_CHG</tspan>
<tspan font-family="ArialMT,sans-serif" font-size="8.2336" letter-spacing="0" fill-rule="nonzero" stroke="none" y="334.68" fill="#000000 icc-color(p1,0,0,0)" x="87.2305">o  VAL_REF_T</tspan>
<tspan font-family="ArialMT,sans-serif" font-size="8.2336" letter-spacing="0" fill-rule="nonzero" stroke="none" y="343.56" fill="#000000 icc-color(p1,0,0,0)" x="87.2305">o  UOM_REF_T</tspan>
<tspan font-family="ArialMT,sans-serif" font-size="8.2336" letter-spacing="0" fill-rule="nonzero" stroke="none" y="352.5" fill="#000000 icc-color(p1,0,0,0)" x="87.2305">o  TXT_NAME_ADMIN</tspan>
<tspan font-family="ArialMT,sans-serif" font-size="8.2336" letter-spacing="0" fill-rule="nonzero" stroke="none" y="361.44" fill="#000000 icc-color(p1,0,0,0)" x="87.2305">o  TXT_DESCR_ACL</tspan>
<tspan font-family="ArialMT,sans-serif" font-size="8.2336" letter-spacing="0" fill-rule="nonzero" stroke="none" y="370.32" fill="#000000 icc-color(p1,0,0,0)" x="87.2305">o  TXT_DESCR_SRY_PWR</tspan>
<tspan font-family="ArialMT,sans-serif" font-size="8.2336" letter-spacing="0" fill-rule="nonzero" stroke="none" y="379.26" fill="#000000 icc-color(p1,0,0,0)" x="87.2305">o  TXT_DESCR_WDI</tspan>
<tspan font-family="ArialMT,sans-serif" font-size="8.2336" letter-spacing="0" fill-rule="nonzero" stroke="none" y="388.2" fill="#000000 icc-color(p1,0,0,0)" x="87.2305">o  TXT_DESCR_LDI</tspan>
<tspan font-family="ArialMT,sans-serif" font-size="8.2336" letter-spacing="0" fill-rule="nonzero" stroke="none" y="397.08" fill="#000000 icc-color(p1,0,0,0)" x="87.2305">o  VAL_TRANSITION_ALT</tspan>
<tspan font-family="ArialMT,sans-serif" font-size="8.2336" letter-spacing="0" fill-rule="nonzero" stroke="none" y="406.02" fill="#000000 icc-color(p1,0,0,0)" x="87.2305">o  UOM_TRANSITION_ALT</tspan>
<tspan font-family="ArialMT,sans-serif" font-size="8.2336" letter-spacing="0" fill-rule="nonzero" stroke="none" y="414.96" fill="#000000 icc-color(p1,0,0,0)" x="87.2305">o  TXT_RMK</tspan>
</text>
</a>
<a onclick="selectEntity('ADDRESS');" onmousemove="(window.status ='ADDRESS')">
<path id="ADDRESS" stroke-width="1" d="M190.74 445.371C186.96 445.371 183.9 442.251 183.9 438.471L183.9 351.411C183.9 347.631 186.96 344.571 190.74 344.571L255.84 344.571C259.62 344.571 262.74 347.631 262.74 351.411L262.74 438.471C262.74 442.251 259.62 445.371 255.84 445.371Z" fill-rule="evenodd" stroke-miterlimit="10" stroke="#000000 icc-color(p1,0,0,0)" stroke-linejoin="round" fill="#ffffff icc-color(p1,1,1,1)" stroke-linecap="round"/>
<text transform="matrix(0 1 1 0 0 0)">
<tspan font-family="ArialMT,sans-serif" font-size="10.9781" letter-spacing="0" fill-rule="nonzero" stroke="none" y="200.58" fill="#000000 icc-color(p1,0,0,0)" x="351.41">ADDRESS</tspan>
<tspan font-family="ArialMT,sans-serif" font-size="8.2336" letter-spacing="0" fill-rule="nonzero" stroke="none" y="210.48" fill="#000000 icc-color(p1,0,0,0)" x="351.41">*  CODE_TYPE</tspan>
<tspan font-family="ArialMT,sans-serif" font-size="8.2336" letter-spacing="0" fill-rule="nonzero" stroke="none" y="219.42" fill="#000000 icc-color(p1,0,0,0)" x="351.41">*  TXT_ADDRESS</tspan>
<tspan font-family="ArialMT,sans-serif" font-size="8.2336" letter-spacing="0" fill-rule="nonzero" stroke="none" y="228.3" fill="#000000 icc-color(p1,0,0,0)" x="351.41">o  TXT_RMK</tspan>
</text>
</a>
<path stroke-width="1" d="M170.16 337.671C170.16 333.891 173.22 330.831 177 330.831M170.16 337.671L170.16 452.271M177 459.051C173.22 459.051 170.16 455.991 170.16 452.211M177 459.111L245.64 459.111M252.42 452.211C252.42 455.991 249.36 459.051 245.58 459.051M245.58 330.831C249.36 330.831 252.42 333.891 252.42 337.671M245.64 330.831L177 330.831M245.58 462.471C243.72 462.471 242.22 460.911 242.22 459.051C242.22 457.191 243.72 455.691 245.58 455.691C247.44 455.691 249 457.191 249 459.051C249 460.911 247.44 462.471 245.58 462.471ZM170.1 403.491C168.24 403.491 166.74 401.931 166.74 400.071C166.74 398.211 168.24 396.711 170.1 396.711C171.96 396.711 173.52 398.211 173.52 400.071C173.52 401.931 171.96 403.491 170.1 403.491ZM194.1 462.471C192.24 462.471 190.74 460.911 190.74 459.051C190.74 457.191 192.24 455.691 194.1 455.691C195.96 455.691 197.52 457.191 197.52 459.051C197.52 460.911 195.96 462.471 194.1 462.471ZM245.58 334.191C243.72 334.191 242.22 332.631 242.22 330.771C242.22 328.911 243.72 327.411 245.58 327.411C247.44 327.411 249 328.911 249 330.771C249 332.631 247.44 334.191 245.58 334.191Z" stroke-miterlimit="10" stroke="#000000 icc-color(p1,0,0,0)" stroke-linejoin="round" fill="none" stroke-linecap="round"/>
<path stroke-width="1" d="M245.64 224.451L245.64 236.811M245.64 240.951L245.64 253.311M245.64 257.391L245.64 269.751M245.64 273.891L245.64 344.571M245.64 334.251L242.22 344.571M245.64 334.251L249.06 344.571M245.64 334.251L245.64 344.571" stroke-miterlimit="10" stroke="#000000 icc-color(p1,0,0,0)" stroke-linejoin="round" fill="none" stroke-linecap="round"/>
<text transform="matrix(0 1 1 0 0 0)">
<tspan font-family="ArialMT,sans-serif" font-size="10.9781" letter-spacing="0" fill-rule="nonzero" stroke="none" y="237.66" fill="#000000 icc-color(p1,0,0,0)" x="227.21">having</tspan>
<tspan font-family="ArialMT,sans-serif" font-size="10.9781" letter-spacing="0" fill-rule="nonzero" stroke="none" y="260.94" fill="#000000 icc-color(p1,0,0,0)" x="310.91">for</tspan>
</text>
<path stroke-width="1" d="M245.64 445.431L245.64 548.331M245.64 552.411L245.64 564.771M245.64 568.911L245.64 581.271M245.64 585.351L245.64 597.711M245.64 601.851L245.64 614.211M245.64 618.291L245.64 630.651M245.64 634.791L245.64 647.091M245.64 455.691L242.22 445.431M245.64 455.691L249.06 445.431M245.64 455.691L245.64 445.431" stroke-miterlimit="10" stroke="#000000 icc-color(p1,0,0,0)" stroke-linejoin="round" fill="none" stroke-linecap="round"/>
<text transform="matrix(0 1 1 0 0 0)">
<tspan font-family="ArialMT,sans-serif" font-size="10.9781" letter-spacing="0" fill-rule="nonzero" stroke="none" y="236.28" fill="#000000 icc-color(p1,0,0,0)" x="463.25">for</tspan>
<tspan font-family="ArialMT,sans-serif" font-size="10.9781" letter-spacing="0" fill-rule="nonzero" stroke="none" y="258.9" fill="#000000 icc-color(p1,0,0,0)" x="609.41">having</tspan>
</text>
<path stroke-width="1" d="M183.9 400.131L149.58 400.131M145.44 400.131L133.14 400.131M129 400.131L116.64 400.131M173.58 400.131L183.9 396.711M173.58 400.131L183.9 403.551M173.58 400.131L183.9 400.131" stroke-miterlimit="10" stroke="#000000 icc-color(p1,0,0,0)" stroke-linejoin="round" fill="none" stroke-linecap="round"/>
<text transform="matrix(0 1 1 0 0 0)">
<tspan font-family="ArialMT,sans-serif" font-size="10.9781" letter-spacing="0" fill-rule="nonzero" stroke="none" y="162.84" fill="#000000 icc-color(p1,0,0,0)" x="374.03">for</tspan>
<tspan font-family="ArialMT,sans-serif" font-size="10.9781" letter-spacing="0" fill-rule="nonzero" stroke="none" y="132" fill="#000000 icc-color(p1,0,0,0)" x="403.551">having</tspan>
</text>
<path stroke-width="1" d="M194.16 445.431L194.16 485.871M194.16 490.011L194.16 502.37M194.16 506.451L194.16 518.81M194.16 522.951L194.16 526.37M194.16 455.691L190.74 445.431M194.16 455.691L197.58 445.431M194.16 455.691L194.16 445.431" stroke-miterlimit="10" stroke="#000000 icc-color(p1,0,0,0)" stroke-linejoin="round" fill="none" stroke-linecap="round"/>
<text transform="matrix(0 1 1 0 0 0)">
<tspan font-family="ArialMT,sans-serif" font-size="10.9781" letter-spacing="0" fill-rule="nonzero" stroke="none" y="182.76" fill="#000000 icc-color(p1,0,0,0)" x="465.29">for</tspan>
<tspan font-family="ArialMT,sans-serif" font-size="10.9781" letter-spacing="0" fill-rule="nonzero" stroke="none" y="206.099" fill="#000000 icc-color(p1,0,0,0)" x="485.21">having</tspan>
</text>
<path stroke-width="1" d="M266.88 404.931L279.24 404.211L303.3 403.551M293.64 403.551L303.3 400.131M293.64 403.551L303.3 406.971M293.64 403.551L303.3 403.551" stroke-miterlimit="10" stroke="#000000 icc-color(p1,0,0,0)" stroke-linejoin="round" fill="none" stroke-linecap="round"/>
<text transform="matrix(0 1 1 0 0 0)">
<tspan font-family="ArialMT,sans-serif" font-size="10.9781" letter-spacing="0" fill-rule="nonzero" stroke="none" y="279.48" fill="#000000 icc-color(p1,0,0,0)" x="408.35">required for FPL-MSG concerning</tspan>
<tspan font-family="ArialMT,sans-serif" font-size="10.9781" letter-spacing="0" fill-rule="nonzero" stroke="none" y="291.84" fill="#000000 icc-color(p1,0,0,0)" x="223.791">requiring for FPL-MSG the use of</tspan>
</text>
</g>
</g>
</g>
</svg>
